{
  "name": "+3/+4 Ranged Weapon Special Abilities",
  "flags": {},
  "description": "",
  "results": [
    {
      "_id": "0XFgrF4biQEW5lUh",
      "flags": {},
      "type": 0,
      "text": "Lucky, Greater",
      "img": "icons/svg/d20-black.svg",
      "resultId": "",
      "weight": 25,
      "range": [1, 25],
      "drawn": false
    },
    {
      "_id": "wtIHc80fQPZnHpkb",
      "flags": {},
      "type": 0,
      "text": "Reliable, Greater",
      "img": "icons/svg/d20-black.svg",
      "resultId": "",
      "weight": 20,
      "range": [26, 45],
      "drawn": false
    },
    {
      "_id": "vGNZpzgOo9RMekt7",
      "flags": {},
      "type": 0,
      "text": "Speed",
      "img": "icons/svg/d20-black.svg",
      "resultId": "",
      "weight": 40,
      "range": [46, 85],
      "drawn": false
    },
    {
      "_id": "eUakzwLE976detk6",
      "flags": {},
      "type": 0,
      "text": "Brilliant Energy",
      "img": "icons/svg/d20-black.svg",
      "resultId": "",
      "weight": 9,
      "range": [86, 94],
      "drawn": false
    },
    {
      "_id": "uGc4IuK0Cv9JcvYJ",
      "flags": {},
      "type": 0,
      "text": "Designating, Greater",
      "img": "icons/svg/d20-black.svg",
      "resultId": "",
      "weight": 2,
      "range": [95, 96],
      "drawn": false
    },
    {
      "_id": "MsGDkT2diwaRsgcu",
      "flags": {},
      "type": 0,
      "text": "Nimble Shot",
      "img": "icons/svg/d20-black.svg",
      "resultId": "",
      "weight": 2,
      "range": [97, 98],
      "drawn": false
    },
    {
      "_id": "cRbmExvAvH5yQuKW",
      "flags": {},
      "type": 0,
      "text": "Second Chance",
      "img": "icons/svg/d20-black.svg",
      "resultId": "",
      "weight": 2,
      "range": [99, 100],
      "drawn": false
    }
  ],
  "formula": "1d100",
  "replacement": true,
  "displayRoll": true,
  "_id": "cYVk7OcxFqNyxdPc"
}
