{
  "name": "Greater Major Staff",
  "flags": {},
  "description": "",
  "results": [
    {
      "_id": "ttPxbKNOptGYM3r0",
      "flags": {},
      "type": 0,
      "text": "Staff of Illumination",
      "weight": 4,
      "range": [1, 4],
      "drawn": false
    },
    {
      "_id": "QHFb83Nip40iDfo0",
      "flags": {},
      "type": 0,
      "text": "Staff of Obstacles",
      "weight": 3,
      "range": [5, 7],
      "drawn": false
    },
    {
      "_id": "DMSySUwb4651lHNR",
      "flags": {},
      "type": 0,
      "text": "Staff of Heaven and Earth",
      "weight": 3,
      "range": [8, 10],
      "drawn": false
    },
    {
      "_id": "7tSBOH3A29D25yoR",
      "flags": {},
      "type": 0,
      "text": "Staff of Travel",
      "weight": 3,
      "range": [11, 13],
      "drawn": false
    },
    {
      "_id": "xqyhLhZHxQVDrnvh",
      "flags": {},
      "type": 0,
      "text": "Staff of Hoarding",
      "weight": 3,
      "range": [14, 16],
      "drawn": false
    },
    {
      "_id": "yYeTDeF8PuxxfG1M",
      "flags": {},
      "type": 0,
      "text": "Staff of Traps",
      "weight": 3,
      "range": [17, 19],
      "drawn": false
    },
    {
      "_id": "F6Vnw3BaYbhANFR8",
      "flags": {},
      "type": 0,
      "text": "Staff of Many Rays",
      "weight": 3,
      "range": [20, 22],
      "drawn": false
    },
    {
      "_id": "DGzHeZymwAdZPxn4",
      "flags": {},
      "type": 0,
      "text": "Staff of Mithral Might",
      "weight": 3,
      "range": [23, 25],
      "drawn": false
    },
    {
      "_id": "DJq0k7Xj6e1pRtwQ",
      "flags": {},
      "type": 0,
      "text": "Staff of Defense",
      "weight": 4,
      "range": [26, 29],
      "drawn": false
    },
    {
      "_id": "VUHnz9Hwjs9fD9AR",
      "flags": {},
      "type": 0,
      "text": "Staff of the Planes",
      "weight": 3,
      "range": [30, 32],
      "drawn": false
    },
    {
      "_id": "I2PDjqJnFBeYIVtB",
      "flags": {},
      "type": 0,
      "text": "Staff of Hungry Shadows",
      "weight": 3,
      "range": [33, 35],
      "drawn": false
    },
    {
      "_id": "yR6RTiIg2kmxtond",
      "flags": {},
      "type": 0,
      "text": "Dragon Staff",
      "weight": 3,
      "range": [36, 38],
      "drawn": false
    },
    {
      "_id": "9C9o4B9S7KHcyCEW",
      "flags": {},
      "type": 0,
      "text": "Staff of Slumber",
      "weight": 3,
      "range": [39, 41],
      "drawn": false
    },
    {
      "_id": "fWvJmbX57RnOvXvB",
      "flags": {},
      "type": 0,
      "text": "Staff of Abjuration",
      "weight": 5,
      "range": [42, 46],
      "drawn": false
    },
    {
      "_id": "ICFmFvWepqJqCBcR",
      "flags": {},
      "type": 0,
      "text": "Staff of Conjuration",
      "weight": 5,
      "range": [47, 51],
      "drawn": false
    },
    {
      "_id": "OK6iKiFHw5ZfchZm",
      "flags": {},
      "type": 0,
      "text": "Staff of Divination",
      "weight": 5,
      "range": [52, 56],
      "drawn": false
    },
    {
      "_id": "dpyENIpJonqDJuuK",
      "flags": {},
      "type": 0,
      "text": "Staff of Enchantment",
      "weight": 5,
      "range": [57, 61],
      "drawn": false
    },
    {
      "_id": "Q47Sjmmqi0x36p0B",
      "flags": {},
      "type": 0,
      "text": "Staff of Evocation",
      "weight": 5,
      "range": [62, 66],
      "drawn": false
    },
    {
      "_id": "U6P9d7pGNduJrggd",
      "flags": {},
      "type": 0,
      "text": "Staff of Illusion",
      "weight": 5,
      "range": [67, 71],
      "drawn": false
    },
    {
      "_id": "ApaDWe2MCITlQqG7",
      "flags": {},
      "type": 0,
      "text": "Staff of Necromancy",
      "weight": 5,
      "range": [72, 76],
      "drawn": false
    },
    {
      "_id": "IbGz9vjN0ViNocxn",
      "flags": {},
      "type": 0,
      "text": "Staff of Transmutation",
      "weight": 5,
      "range": [77, 81],
      "drawn": false
    },
    {
      "_id": "DHFzQRJCluHd3UN9",
      "flags": {},
      "type": 0,
      "text": "Staff of Weather",
      "weight": 2,
      "range": [82, 83],
      "drawn": false
    },
    {
      "_id": "AJWzY8f0kM6lOLqJ",
      "flags": {},
      "type": 0,
      "text": "Staff of Earth and Stone",
      "weight": 3,
      "range": [84, 86],
      "drawn": false
    },
    {
      "_id": "iC9JjIbsboGOU9qk",
      "flags": {},
      "type": 0,
      "text": "Staff of Vision",
      "weight": 2,
      "range": [87, 88],
      "drawn": false
    },
    {
      "_id": "2vJQwaZKaPTMXxjs",
      "flags": {},
      "type": 0,
      "text": "Staff of the Woodlands",
      "weight": 3,
      "range": [89, 91],
      "drawn": false
    },
    {
      "_id": "k1Lgh7mvoTNb99l5",
      "flags": {},
      "type": 0,
      "text": "Staff of Life",
      "weight": 3,
      "range": [92, 94],
      "drawn": false
    },
    {
      "_id": "85FettX9XljMvCVK",
      "flags": {},
      "type": 0,
      "text": "Staff of One Hundred Hands",
      "weight": 1,
      "range": [95, 95],
      "drawn": false
    },
    {
      "_id": "2UciKndxLgUSCvT1",
      "flags": {},
      "type": 0,
      "text": "Staff of Passage",
      "weight": 3,
      "range": [96, 98],
      "drawn": false
    },
    {
      "_id": "iaGgCD7xAyFCWRmW",
      "flags": {},
      "type": 0,
      "text": "Staff of the Hierophant",
      "weight": 1,
      "range": [99, 99],
      "drawn": false
    },
    {
      "_id": "533yZEkKZ34fUhF8",
      "flags": {},
      "type": 0,
      "text": "Staff of Power",
      "weight": 1,
      "range": [100, 100],
      "drawn": false
    }
  ],
  "formula": "1d100",
  "replacement": true,
  "displayRoll": true,
  "_id": "ggNuv9LiozHksL9s"
}
