{
  "name": "Greater Medium Staff",
  "flags": {},
  "description": "",
  "results": [
    {
      "_id": "DOZjCLwzcJOQq3KC",
      "flags": {},
      "type": 0,
      "text": "Staff of Fire",
      "weight": 11,
      "range": [1, 11],
      "drawn": false
    },
    {
      "_id": "v8uGix966YrW2Iuo",
      "flags": {},
      "type": 0,
      "text": "Staff of Courage",
      "weight": 10,
      "range": [12, 21],
      "drawn": false
    },
    {
      "_id": "7Zz68sZUugDtLXmK",
      "flags": {},
      "type": 0,
      "text": "Staff of Belittling",
      "weight": 8,
      "range": [22, 29],
      "drawn": false
    },
    {
      "_id": "0YmhAXLmYl5lGvOL",
      "flags": {},
      "type": 0,
      "text": "Staff of Feast and Famine",
      "weight": 9,
      "range": [30, 38],
      "drawn": false
    },
    {
      "_id": "RVDe0o2PkGiMrAyq",
      "flags": {},
      "type": 0,
      "text": "Staff of Rigor",
      "weight": 11,
      "range": [39, 49],
      "drawn": false
    },
    {
      "_id": "7Rq85nwBy0dmdh5a",
      "flags": {},
      "type": 0,
      "text": "Staff of Swarming Insects",
      "weight": 11,
      "range": [50, 60],
      "drawn": false
    },
    {
      "_id": "B1RUl1sxKer5yIFu",
      "flags": {},
      "type": 0,
      "text": "Staff of Authority",
      "weight": 8,
      "range": [61, 68],
      "drawn": false
    },
    {
      "_id": "VJfvrW6zsUMEkJwY",
      "flags": {},
      "type": 0,
      "text": "Staff of Radiance",
      "weight": 13,
      "range": [69, 81],
      "drawn": false
    },
    {
      "_id": "iVkhO2kCzh3fLSXW",
      "flags": {},
      "type": 0,
      "text": "Staff of Size Alteration",
      "weight": 11,
      "range": [82, 92],
      "drawn": false
    },
    {
      "_id": "rlaiOdlFe7komC4u",
      "flags": {},
      "type": 0,
      "text": "Staff of Journeys",
      "weight": 8,
      "range": [93, 100],
      "drawn": false
    }
  ],
  "formula": "1d100",
  "replacement": true,
  "displayRoll": true,
  "_id": "IgCCQBQKWsqRHdzc"
}
