{
  "name": "Lesser Minor Eye",
  "flags": {},
  "description": "",
  "results": [
    {
      "_id": "QdxyLSUBMkExtsgm",
      "flags": {},
      "type": 0,
      "text": "\tDeathwatch Eyes",
      "weight": 18,
      "range": [1, 18],
      "drawn": false
    },
    {
      "_id": "ejN7yui1J2PziLQ6",
      "flags": {},
      "type": 0,
      "text": "\tEyes of the Eagle",
      "weight": 20,
      "range": [19, 38],
      "drawn": false
    },
    {
      "_id": "SOGcW9bpUJxHguIL",
      "flags": {},
      "type": 0,
      "text": "\tGoggles of Minute Seeing",
      "weight": 20,
      "range": [39, 58],
      "drawn": false
    },
    {
      "_id": "viIteOYBsZyKX83o",
      "flags": {},
      "type": 0,
      "text": "\tPirate's Eye Patch",
      "weight": 14,
      "range": [59, 72],
      "drawn": false
    },
    {
      "_id": "X8FcWLyRwM2eA7rd",
      "flags": {},
      "type": 0,
      "text": "\tSpectacles of Understanding",
      "weight": 15,
      "range": [73, 87],
      "drawn": false
    },
    {
      "_id": "4iifZTh5kgh5vzYx",
      "flags": {},
      "type": 0,
      "text": "\tLenses of Detection",
      "weight": 13,
      "range": [88, 100],
      "drawn": false
    }
  ],
  "formula": "1d100",
  "replacement": true,
  "displayRoll": true,
  "_id": "RdtqAAJ7ixYDJye6"
}
