{
  "name": "Lesser Minor Hand",
  "flags": {},
  "description": "",
  "results": [
    {
      "_id": "SCMfOdrAOEF53sPO",
      "flags": {},
      "type": 0,
      "text": "\tAssisting Gloves",
      "weight": 13,
      "range": [1, 13],
      "drawn": false
    },
    {
      "_id": "CV6EERITm6aBSKmE",
      "flags": {},
      "type": 0,
      "text": "\tClaws of the Ice Bear",
      "weight": 9,
      "range": [14, 22],
      "drawn": false
    },
    {
      "_id": "T8lisVJOgLloqoWS",
      "flags": {},
      "type": 0,
      "text": "\tGloves of Reconnaissance",
      "weight": 12,
      "range": [23, 34],
      "drawn": false
    },
    {
      "_id": "VsOfXj7GKBIlRX1g",
      "flags": {},
      "type": 0,
      "text": "\tGlowing Glove",
      "weight": 12,
      "range": [35, 46],
      "drawn": false
    },
    {
      "_id": "gGUSk4vjsZwBwUqF",
      "flags": {},
      "type": 0,
      "text": "\tApprentice's Cheating Gloves",
      "weight": 12,
      "range": [47, 58],
      "drawn": false
    },
    {
      "_id": "TIBI8A8JA6qOa1OB",
      "flags": {},
      "type": 0,
      "text": "\tChallenger's Gloves",
      "weight": 12,
      "range": [59, 70],
      "drawn": false
    },
    {
      "_id": "FULuHVwI5it3umi7",
      "flags": {},
      "type": 0,
      "text": "\tGloves of Larceny",
      "weight": 10,
      "range": [71, 80],
      "drawn": false
    },
    {
      "_id": "bUgXMDY12K3cYw3G",
      "flags": {},
      "type": 0,
      "text": "\tHealer's Gloves",
      "weight": 10,
      "range": [81, 90],
      "drawn": false
    },
    {
      "_id": "b0IRh3brmcunJhEH",
      "flags": {},
      "type": 0,
      "text": "\tEngineer's Workgloves",
      "weight": 10,
      "range": [91, 100],
      "drawn": false
    }
  ],
  "formula": "1d100",
  "replacement": true,
  "displayRoll": true,
  "_id": "VsbyBT2yivoR6Y3b"
}
