{
  "name": "Lesser Medium Specific Shields",
  "flags": {},
  "description": "",
  "results": [
    {
      "_id": "lv9UIvmreZsFf9Aw",
      "flags": {},
      "type": 0,
      "text": "Spined Shield",
      "weight": 35,
      "range": [1, 35],
      "drawn": false
    },
    {
      "_id": "EsSlgEhXdRVL706T",
      "flags": {},
      "type": 0,
      "text": "Dragonslayer's Shield",
      "weight": 15,
      "range": [36, 50],
      "drawn": false
    },
    {
      "_id": "Ix8rQtxSirAZskhx",
      "flags": {},
      "type": 0,
      "text": "Collapsible Tower",
      "weight": 15,
      "range": [51, 65],
      "drawn": false
    },
    {
      "_id": "TEpWKqd4KlRtEVkO",
      "flags": {},
      "type": 0,
      "text": "Lion's Shield",
      "weight": 35,
      "range": [66, 100],
      "drawn": false
    }
  ],
  "formula": "1d100",
  "replacement": true,
  "displayRoll": true,
  "_id": "neIcvhnS81DfJ34d"
}
