{
  "name": "Ranged",
  "flags": {},
  "description": "",
  "results": [
    {
      "_id": "6q6EnYmZ1TZbdAjn",
      "flags": {},
      "type": 0,
      "text": "Blowgun",
      "weight": 1,
      "range": [1, 1],
      "drawn": false
    },
    {
      "_id": "hoGlJJtsAICDFiet",
      "flags": {},
      "type": 0,
      "text": "Dart",
      "weight": 1,
      "range": [2, 2],
      "drawn": false
    },
    {
      "_id": "OBQ5bDI8p4QtqaXl",
      "flags": {},
      "type": 0,
      "text": "Heavy Crossbow",
      "weight": 1,
      "range": [3, 3],
      "drawn": false
    },
    {
      "_id": "49dEd4Tu6Ida3oU6",
      "flags": {},
      "type": 0,
      "text": "Javelin",
      "weight": 1,
      "range": [4, 4],
      "drawn": false
    },
    {
      "_id": "qBVImwu66J30uG6L",
      "flags": {},
      "type": 0,
      "text": "Light Crossbow",
      "weight": 1,
      "range": [5, 5],
      "drawn": false
    },
    {
      "_id": "tKSCnbIvnSQOH6yI",
      "flags": {},
      "type": 0,
      "text": "Sling",
      "weight": 1,
      "range": [6, 6],
      "drawn": false
    },
    {
      "_id": "9zvK5nRpHnNQdLGC",
      "flags": {},
      "type": 0,
      "text": "Underwater Heavy Crossbow",
      "weight": 1,
      "range": [7, 7],
      "drawn": false
    },
    {
      "_id": "3GIXnshaXA53QYXR",
      "flags": {},
      "type": 0,
      "text": "Underwater Light Crossbow",
      "weight": 1,
      "range": [8, 8],
      "drawn": false
    },
    {
      "_id": "exjgU0YKiF9m4JB5",
      "flags": {},
      "type": 0,
      "text": "Amentum",
      "weight": 1,
      "range": [9, 9],
      "drawn": false
    },
    {
      "_id": "rChKznlK9NAXpRVK",
      "flags": {},
      "type": 0,
      "text": "Atlatl",
      "weight": 1,
      "range": [10, 10],
      "drawn": false
    },
    {
      "_id": "0JC2x1EGLJudbQSa",
      "flags": {},
      "type": 0,
      "text": "Chakram",
      "weight": 1,
      "range": [11, 11],
      "drawn": false
    },
    {
      "_id": "pIzl5U21vS0761v3",
      "flags": {},
      "type": 0,
      "text": "Composite Longbow (Str 2)",
      "weight": 1,
      "range": [12, 12],
      "drawn": false
    },
    {
      "_id": "QFdE8lFKvf5JeLo3",
      "flags": {},
      "type": 0,
      "text": "Composite Shortbow (Str 3)",
      "weight": 1,
      "range": [13, 13],
      "drawn": false
    },
    {
      "_id": "HrhIOZWcXhaiOTTv",
      "flags": {},
      "type": 0,
      "text": "Hunga Munga",
      "weight": 1,
      "range": [14, 14],
      "drawn": false
    },
    {
      "_id": "qk2I1lFMfLNfhRaj",
      "flags": {},
      "type": 0,
      "text": "Longbow",
      "weight": 1,
      "range": [15, 15],
      "drawn": false
    },
    {
      "_id": "XI4Ra79od48qwtK5",
      "flags": {},
      "type": 0,
      "text": "Pilum",
      "weight": 1,
      "range": [16, 16],
      "drawn": false
    },
    {
      "_id": "6Arix3jMa04F2fdM",
      "flags": {},
      "type": 0,
      "text": "Poisoned Sand Tube",
      "weight": 1,
      "range": [17, 17],
      "drawn": false
    },
    {
      "_id": "5ALfptg8topLodK6",
      "flags": {},
      "type": 0,
      "text": "Shortbow",
      "weight": 1,
      "range": [18, 18],
      "drawn": false
    },
    {
      "_id": "JK56ly0rpLcZZE57",
      "flags": {},
      "type": 0,
      "text": "Tube Arrow Shooter",
      "weight": 1,
      "range": [19, 19],
      "drawn": false
    },
    {
      "_id": "E6Nw3uM4e3VAH2bB",
      "flags": {},
      "type": 0,
      "text": "Bolas",
      "weight": 1,
      "range": [20, 20],
      "drawn": false
    },
    {
      "_id": "52piFfucrD6zQyJ9",
      "flags": {},
      "type": 0,
      "text": "Boomerang",
      "weight": 1,
      "range": [21, 21],
      "drawn": false
    },
    {
      "_id": "3SrWikgHAB3rM7st",
      "flags": {},
      "type": 0,
      "text": "Double Crossbow",
      "weight": 1,
      "range": [22, 22],
      "drawn": false
    },
    {
      "_id": "v02Ur77JXvNYvkFa",
      "flags": {},
      "type": 0,
      "text": "Haftling Sling Staff",
      "weight": 1,
      "range": [23, 23],
      "drawn": false
    },
    {
      "_id": "SBL34S2e69eEq9ol",
      "flags": {},
      "type": 0,
      "text": "Hand Crossbow",
      "weight": 1,
      "range": [24, 24],
      "drawn": false
    },
    {
      "_id": "RxduJ3Cc9ryXXEFa",
      "flags": {},
      "type": 0,
      "text": "Kestros",
      "weight": 1,
      "range": [25, 25],
      "drawn": false
    },
    {
      "_id": "ZWGwtIpY4l25Tdt6",
      "flags": {},
      "type": 0,
      "text": "Lasso",
      "weight": 1,
      "range": [26, 26],
      "drawn": false
    },
    {
      "_id": "nQq5FbbNkju3nm5G",
      "flags": {},
      "type": 0,
      "text": "Net",
      "weight": 1,
      "range": [27, 27],
      "drawn": false
    },
    {
      "_id": "y1yJBcFFSl65EQHi",
      "flags": {},
      "type": 0,
      "text": "Repeating Hand Crossbow",
      "weight": 1,
      "range": [28, 28],
      "drawn": false
    },
    {
      "_id": "05VdIq0ifKTFzrpY",
      "flags": {},
      "type": 0,
      "text": "Repeating Heavy Crossbow",
      "weight": 1,
      "range": [29, 29],
      "drawn": false
    },
    {
      "_id": "gqorWOu63ENfw2PI",
      "flags": {},
      "type": 0,
      "text": "Repeating Light Crossbow",
      "weight": 1,
      "range": [30, 30],
      "drawn": false
    },
    {
      "_id": "BS2BBZndDqbneIbW",
      "flags": {},
      "type": 0,
      "text": "Rope Dart",
      "weight": 1,
      "range": [31, 31],
      "drawn": false
    },
    {
      "_id": "Im7hPT70DRFxjwCl",
      "flags": {},
      "type": 0,
      "text": "Shuriken (50)",
      "weight": 1,
      "range": [32, 32],
      "drawn": false
    },
    {
      "_id": "eFs5HRX4y0FpbG3R",
      "flags": {},
      "type": 0,
      "text": "Snag Net",
      "weight": 1,
      "range": [33, 33],
      "drawn": false
    },
    {
      "_id": "irHOhBgRKLmyRNhJ",
      "flags": {},
      "type": 0,
      "text": "Throwing Light Steel Shield",
      "weight": 1,
      "range": [34, 34],
      "drawn": false
    }
  ],
  "formula": "1d34",
  "replacement": true,
  "displayRoll": true,
  "_id": "QMDELLppsdz5zS7S"
}
