{
  "name": "Uncommon Level 4 Wands",
  "flags": {},
  "description": "",
  "results": [
    {
      "_id": "BVrbAiMIHGSKRgXp",
      "flags": {},
      "type": 0,
      "text": "Wand of Antiplant Shell",
      "img": "icons/svg/d20-black.svg",
      "resultId": "",
      "weight": 1,
      "range": [1, 1],
      "drawn": false
    },
    {
      "_id": "t3kXwJ2XCMJQeqrF",
      "flags": {},
      "type": 0,
      "text": "Wand of Arcane Eye",
      "img": "icons/svg/d20-black.svg",
      "resultId": "",
      "weight": 3,
      "range": [2, 4],
      "drawn": false
    },
    {
      "_id": "mKVOPSzxbAKi4d7Q",
      "flags": {},
      "type": 0,
      "text": "Wand of Aspect of The Stag",
      "img": "icons/svg/d20-black.svg",
      "resultId": "",
      "weight": 3,
      "range": [5, 7],
      "drawn": false
    },
    {
      "_id": "KQX0wNXcy5xb7trI",
      "flags": {},
      "type": 0,
      "text": "Wand of Ball Lightning",
      "img": "icons/svg/d20-black.svg",
      "resultId": "",
      "weight": 4,
      "range": [8, 11],
      "drawn": false
    },
    {
      "_id": "1vqZ9cRnmZUq8NP0",
      "flags": {},
      "type": 0,
      "text": "Wand of Blight",
      "img": "icons/svg/d20-black.svg",
      "resultId": "",
      "weight": 1,
      "range": [12, 12],
      "drawn": false
    },
    {
      "_id": "zIvNy0uZoXKQBpat",
      "flags": {},
      "type": 0,
      "text": "Wand of Command Plants",
      "img": "icons/svg/d20-black.svg",
      "resultId": "",
      "weight": 1,
      "range": [13, 13],
      "drawn": false
    },
    {
      "_id": "YxFpVuuXEP4CjyqJ",
      "flags": {},
      "type": 0,
      "text": "Wand of Control Water",
      "img": "icons/svg/d20-black.svg",
      "resultId": "",
      "weight": 2,
      "range": [14, 15],
      "drawn": false
    },
    {
      "_id": "CGpU0oysBun69lRX",
      "flags": {},
      "type": 0,
      "text": "Wand of Darkvision, Greater",
      "img": "icons/svg/d20-black.svg",
      "resultId": "",
      "weight": 3,
      "range": [16, 18],
      "drawn": false
    },
    {
      "_id": "SuLkOkA6pxtfoCLR",
      "flags": {},
      "type": 0,
      "text": "Wand of Detect Scrying",
      "img": "icons/svg/d20-black.svg",
      "resultId": "",
      "weight": 1,
      "range": [19, 19],
      "drawn": false
    },
    {
      "_id": "M0iMzaS4zfJ9GIZb",
      "flags": {},
      "type": 0,
      "text": "Wand of Discern Lies",
      "img": "icons/svg/d20-black.svg",
      "resultId": "",
      "weight": 1,
      "range": [20, 20],
      "drawn": false
    },
    {
      "_id": "hSHEfgDX4qibYkFV",
      "flags": {},
      "type": 0,
      "text": "Wand of Dragon's Breath",
      "img": "icons/svg/d20-black.svg",
      "resultId": "",
      "weight": 4,
      "range": [21, 24],
      "drawn": false
    },
    {
      "_id": "JmfxR0S8XhTIfamw",
      "flags": {},
      "type": 0,
      "text": "Wand of False Life, Greater",
      "img": "icons/svg/d20-black.svg",
      "resultId": "",
      "weight": 4,
      "range": [25, 28],
      "drawn": false
    },
    {
      "_id": "4A8PBoxxDJTdge8u",
      "flags": {},
      "type": 0,
      "text": "Wand of Geas, Lesser",
      "img": "icons/svg/d20-black.svg",
      "resultId": "",
      "weight": 2,
      "range": [29, 30],
      "drawn": false
    },
    {
      "_id": "Nv6obGJ1JNhDDoDb",
      "flags": {},
      "type": 0,
      "text": "Wand of Ghost Wolf",
      "img": "icons/svg/d20-black.svg",
      "resultId": "",
      "weight": 4,
      "range": [31, 34],
      "drawn": false
    },
    {
      "_id": "3XaZWv3P0DI5VNSC",
      "flags": {},
      "type": 0,
      "text": "Wand of Giant Vermin",
      "img": "icons/svg/d20-black.svg",
      "resultId": "",
      "weight": 2,
      "range": [35, 36],
      "drawn": false
    },
    {
      "_id": "6SeyxGMTA6Einn1x",
      "flags": {},
      "type": 0,
      "text": "Wand of Hallucinatory Terrain",
      "img": "icons/svg/d20-black.svg",
      "resultId": "",
      "weight": 1,
      "range": [37, 37],
      "drawn": false
    },
    {
      "_id": "tCTjHSibj1zcNAoD",
      "flags": {},
      "type": 0,
      "text": "Wand of Illusory Wall",
      "img": "icons/svg/d20-black.svg",
      "resultId": "",
      "weight": 1,
      "range": [38, 38],
      "drawn": false
    },
    {
      "_id": "MrEZQLGS2ramjcTk",
      "flags": {},
      "type": 0,
      "text": "Wand of Locate Creature",
      "img": "icons/svg/d20-black.svg",
      "resultId": "",
      "weight": 2,
      "range": [39, 40],
      "drawn": false
    },
    {
      "_id": "o6wH2DPeYwLbIypb",
      "flags": {},
      "type": 0,
      "text": "Wand of Minor Creation",
      "img": "icons/svg/d20-black.svg",
      "resultId": "",
      "weight": 2,
      "range": [41, 42],
      "drawn": false
    },
    {
      "_id": "XfqnxuPbKLg8b9lQ",
      "flags": {},
      "type": 0,
      "text": "Wand of Mnemonic Enhancer",
      "img": "icons/svg/d20-black.svg",
      "resultId": "",
      "weight": 1,
      "range": [43, 43],
      "drawn": false
    },
    {
      "_id": "sknfNrM9uL7hDcBc",
      "flags": {},
      "type": 0,
      "text": "Wand of Obsidian Flow",
      "img": "icons/svg/d20-black.svg",
      "resultId": "",
      "weight": 3,
      "range": [44, 46],
      "drawn": false
    },
    {
      "_id": "C8usBMk2Dx9jjyIh",
      "flags": {},
      "type": 0,
      "text": "Wand of Rainbow Pattern",
      "img": "icons/svg/d20-black.svg",
      "resultId": "",
      "weight": 2,
      "range": [47, 48],
      "drawn": false
    },
    {
      "_id": "YOEVoLi0qwdsVxVU",
      "flags": {},
      "type": 0,
      "text": "Wand of Reduce Person, Mass",
      "img": "icons/svg/d20-black.svg",
      "resultId": "",
      "weight": 2,
      "range": [49, 50],
      "drawn": false
    },
    {
      "_id": "qNd1rf9izBwVNoXM",
      "flags": {},
      "type": 0,
      "text": "Wand of Reincarnate",
      "img": "icons/svg/d20-black.svg",
      "resultId": "",
      "weight": 3,
      "range": [51, 53],
      "drawn": false
    },
    {
      "_id": "HSMPKuZks0VbKUSI",
      "flags": {},
      "type": 0,
      "text": "Wand of Repel Vermin",
      "img": "icons/svg/d20-black.svg",
      "resultId": "",
      "weight": 1,
      "range": [54, 54],
      "drawn": false
    },
    {
      "_id": "R9ZIzS2yn5YvzFTd",
      "flags": {},
      "type": 0,
      "text": "Wand of Ride The Waves",
      "img": "icons/svg/d20-black.svg",
      "resultId": "",
      "weight": 2,
      "range": [55, 56],
      "drawn": false
    },
    {
      "_id": "40PTurojkp5Q0yFj",
      "flags": {},
      "type": 0,
      "text": "Wand of Rusting Grasp",
      "img": "icons/svg/d20-black.svg",
      "resultId": "",
      "weight": 3,
      "range": [57, 59],
      "drawn": false
    },
    {
      "_id": "xlgOGXOsN18DhoCb",
      "flags": {},
      "type": 0,
      "text": "Wand of Secure Shelter",
      "img": "icons/svg/d20-black.svg",
      "resultId": "",
      "weight": 1,
      "range": [60, 60],
      "drawn": false
    },
    {
      "_id": "GsT6mNh7332ff9H2",
      "flags": {},
      "type": 0,
      "text": "Wand of Shadow Conjuration",
      "img": "icons/svg/d20-black.svg",
      "resultId": "",
      "weight": 3,
      "range": [61, 63],
      "drawn": false
    },
    {
      "_id": "6xkVmy0KCNrrWDDX",
      "flags": {},
      "type": 0,
      "text": "Wand of Shadow Step",
      "img": "icons/svg/d20-black.svg",
      "resultId": "",
      "weight": 4,
      "range": [64, 67],
      "drawn": false
    },
    {
      "_id": "8KPfUsbx9nImA911",
      "flags": {},
      "type": 0,
      "text": "Wand of Shocking Image",
      "img": "icons/svg/d20-black.svg",
      "resultId": "",
      "weight": 3,
      "range": [68, 70],
      "drawn": false
    },
    {
      "_id": "Jx3OSanxCnvWca2G",
      "flags": {},
      "type": 0,
      "text": "Wand of Spike Stones",
      "img": "icons/svg/d20-black.svg",
      "resultId": "",
      "weight": 4,
      "range": [71, 74],
      "drawn": false
    },
    {
      "_id": "jEIzkTBlRFnDKV0Z",
      "flags": {},
      "type": 0,
      "text": "Wand of Volcanic Storm",
      "img": "icons/svg/d20-black.svg",
      "resultId": "",
      "weight": 2,
      "range": [75, 76],
      "drawn": false
    },
    {
      "_id": "pv2984ihY0uARg0L",
      "flags": {},
      "type": 0,
      "text": "Wand of Wandering Star Motes",
      "img": "icons/svg/d20-black.svg",
      "resultId": "",
      "weight": 3,
      "range": [77, 79],
      "drawn": false
    },
    {
      "_id": "RQIdeEF4pHZAIiwY",
      "flags": {},
      "type": 0,
      "text": "Wand of Animal Growth",
      "img": "icons/svg/d20-black.svg",
      "resultId": "",
      "weight": 1,
      "range": [80, 80],
      "drawn": false
    },
    {
      "_id": "x6n4ks8i2h7CIFXK",
      "flags": {},
      "type": 0,
      "text": "Wand of Commune With Nature",
      "img": "icons/svg/d20-black.svg",
      "resultId": "",
      "weight": 2,
      "range": [81, 82],
      "drawn": false
    },
    {
      "_id": "opOwsoTs4THnHOit",
      "flags": {},
      "type": 0,
      "text": "Wand of Dispel Chaos",
      "img": "icons/svg/d20-black.svg",
      "resultId": "",
      "weight": 1,
      "range": [83, 83],
      "drawn": false
    },
    {
      "_id": "CAqSUdpcRFzzC9FO",
      "flags": {},
      "type": 0,
      "text": "Wand of Dispel Evil",
      "img": "icons/svg/d20-black.svg",
      "resultId": "",
      "weight": 1,
      "range": [84, 84],
      "drawn": false
    },
    {
      "_id": "S4DVUSWSzlfzASTU",
      "flags": {},
      "type": 0,
      "text": "Wand of Dominate Person",
      "img": "icons/svg/d20-black.svg",
      "resultId": "",
      "weight": 3,
      "range": [85, 87],
      "drawn": false
    },
    {
      "_id": "G5efV4y7Y2SIjZTa",
      "flags": {},
      "type": 0,
      "text": "Wand of Hold Monster",
      "img": "icons/svg/d20-black.svg",
      "resultId": "",
      "weight": 4,
      "range": [88, 91],
      "drawn": false
    },
    {
      "_id": "14D1eyrJG8ZSqWoS",
      "flags": {},
      "type": 0,
      "text": "Wand of Holy Sword",
      "img": "icons/svg/d20-black.svg",
      "resultId": "",
      "weight": 3,
      "range": [92, 94],
      "drawn": false
    },
    {
      "_id": "3JJLliFYO4PZsHpC",
      "flags": {},
      "type": 0,
      "text": "Wand of Mark of Justice",
      "img": "icons/svg/d20-black.svg",
      "resultId": "",
      "weight": 1,
      "range": [95, 95],
      "drawn": false
    },
    {
      "_id": "J1wNUp1yjgZBgTlC",
      "flags": {},
      "type": 0,
      "text": "Wand of Modify Memory",
      "img": "icons/svg/d20-black.svg",
      "resultId": "",
      "weight": 2,
      "range": [96, 97],
      "drawn": false
    },
    {
      "_id": "llcW45oN5bLFdqdK",
      "flags": {},
      "type": 0,
      "text": "Wand of Tree Stride",
      "img": "icons/svg/d20-black.svg",
      "resultId": "",
      "weight": 1,
      "range": [98, 98],
      "drawn": false
    },
    {
      "_id": "BxGb9DqRwlRfd1T5",
      "flags": {},
      "type": 0,
      "text": "Wand of Zone of Silence",
      "img": "icons/svg/d20-black.svg",
      "resultId": "",
      "weight": 1,
      "range": [99, 99],
      "drawn": false
    },
    {
      "_id": "D6J7gnVZBmu93cgh",
      "flags": {},
      "type": 0,
      "text": "Wand of Legend Lore",
      "img": "icons/svg/d20-black.svg",
      "resultId": "",
      "weight": 1,
      "range": [100, 100],
      "drawn": false
    }
  ],
  "formula": "1d100",
  "replacement": true,
  "displayRoll": true,
  "_id": "AoVoLFKJpX4bPUqh"
}
