{
  "name": "Uncommon Level 1 Potions and Oils",
  "flags": {},
  "description": "",
  "results": [
    {
      "_id": "TrkmPxSHfbtu7ln6",
      "flags": {},
      "type": 0,
      "text": "Potion of Animate Rope",
      "img": "icons/svg/d20-black.svg",
      "resultId": "",
      "weight": 4,
      "range": [102, 105],
      "drawn": false
    },
    {
      "_id": "EhEavw81ZOQFSEUF",
      "flags": {},
      "type": 0,
      "text": "Potion of Ant Haul",
      "img": "icons/svg/d20-black.svg",
      "resultId": "",
      "weight": 7,
      "range": [106, 112],
      "drawn": false
    },
    {
      "_id": "axqExlqYm8wJ4Ly8",
      "flags": {},
      "type": 0,
      "text": "Potion of Cloak of The Shade",
      "img": "icons/svg/d20-black.svg",
      "resultId": "",
      "weight": 5,
      "range": [113, 117],
      "drawn": false
    },
    {
      "_id": "CiZwvMZQQdharVHr",
      "flags": {},
      "type": 0,
      "text": "Potion of Erase",
      "img": "icons/svg/d20-black.svg",
      "resultId": "",
      "weight": 4,
      "range": [118, 121],
      "drawn": false
    },
    {
      "_id": "G6baXzD7SZ58SBXk",
      "flags": {},
      "type": 0,
      "text": "Potion of Feather Step",
      "img": "icons/svg/d20-black.svg",
      "resultId": "",
      "weight": 6,
      "range": [122, 127],
      "drawn": false
    },
    {
      "_id": "z0w10ZWhnekBbkl1",
      "flags": {},
      "type": 0,
      "text": "Potion of Goodberry",
      "img": "icons/svg/d20-black.svg",
      "resultId": "",
      "weight": 4,
      "range": [128, 131],
      "drawn": false
    },
    {
      "_id": "HLqAdprrsEmjuioO",
      "flags": {},
      "type": 0,
      "text": "Potion of Grease",
      "img": "icons/svg/d20-black.svg",
      "resultId": "",
      "weight": 4,
      "range": [132, 135],
      "drawn": false
    },
    {
      "_id": "Kz1HKLyzkGjwLIop",
      "flags": {},
      "type": 0,
      "text": "Potion of Hide From Animals",
      "img": "icons/svg/d20-black.svg",
      "resultId": "",
      "weight": 7,
      "range": [136, 142],
      "drawn": false
    },
    {
      "_id": "uzXs3pxWYA5nFKPp",
      "flags": {},
      "type": 0,
      "text": "Potion of Hide From Undead",
      "img": "icons/svg/d20-black.svg",
      "resultId": "",
      "weight": 8,
      "range": [143, 150],
      "drawn": false
    },
    {
      "_id": "CH1F4d9xKGn9hjnu",
      "flags": {},
      "type": 0,
      "text": "Potion of Hold Portal",
      "img": "icons/svg/d20-black.svg",
      "resultId": "",
      "weight": 4,
      "range": [151, 154],
      "drawn": false
    },
    {
      "_id": "rhPeiIzOIZguhXdT",
      "flags": {},
      "type": 0,
      "text": "Potion of Invigorate",
      "img": "icons/svg/d20-black.svg",
      "resultId": "",
      "weight": 5,
      "range": [155, 159],
      "drawn": false
    },
    {
      "_id": "YlAbqwGzUb2W0A1d",
      "flags": {},
      "type": 0,
      "text": "Potion of Keen Senses",
      "img": "icons/svg/d20-black.svg",
      "resultId": "",
      "weight": 6,
      "range": [160, 165],
      "drawn": false
    },
    {
      "_id": "Geb61Edg9niXXW5n",
      "flags": {},
      "type": 0,
      "text": "Potion of Magic Stone",
      "img": "icons/svg/d20-black.svg",
      "resultId": "",
      "weight": 4,
      "range": [166, 169],
      "drawn": false
    },
    {
      "_id": "yW6351YH3YZNSKaF",
      "flags": {},
      "type": 0,
      "text": "Potion of Remove Sickness",
      "img": "icons/svg/d20-black.svg",
      "resultId": "",
      "weight": 7,
      "range": [170, 176],
      "drawn": false
    },
    {
      "_id": "Nfb3bixw27tABuDk",
      "flags": {},
      "type": 0,
      "text": "Potion of Sanctify Corpse",
      "img": "icons/svg/d20-black.svg",
      "resultId": "",
      "weight": 5,
      "range": [177, 181],
      "drawn": false
    },
    {
      "_id": "nx2CbapxBwDdFxEa",
      "flags": {},
      "type": 0,
      "text": "Potion of Shillelagh",
      "img": "icons/svg/d20-black.svg",
      "resultId": "",
      "weight": 4,
      "range": [182, 185],
      "drawn": false
    },
    {
      "_id": "s4gV1cfBkaOEBy7i",
      "flags": {},
      "type": 0,
      "text": "Potion of Touch of The Sea",
      "img": "icons/svg/d20-black.svg",
      "resultId": "",
      "weight": 8,
      "range": [186, 193],
      "drawn": false
    },
    {
      "_id": "xSmkOkVNYE1LPZa9",
      "flags": {},
      "type": 0,
      "text": "Potion of Vanish",
      "img": "icons/svg/d20-black.svg",
      "resultId": "",
      "weight": 8,
      "range": [194, 201],
      "drawn": false
    }
  ],
  "formula": "1d201",
  "replacement": true,
  "displayRoll": true,
  "_id": "zoLdpdkFQbmOIAkO"
}
