{
  "_id": "7IJ0di9rH8cAMKIN",
  "name": "Black-Blooded (3.5)",
  "type": "feat",
  "img": "systems/pf1/icons/skills/violet_07.jpg",
  "sort": 0,
  "flags": {},
  "system": {
    "description": {
      "value": "<p><strong>Acquired/Inherited Template</strong>&nbsp;Acquired<br><strong>Simple Template</strong>&nbsp;No<br><strong>Usable with Summons</strong>&nbsp;No<br><br>None can claim to fully understand all of the properties of the black blood that courses through the depths of the Darklands. Freezing regardless of temperature and fundamentally charged with deadly negative energies, the viscous ooze empowers the magic of the dead while it fouls and destroys nearly every living thing it touches. Yet not everything is destroyed by the profane substance’s corruptive touch. Some rare beings refuse to be drained of life, and for their tenacity the black blood disfigures them as if by some cruel whim.<br><br>Black-blooded creatures are monstrosities warped by exposure to the vile fluids that pervade the Land of Black Blood. Sometimes born of creatures living on the shores of the Caltherium or those subjected to the necromantic fluids as part of cruel experiments, such beings prove exceedingly rare. Those that do exist, however, are crazed and physically warped abominations, living manifestations of the destructive black blood, their paths tainted by endless secretions of the freezing pollution and the ruined lifeless forms of all they encounter. Fortunately, most mutated by the black blood don’t live for long, as no mortal form can suffer the negatively charged. But, in the depths of the Darklands—to the fright of the inhabitants of those already deadly realms—there are known to be some terrifying exceptions.<br><br>\"Black-blooded\" is an acquired template that can be added to any corporeal aberration, animal, dragon, fey, giant, humanoid, magical beast, monstrous humanoid, ooze, plant, or vermin (referred to hereafter as the base creature).<br><br>A black-blooded creature uses all the base creaturefs statistics and abilities except as noted here.<br><br><strong>Size and Type:</strong> The creature’s type changes to aberration and it gains the aquatic subtype. Do not recalculate Hit Dice, base attack bonus, or saves. Size is unchanged.<br><br><strong>Speed:</strong> A black-blooded creature gains a swim speed equal to its base movement speed. If it can already swim, use the higher of the two swim speeds.<br><br><strong>Armor Class:</strong> Natural armor increases by +2 (this stacks with any natural armor bonus the base creature has).<br><br><strong>Damage:</strong> A black-blooded creature retains all of the attacks and damage of the base creature, but deals an additional 1d6 points of cold damage on all attacks.<br><br><strong>Special Attacks: </strong>A black-blooded creature retains all the special attacks of the base creature and gains the following special attack.<br><br><em>Breath Weapon (Su):</em> 30-foot cone of black blood, once every 1d4 rounds, damage 6d6 cold. A successful Reflex save (DC 10 + 1.2 black-blooded creature's racial HD + black-blooded creature's Con modifier) reduces damage by half.<br><br><strong>Special Qualities:</strong> A black-blooded creature has all the special qualities of the base creature, plus darkvision out to 120 feet, low-light vision, and the amphibious quality. A black-blooded creature has immunity to ability drain, cold, energy drain, and poison.<br><br><em>Blood Rain (Su):</em> Black-blooded creatures constantly leak and spray bursts of freezing black blood. Any creature within 15 feet of a black-blooded creature takes an amount of cold damage equal to the black-blooded creature’s Constitution modifier.<br><br><em>Tainted Life (Ex):</em> The black blood is antithetical to all life and consumes all but the heartiest hosts. Any creature with the black-blooded template must make a DC 15 Fortitude save every day or take 1d4 points of Constitution damage.<br><br><strong>Abilities: </strong>Increase from the base creature as follows: Str +2, Dex +2, Con +4, Int –4, Cha +2.<br><br><strong>Skills:</strong> A black-blooded creature has a +8 racial bonus on any Swim check to perform some special action or avoid a hazard. It can always choose to take 10 on a Swim check, even if distracted or endangered.<br><br><strong>Environment: </strong>The Land of Black Blood.<br><br><strong>Challenge Rating:</strong> Same as base creature +1.<br><br><strong>Alignment:</strong> Always chaotic evil.<br><br><strong>Level Adjustment:</strong> Same as base creature +3.</p>"
    },
    "tags": [],
    "actions": [],
    "attackNotes": [],
    "effectNotes": [],
    "changes": [
      {
        "_id": "vy2k8pga",
        "formula": "2",
        "operator": "add",
        "subTarget": "nac",
        "modifier": "untyped",
        "priority": 0,
        "value": 0,
        "target": "ac"
      },
      {
        "_id": "clv238p0",
        "formula": "2",
        "operator": "add",
        "subTarget": "str",
        "modifier": "untyped",
        "priority": 0,
        "value": 0,
        "target": "ability"
      },
      {
        "_id": "j96oadgv",
        "formula": "2",
        "operator": "add",
        "subTarget": "dex",
        "modifier": "untyped",
        "priority": 0,
        "value": 0,
        "target": "ability"
      },
      {
        "_id": "8cpkjfh8",
        "formula": "4",
        "operator": "add",
        "subTarget": "con",
        "modifier": "untyped",
        "priority": 0,
        "value": 0,
        "target": "ability"
      },
      {
        "_id": "pgshwlg7",
        "formula": "-4",
        "operator": "add",
        "subTarget": "int",
        "modifier": "untyped",
        "priority": 0,
        "value": 0,
        "target": "ability"
      },
      {
        "_id": "uw65rbtu",
        "formula": "2",
        "operator": "add",
        "subTarget": "cha",
        "modifier": "untyped",
        "priority": 0,
        "value": 0,
        "target": "ability"
      }
    ],
    "contextNotes": [],
    "links": {
      "children": [],
      "charges": []
    },
    "armorProf": {
      "value": []
    },
    "weaponProf": {
      "value": []
    },
    "languages": {
      "value": []
    },
    "scriptCalls": [],
    "subType": "template",
    "associations": {
      "classes": []
    },
    "crOffset": "3"
  }
}
