{
  "_id": "7A0hhL9d0DhoJJX7",
  "name": "Eruphyte",
  "type": "feat",
  "img": "systems/pf1/icons/skills/violet_07.jpg",
  "sort": 0,
  "flags": {},
  "system": {
    "description": {
      "value": "<p><strong>Acquired/Inherited Template</strong>&nbsp;Acquired<br><strong>Simple Template&nbsp;</strong>No<br><strong>Usable with Summons</strong>&nbsp;No<br><br>The Astral Plane, the realm of thought and higher consciousness, hosts two vulnerable sources of information: astral bodies connected to spellcasters’ physical forms by invisible silver cords, and souls bound for the Boneyard. When either vessel is disrupted or destroyed, there is a small chance that the victim’s fragmented intellect will pass along a fraying silver cord or through a weakened planar barrier. Mixed with the Astral Plane’s raw cognitive force, this tumultuous information vents into the Material Plane. For esoteric reasons not fully understood by scholars, sentient plants make ideal vessels for these proto-intellects, where they either instill a rudimentary mind in a formerly thoughtless plant or bolster existing mental capabilities. These eruphyte creatures become conduits for raw thought and vast stores of knowledge.<br><br>“Eruphyte” is an acquired template that can be added to any plant creature, referred to hereafter as the base creature. An eruphyte creature uses the base creature’s statistics and abilities except as noted here.<br><br><strong>Challenge Rating: </strong>The base creature’s CR + 1.<br><br><strong>Senses: </strong>An eruphyte creature gains the following sense.<br><br><em>Thoughtsense (Su): </em>An eruphyte creature notices and locates living, conscious creatures within 60 feet as if it possessed the blindsight ability. Spells such as&nbsp;<a href=\"https://aonprd.com/SpellDisplay.aspx?ItemName=nondetection\">nondetection</a>&nbsp;or&nbsp;<a href=\"https://aonprd.com/SpellDisplay.aspx?ItemName=mind%20blank\">mind blank</a>&nbsp;make a creature undetectable by this sense.<br><br><strong>Special Attacks: </strong>An eruphyte creature gains the following special attack.<br><br><em>Thoughtspear (Su):</em> Once per hour as a standard action, an eruphyte creature can direct a blast of disorienting mental energy at a creature within 120 feet. This attack deals 1d8 damage for every 2 Hit Dice the eruphyte creature has (rounded down, minimum 1d8), and the target cannot attempt Knowledge skill checks for 1 minute afterwards. A target that succeeds at a Will saving throw (DC = 10 + half the eruphyte creature’s HD + its Intelligence modifier) reduces the damage by half and negates the skill disruption. This is a mind-affecting effect.<br><br><strong>Languages:</strong> An eruphyte creature gains telepathy (60 ft.).<br><br><strong>Special Qualities: </strong>An eruphyte creature gains the bardic knowledge ability with an effective bard level equal to half its HD, rounded down.<br><br><strong>Abilities: </strong>Int +6. An eruphyte creature gains feats and skill points according to its new Intelligence score. Eruphyte creatures typically receive feats that enhance their preexisting behavior patterns or enable new means of achieving the same goals. Eruphyte creatures with Intelligence scores of 10 or higher may receive feats that enable more advanced behaviors, tactics, or even social patterns, as befits their situation. They typically gain skill ranks in Knowledge or other Intelligence-based skills.</p>"
    },
    "tags": [],
    "actions": [],
    "attackNotes": [],
    "effectNotes": [],
    "changes": [
      {
        "_id": "jjbg27n2",
        "formula": "6",
        "operator": "add",
        "subTarget": "int",
        "modifier": "untyped",
        "priority": 0,
        "value": 0,
        "target": "ability"
      }
    ],
    "contextNotes": [],
    "links": {
      "children": [],
      "charges": []
    },
    "armorProf": {
      "value": []
    },
    "weaponProf": {
      "value": []
    },
    "languages": {
      "value": []
    },
    "scriptCalls": [],
    "subType": "template",
    "associations": {
      "classes": []
    },
    "crOffset": "1"
  }
}
