{
  "_id": "2AfSIVge3bg8r6wr",
  "name": "Scorpion Style",
  "type": "feat",
  "img": "systems/pf1/icons/feats/scorpion-style.jpg",
  "sort": 0,
  "flags": {},
  "system": {
    "description": {
      "value": "\n                <i>You can perform an unarmed strike that greatly hampers your target's movement.</i>\n                <br />\n                <br />\n                \n                <p><b>Prerequisites</b></p>\n                <p> Improved Unarmed Strike.</p>\n                \n            <br />\n                <p><b>Benefits</b></p>\n                <p><p class=\"stat-block-1\"> To use this feat, you must make a single unarmed attack as a standard action. If this unarmed attack hits, you deal damage normally, and the target's base land speed is reduced to 5 feet for a number of rounds equal to your Wisdom modifier unless it makes a Fortitude saving throw (DC 10 + 1/2 your character level + your Wis modifier).</p></p>\n                \n            \n            "
    },
    "tags": [["Combat"], ["Unarmed"], ["Offensive"]],
    "actions": [],
    "attackNotes": [],
    "effectNotes": [],
    "changes": [],
    "contextNotes": [],
    "links": {
      "children": [],
      "charges": []
    },
    "tag": "feat_scorpionStyle",
    "useCustomTag": true,
    "armorProf": {
      "value": []
    },
    "weaponProf": {
      "value": []
    },
    "languages": {
      "value": []
    },
    "scriptCalls": [],
    "associations": {
      "classes": []
    }
  }
}
