{
  "_id": "TbZmYyDUxRn9baWy",
  "name": "Sahuagin",
  "type": "race",
  "img": "systems/pf1/icons/races/creature-types/construct.png",
  "sort": 0,
  "flags": {},
  "system": {
    "description": {
      "value": "<h2>Standard Racial Traits</h2><ul><li><strong>Ability Scores:</strong> +2 <em>Strength</em>, +2 <em>Wisdom</em>, –2 <em>Charisma</em>: While sahuagin are powerful and cunning, they are repulsive creatures.</li><li><strong>Size:</strong> Sahuagin are Medium creatures and have no bonuses or penalties due to their size.</li><li><strong>Type:</strong> Sahuagin are <em>monstrous humanoids</em> with the <em>aquatic</em> subtype.</li><li><strong>Languages: </strong>Sahuagin begin play speaking Aquan and Common. Sahuagin with high <em>Intelligence</em> scores can choose from the following: Aboleth, Abyssal, Aklo, Draconic, Giant, Goblin, and Infernal.</li><li><strong>Normal Speed</strong>: Sahuagin have a base speed of 30 feet.</li><li><strong>Fast Swimmer (5 RP)</strong>: Sahuagin have a swim speed of 60 feet.</li></ul><h3>Senses</h3><ul><li><strong>Blindsense</strong>: Sahuagin have <em>blindsense</em> with a range of 30 feet.</li><li><strong>Darkvision</strong>: Sahuagin have <em>darkvision</em> with a range of 60 feet.</li><li><strong>Light Blindness:</strong> Sahuagin have the <em>light blindness</em> trait.</li></ul><h3>Defensive Abilities</h3><ul><li><strong>Natural Armor:</strong> Sahuagin have a +3 <em>natural armor bonus</em>.</li></ul><h3>Offensive Racial Abilities</h3><ul><li><strong>Bite</strong>: Sahuagin have a natural bite attack that deals 1d4 points of damage. This bite is a primary attack, or a secondary attack if the creature is wielding manufactured weapons.</li><li><strong>Claws</strong>: Sahuagin have two claw attacks that deal 1d4 points of damage. These are primary natural attacks.</li><li><strong>Blood Frenzy</strong>: Once per day, whenever a sahuagin takes damage, it can fly into a frenzy for 1 minute; gaining a +2 <em>racial bonus</em> to <em>Constitution</em> and <em>Strength</em> but a –2 penalty to AC.</li></ul><h3>Other Racial Traits</h3><ul><li><strong>Speak with Sharks:</strong> Sahuagin can communicate telepathically with <em>sharks</em> to a distance of 100 feet. This communication is limited to simple concepts, such as “attack,” “come,” and “defend.”</li></ul>"
    },
    "tags": [],
    "changes": [
      {
        "_id": "hwuykuqm",
        "formula": "2",
        "operator": "add",
        "subTarget": "str",
        "modifier": "racial",
        "priority": 0,
        "value": 0,
        "target": "ability"
      },
      {
        "_id": "2fjyz0d4",
        "formula": "2",
        "operator": "add",
        "subTarget": "wis",
        "modifier": "racial",
        "priority": 0,
        "value": 0,
        "target": "ability"
      },
      {
        "_id": "pc4inehz",
        "formula": "-2",
        "operator": "add",
        "subTarget": "cha",
        "modifier": "racial",
        "priority": 0,
        "value": 0,
        "target": "ability"
      },
      {
        "_id": "j48hua2n",
        "formula": "3",
        "operator": "add",
        "subTarget": "nac",
        "modifier": "base",
        "priority": 0,
        "value": 0,
        "target": "ac"
      }
    ],
    "contextNotes": [],
    "links": {
      "children": []
    },
    "armorProf": {
      "value": []
    },
    "weaponProf": {
      "value": []
    },
    "languages": {
      "value": ["common", "aquan"]
    },
    "scriptCalls": [],
    "creatureType": "monstrousHumanoid",
    "subTypes": [["Aquatic"]]
  }
}
