{
  "_id": "78PZxXfzjQfaupGN",
  "name": "Alchemical Cartridge (Paper, Bullet Or Pellet)",
  "type": "loot",
  "img": "icons/tools/laboratory/powder-red.webp",
  "sort": 0,
  "flags": {},
  "system": {
    "description": {
      "value": "<p><strong>Source</strong> <em>Ultimate Equipment pg. 41</em>, <em>Ultimate Combat pg. 140</em></p>\n<h3 class=\"framing\"><span title=\"PFS Legal\">[PFS]</span> Statistics</h3>\n<p><strong>Cost</strong> 12 gp <strong>Weight</strong> -</p>\n<p><strong>Category</strong> Ammunition; <strong>Proficiency</strong> Exotic</p>\n<h3 class=\"framing\">Description</h3>\n<p>An alchemical cartridge is a prepared bundle of black powder with a bullet or pellets, sometimes with more exotic material added, which is then wrapped in paper or cloth and sealed with beeswax, lard, or tallow. There are many types of alchemical cartridges, the simplest being the paper cartridge-a simple mix of black powder and either pellets or a bullet. Alchemical cartridges make loading a firearm easier, reducing the time to load a firearm by one step (a full-round action becomes a standard action, a standard action becomes a move action, and a move action becomes a free action), but they tend to be unstable. The misfire value of a weapon firing an alchemical cartridge increases as listed in each entry.</p>\n<p>&nbsp;</p>\n<p><strong><em>Paper Cartridge</em></strong>: (<strong>Source</strong> <em>Ultimate Equipment pg. 41</em>) This simple mix of black powder and either pellets or a bullet increases the misfire value by 1.</p>\n<p>&nbsp;</p>"
    },
    "tags": [],
    "price": 12,
    "equipped": false,
    "hp": {
      "max": 1,
      "value": 1
    },
    "hardness": 5,
    "identifiedName": "Alchemical Cartridge (Paper, Bullet Or Pellet)",
    "changes": [],
    "contextNotes": [],
    "links": {
      "children": []
    },
    "tag": "alchemicalCartridgePaperBulletOrPellet",
    "scriptCalls": [],
    "subType": "ammo",
    "extraType": "gunBullet"
  }
}
