{
  "_id": "1TiILWBLdzYpnPky",
  "name": "Claw Blades",
  "type": "weapon",
  "img": "systems/pf1/icons/items/weapons/claw-blades.PNG",
  "sort": 0,
  "flags": {},
  "system": {
    "description": {
      "value": "<p><strong>Source</strong> <em>Advanced Race Guide pg. 93</em></p><h3 class=\"framing\"><span title=\"PFS Legal\">[PFS]</span> Statistics</h3><p><strong>Cost</strong> 305 gp <strong>Weight</strong> 2 lbs.</p><p><strong>Damage</strong> - (small), - (medium); <strong>Critical</strong> -; <strong>Range</strong> -; <strong>Type</strong> S; <strong>Special</strong> catfolk only, see description</p><p><strong>Category</strong> Light; <strong>Proficiency</strong> Special</p><h3 class=\"framing\">Description</h3><p>These subtle blades can only be used by catfolk with the cat's claws racial trait. Bought in a set of five, they fit over the wearer's claws on one hand. The blades grant the wearer a +1 enhancement bonus on claw attack rolls with that hand and change the weapon type from a natural weapon to a light slashing weapon. Catfolk with the cat's claws racial trait are proficient with this weapon. The claw blades can be enhanced like a masterwork weapon for the normal costs. The listed cost of the item is for one set of five claws for one hand. </p>"
    },
    "tags": [],
    "weight": {
      "value": 2
    },
    "price": 305,
    "hp": {
      "max": 2,
      "value": 2
    },
    "hardness": 10,
    "identifiedName": "Claw Blades",
    "changes": [],
    "actions": [
      {
        "_id": "pi9mxeuaukdd30ej",
        "name": "Attack",
        "img": "systems/pf1/icons/items/weapons/claw-blades.PNG",
        "description": "",
        "tag": "",
        "activation": {
          "cost": 1,
          "type": "attack"
        },
        "unchainedAction": {
          "activation": {
            "cost": 1,
            "type": ""
          }
        },
        "duration": {
          "value": null,
          "units": "inst"
        },
        "target": {
          "value": ""
        },
        "range": {
          "value": "0",
          "units": "melee",
          "maxIncrements": 1,
          "minValue": null,
          "minUnits": ""
        },
        "uses": {
          "autoDeductChargesCost": "",
          "self": {
            "value": 0,
            "maxFormula": "",
            "per": null
          },
          "per": null,
          "value": 0,
          "maxFormula": ""
        },
        "measureTemplate": {
          "type": "",
          "size": "",
          "overrideColor": false,
          "customColor": "",
          "overrideTexture": false,
          "customTexture": ""
        },
        "attackName": "",
        "actionType": "mwak",
        "attackBonus": "",
        "critConfirmBonus": "",
        "damage": {
          "parts": [
            [
              "NULL",
              {
                "values": ["slashing"],
                "custom": ""
              }
            ]
          ],
          "critParts": [],
          "nonCritParts": []
        },
        "attackParts": [],
        "formulaicAttacks": {
          "count": {
            "formula": "min(3, ceil(@attributes.bab.total / 5) - 1)"
          },
          "bonus": {
            "formula": "@formulaicAttack * -5"
          },
          "label": null
        },
        "formula": "",
        "ability": {
          "attack": "str",
          "damage": "str",
          "damageMult": 1,
          "critRange": 20,
          "critMult": 0
        },
        "save": {
          "dc": 0,
          "type": "",
          "description": ""
        },
        "effectNotes": [],
        "attackNotes": [],
        "soundEffect": "",
        "powerAttack": {
          "multiplier": "",
          "damageBonus": 2,
          "critMultiplier": 1
        },
        "naturalAttack": {
          "primaryAttack": true,
          "secondary": {
            "attackBonus": "-5",
            "damageMult": 0.5
          }
        },
        "nonlethal": false,
        "usesAmmo": false,
        "spellEffect": "",
        "spellArea": "",
        "conditionals": [],
        "enh": {
          "value": null
        }
      }
    ],
    "attackNotes": [],
    "effectNotes": [],
    "contextNotes": [],
    "links": {
      "children": []
    },
    "tag": "clawBlades",
    "scriptCalls": [],
    "weaponGroups": {
      "value": []
    },
    "subType": "exotic"
  }
}
