{
  "_id": "v04yeRzoqrhYx0G7",
  "name": "Crossbow Bolt",
  "type": "loot",
  "img": "systems/pf1/icons/items/weapons/bolt.PNG",
  "sort": 0,
  "flags": {
    "pf1": {
      "abundant": false
    }
  },
  "system": {
    "description": {
      "value": "<p><strong>Source</strong>&nbsp;<em>Ultimate Equipment pg. 22</em>,&nbsp;<em>PRPG Core Rulebook pg. 142</em>,&nbsp;<em>PRPG Core Rulebook pg. 143</em></p>\n<h3 class=\"framing\"><span title=\"PFS Legal\">[PFS]</span> Statistics</h3>\n<p><strong>Cost</strong>&nbsp;1 gp&nbsp;<strong>Weight</strong>&nbsp;1 lb.</p>\n<p><strong>Category</strong>&nbsp;Ammunition;&nbsp;<strong>Proficiency</strong>&nbsp;Ammunition</p>\n<h3 class=\"framing\">Description</h3>\n<p>A crossbow bolt used as a melee weapon is treated as a light improvised weapon (-4 penalty on attack rolls) and deals damage as a dagger of its size (critical multiplier x2). Bolts come in a case or quiver that holds 10 bolts. All crossbows except repeating crossbows use these kinds of crossbow bolts, which are sometimes called \"quarrels.\"</p>"
    },
    "tags": [],
    "quantity": 10,
    "weight": {
      "value": 0.1
    },
    "price": 0.1,
    "equipped": false,
    "hp": {
      "max": 1,
      "value": 1
    },
    "hardness": 5,
    "unidentified": {
      "price": 0.1
    },
    "identifiedName": "Crossbow Bolt",
    "changes": [],
    "contextNotes": [],
    "links": {
      "children": []
    },
    "scriptCalls": [],
    "subType": "ammo",
    "extraType": "bolt"
  }
}
