{
  "_id": "OWZ0bqr3L0MzeRsu",
  "name": "Khopesh",
  "type": "weapon",
  "img": "systems/pf1/icons/items/weapons/khopesh.png",
  "sort": 0,
  "flags": {},
  "system": {
    "description": {
      "value": "<p><strong>Source</strong> <em>Ultimate Equipment pg. 20</em>, <em>Pathfinder Campaign Setting pg. 209</em>, <em>Adventurer's Armory pg. 33</em>, <em>Advanced Player's Guide pg. 178</em></p><h3 class=\"framing\"><span title=\"PFS Legal\">[PFS]</span> Statistics</h3><p><strong>Cost</strong> 20 gp <strong>Weight</strong> 8 lbs.</p><p><strong>Damage</strong> 1d6 (small), 1d8 (medium); <strong>Critical</strong> 19-20/x2; <strong>Range</strong> -; <strong>Type</strong> S; <strong>Special</strong> trip</p><p><strong>Category</strong> One-Handed; <strong>Proficiency</strong> Exotic</p><p><strong>Weapon Groups</strong> Blades, Heavy</p><h3 class=\"framing\">Description</h3><p>This heavy blade has a convex curve near the end, making its overall shape similar to that of a battleaxe. A typical khopesh is 20 to 24 inches in length. Its curved shape allows the wielder to hook around defenses and trip foes. The elegant shape of a khopesh leads some artisans to cover them in ornate decorations.</p>"
    },
    "tags": [],
    "weight": {
      "value": 8
    },
    "price": 20,
    "hp": {
      "max": 5,
      "value": 5
    },
    "hardness": 10,
    "identifiedName": "Khopesh",
    "changes": [],
    "actions": [
      {
        "_id": "54e47j9d2kwdbaqi",
        "name": "Attack",
        "img": "systems/pf1/icons/items/weapons/khopesh.png",
        "description": "",
        "tag": "",
        "activation": {
          "cost": 1,
          "type": "attack"
        },
        "unchainedAction": {
          "activation": {
            "cost": 1,
            "type": ""
          }
        },
        "duration": {
          "value": null,
          "units": "inst"
        },
        "target": {
          "value": ""
        },
        "range": {
          "value": "0",
          "units": "melee",
          "maxIncrements": 1,
          "minValue": null,
          "minUnits": ""
        },
        "uses": {
          "autoDeductChargesCost": "",
          "self": {
            "value": 0,
            "maxFormula": "",
            "per": null
          },
          "per": "",
          "value": 0,
          "maxFormula": ""
        },
        "measureTemplate": {
          "type": "",
          "size": "",
          "overrideColor": false,
          "customColor": "",
          "overrideTexture": false,
          "customTexture": ""
        },
        "attackName": "",
        "actionType": "mwak",
        "attackBonus": "",
        "critConfirmBonus": "",
        "damage": {
          "parts": [
            [
              "sizeRoll(1, 8, @size)",
              {
                "values": ["slashing"],
                "custom": ""
              }
            ]
          ],
          "critParts": [],
          "nonCritParts": []
        },
        "attackParts": [],
        "formulaicAttacks": {
          "count": {
            "formula": "min(3, ceil(@attributes.bab.total / 5) - 1)"
          },
          "bonus": {
            "formula": "@formulaicAttack * -5"
          },
          "label": null
        },
        "formula": "",
        "ability": {
          "attack": "str",
          "damage": "str",
          "damageMult": 1,
          "critRange": 19,
          "critMult": 2
        },
        "save": {
          "dc": "0",
          "type": "",
          "description": ""
        },
        "effectNotes": [],
        "attackNotes": [],
        "soundEffect": "",
        "powerAttack": {
          "multiplier": "",
          "damageBonus": 2,
          "critMultiplier": 1
        },
        "naturalAttack": {
          "primaryAttack": true,
          "secondary": {
            "attackBonus": "-5",
            "damageMult": 0.5
          }
        },
        "nonlethal": false,
        "usesAmmo": false,
        "spellEffect": "",
        "spellArea": "",
        "conditionals": [],
        "enh": {
          "value": null
        }
      }
    ],
    "uses": {
      "per": ""
    },
    "attackNotes": [],
    "effectNotes": [],
    "contextNotes": [],
    "links": {
      "children": []
    },
    "tag": "khopesh",
    "scriptCalls": [],
    "weaponGroups": {
      "value": ["bladesHeavy"]
    },
    "subType": "exotic",
    "weaponSubtype": "1h"
  }
}
