{
  "_id": "YblsiTF25I6uG9jN",
  "name": "Lodestone Arrow",
  "type": "loot",
  "img": "systems/pf1/icons/items/weapons/arrow-special.PNG",
  "sort": 0,
  "flags": {},
  "system": {
    "description": {
      "value": "<p><strong>Source</strong> <em>Alchemy Manual pg. 21</em>, <em>Elves of Golarion pg. 22</em><br /><strong>Price</strong> 10 gp; <strong>Weight</strong> -<br /><strong>Category</strong> Alchemical Weapons</p>\n<h2 class=\"framing\">Description</h2>\n<p>This heavy iron arrowhead is sealed with an alchemical resin. Pulling a small string (a move action) breaks the seal and triggers a reaction in the arrowhead, greatly increasing its magnetic properties.</p>\n<p>You gain a <strong>+4 circumstance bonus on attack rolls</strong> when firing a lodestone arrow at a target wearing metal armor or a target made of metal, but the magnetized arrow <strong>deals only half damage</strong> on a successful hit.</p>\n<p>The increased magnetism fades 1 round after you activate a lodestone arrow, after which it becomes a normal arrow.</p>\n<h2 class=\"framing\">Alchemical Recipe</h2>\n<p><strong>Recipe</strong> (8 myrrh + 6 salt + 4 silver)/exposure; <strong>Craft</strong> 25<br /><strong>Time</strong> 1 hour; <strong>Tools</strong> -; <strong>Type</strong> alchemical weapon</p>"
    },
    "tags": [],
    "price": 10,
    "equipped": false,
    "hp": {
      "max": 1,
      "value": 1
    },
    "hardness": 5,
    "identifiedName": "Lodestone Arrow",
    "changes": [],
    "contextNotes": [],
    "links": {
      "children": []
    },
    "tag": "lodestoneArrow",
    "scriptCalls": [],
    "subType": "ammo",
    "extraType": "arrow"
  }
}
