{
  "_id": "OJQTYO08QXGm4EUa",
  "name": "Manticore's Tail",
  "type": "weapon",
  "img": "icons/weapons/artillery/ballista-wood-green.webp",
  "sort": 0,
  "flags": {},
  "system": {
    "description": {
      "value": "<p><strong>Source</strong> <em>Belkzen, Hold of the Orc Hordes pg. 39</em></p><h3 class=\"framing\">Statistics</h3><p><strong>Cost</strong> 1,000 gp <strong>Weight</strong> -</p><p><strong>Damage</strong> 3d8; <strong>Critical</strong> 19-20/x2; <strong>Range</strong> see text; <strong>Type</strong> P</p><p><strong>Crew</strong> 3; <strong>Aim</strong> 0; <strong>Load</strong> 4; <strong>Speed</strong> 0 ft.</p><p><strong>Category</strong> Direct-Fire (Huge); <strong>Proficiency</strong> Siege Engine</p><h3 class=\"framing\">Description</h3><p>This massive ballista fires a dozen or more bolts at once in a devastating rain of steel that deals 3d8 points of damage. The crew leader makes a separate attack roll with a -2 penalty against each creature and object within a 60-foot cone, ignoring concealment. Confirm any critical threats separately. This weapon has a mishap only if the first attack roll is a mishap. A manticore's tail has a hardness of 5 and 100 hit points. Ammunition for one use of the manticore's tail costs 120 gp and weighs 120 pounds.</p>"
    },
    "tags": [],
    "price": 1000,
    "hardness": 10,
    "changes": [],
    "actions": [
      {
        "_id": "4zgyei6efexe8p5i",
        "name": "Attack",
        "img": "icons/weapons/artillery/ballista-wood-green.webp",
        "description": "",
        "tag": "",
        "activation": {
          "cost": 1,
          "type": "attack"
        },
        "unchainedAction": {
          "activation": {
            "cost": 1,
            "type": ""
          }
        },
        "duration": {
          "value": null,
          "units": "inst"
        },
        "target": {
          "value": ""
        },
        "range": {
          "value": "0",
          "units": "ft",
          "maxIncrements": 1,
          "minValue": null,
          "minUnits": ""
        },
        "uses": {
          "autoDeductChargesCost": "",
          "self": {
            "value": 0,
            "maxFormula": "",
            "per": null
          },
          "per": null,
          "value": 0,
          "maxFormula": ""
        },
        "measureTemplate": {
          "type": "",
          "size": "",
          "overrideColor": false,
          "customColor": "",
          "overrideTexture": false,
          "customTexture": ""
        },
        "attackName": "",
        "actionType": "rwak",
        "attackBonus": "",
        "critConfirmBonus": "",
        "damage": {
          "parts": [
            [
              "sizeRoll(3, 8, @size)",
              {
                "values": ["piercing"],
                "custom": ""
              }
            ]
          ],
          "critParts": [],
          "nonCritParts": []
        },
        "attackParts": [],
        "formulaicAttacks": {
          "count": {
            "formula": "min(3, ceil(@attributes.bab.total / 5) - 1)"
          },
          "bonus": {
            "formula": "@formulaicAttack * -5"
          },
          "label": null
        },
        "formula": "",
        "ability": {
          "attack": "dex",
          "damage": "str",
          "damageMult": 1,
          "critRange": "19",
          "critMult": "2"
        },
        "save": {
          "dc": 0,
          "type": "",
          "description": ""
        },
        "effectNotes": [],
        "attackNotes": [],
        "soundEffect": "",
        "powerAttack": {
          "multiplier": "",
          "damageBonus": 2,
          "critMultiplier": 1
        },
        "naturalAttack": {
          "primaryAttack": true,
          "secondary": {
            "attackBonus": "-5",
            "damageMult": 0.5
          }
        },
        "nonlethal": false,
        "usesAmmo": false,
        "spellEffect": "",
        "spellArea": "",
        "conditionals": [],
        "enh": {
          "value": null
        }
      }
    ],
    "attackNotes": [],
    "effectNotes": [],
    "contextNotes": [],
    "links": {
      "children": []
    },
    "tag": "manticoresTail",
    "scriptCalls": [],
    "weaponGroups": {
      "value": []
    },
    "subType": "exotic",
    "weaponSubtype": "ranged"
  }
}
