{
  "_id": "xAxgFvkpvTgGRHZY",
  "name": "Thorn Arrow",
  "type": "loot",
  "img": "icons/weapons/ammunition/arrows-broadhead-white.webp",
  "sort": 0,
  "flags": {},
  "system": {
    "description": {
      "value": "<p><strong>Source</strong> <em>Conquest of Bloodsworn Vale pg. 31</em></p><h3 class=\"framing\"><span title=\"3.5 Material\">[3.5]</span> Statistics</h3><p><strong>Cost</strong> 1 gp <strong>Weight</strong> 2 lbs.</p><p><strong>Category</strong> Ammunition; <strong>Proficiency</strong> Ammunition</p><h3 class=\"framing\">Description</h3><p>These small arrows are tipped with a wicked rose thorn and fletched with lacquered rose petals.</p>"
    },
    "tags": [],
    "quantity": 20,
    "weight": {
      "value": 0.1
    },
    "price": 0.05,
    "equipped": false,
    "hp": {
      "max": 1,
      "value": 1
    },
    "hardness": 5,
    "identifiedName": "Thorn Arrow",
    "changes": [],
    "contextNotes": [],
    "links": {
      "children": []
    },
    "tag": "thorns20",
    "scriptCalls": [],
    "subType": "ammo",
    "extraType": "arrow"
  }
}
