{
  "_id": "glpxtqnicsmuyngy",
  "name": "Alchemical Preserves",
  "type": "loot",
  "img": "systems/pf1/icons/items/inventory/dice.jpg",
  "sort": 0,
  "flags": {},
  "system": {
    "description": {
      "value": "\r\n<p class=\"source\"><b>Source</b> <em>PZO1121</em></p>\r\n<p>Each small tin of this specially treated jam contains just enough of the gooey stuff to provide a <em>halfling</em> with a single serving of revitalizing nourishment. While any creature can eat these preserves as a <em>standard action</em>, it only affects halflings in a beneficial way. Halflings who eat the preserves recover from <em>fatigue</em>. Non-halflings who eat alchemical preserves become <em>sickened</em> for 1 round.</p>\r\n"
    },
    "tags": [],
    "price": 50,
    "equipped": false,
    "changes": [],
    "contextNotes": [],
    "links": {
      "children": []
    },
    "scriptCalls": [],
    "subType": "gear"
  }
}
