{
  "_id": "yvhmpqrbwaqjdfwb",
  "name": "Antiplague",
  "type": "loot",
  "img": "systems/pf1/icons/items/inventory/dice.jpg",
  "sort": 0,
  "flags": {},
  "system": {
    "description": {
      "value": "\r\n<p class=\"source\"><b>Source</b> <em>PZO1115</em></p>\r\n<p>If you drink a vial of this foul-tasting, milky tonic, you gain a +5 <em>alchemical bonus</em> on <em>Fortitude</em> <em>saving throws</em> against <em>disease</em> for the next hour. If already infected, you may also make two <em>saving throws</em> (without the +5 bonus) that day and use the better result.</p>\r\n<p><b>Create</b>: <em>Craft</em> (alchemy) DC 25</p>\r\n<p class=\"header\">Alchemical Power Component</p>\r\n<p class=\"source\"><b>Source</b> <em>PZO9410</em></p>\r\n<p>Certain <em>healing</em> spells have greater effects when used with antiplague.</p>\r\n<ul>\r\n<li><a class=\"spell\" href=\"https://www.d20pfsrd.com/magic/all-spells/h/heroes-feast\"><i>Heroes' Feast</i></a> (M): For each vial of antiplague used as a power component, one creature eating the feast gains the benefits of antiplague for 12 hours. Antiplague's normally foul taste does not change the taste of the feast.</li>\r\n<li><em>Remove Disease</em> (M): Add +2 on your <em>caster level</em> check to cure diseases on the target.</li>\r\n</ul>\r\n"
    },
    "tags": [],
    "price": 50,
    "equipped": false,
    "changes": [],
    "contextNotes": [],
    "links": {
      "children": []
    },
    "scriptCalls": [],
    "subType": "gear"
  }
}
