{
  "_id": "Mehr2G7J5uVsOem9",
  "name": "Board Game",
  "type": "loot",
  "img": "systems/pf1/icons/items/inventory/dice.jpg",
  "sort": 0,
  "flags": {},
  "system": {
    "description": {
      "value": "<p>Source&nbsp;<a href=\"http://paizo.com/products/btpy8tmc?Pathfinder-Roleplaying-Game-Ultimate-Equipment\" target=\"_blank\" rel=\"noopener\">Ultimate Equipment pg. 92</a>,&nbsp;<a href=\"http://paizo.com/store/downloads/pathfinder/pathfinderCompanion/pathfinderRPG/v5748btpy8dmf\" target=\"_blank\" rel=\"noopener\">Adventurer's Armory pg. 19</a><br>Price&nbsp;1 sp–10 gp;&nbsp;Weight&nbsp;2 lbs.<br>Category&nbsp;Entertainment</p>\n<h3>Description</h3>\n<p>Board games have innumerable types and variations. Siege, a strategy game where players try to surround the other’s pieces, is popular with older adults, while more chaotic games like Wyvern’s Race and Doppel are tavern favorites.</p>"
    },
    "tags": [],
    "weight": {
      "value": 2
    },
    "price": 0.1,
    "equipped": false,
    "identifiedName": "Board Game",
    "changes": [],
    "contextNotes": [],
    "links": {
      "children": []
    },
    "scriptCalls": [],
    "subType": "gear"
  }
}
