{
  "_id": "oksjslnshfrpaouh",
  "name": "Cloud Puff",
  "type": "loot",
  "img": "systems/pf1/icons/items/inventory/dice.jpg",
  "sort": 0,
  "flags": {},
  "system": {
    "description": {
      "value": "\r\n<p class=\"source\"><b>Source</b> <a href=\"http://amzn.to/2z71S07\" target=\"_blank\" rel=\"noopener\">PZO1140</a></p>\r\n<p><b>Price</b> 100 gp</p>\r\n<p>The spores of this odorous pale-gray fungus cause a euphoric light-headedness.</p>\r\n<p><b>Gather</b> DC 18; <b>Yield</b> 1 dose</p>\r\n<p><b>Terrain</b> any mountains</p>\r\n<p><b>Preparation</b> After soaking in salt water for 1 hour, a cloud puff must be dried in a delicate process that requires it to be turned three times per hour for 4 hours. This requires a successful DC 12 <em>Craft</em> (alchemy) check.</p>\r\n<p><b>Use</b> By crushing a dried cloud puff and inhaling the spores, a creature becomes light-headed and its mind grows resistant to outside influences. For the next hour, the creature gains a +2 <em>alchemical bonus</em> on saving throws against <em>mind-affecting</em> effects but takes a -2 penalty on <em>Wisdom</em>-based skill checks.</p>\r\n"
    },
    "tags": [],
    "price": 100,
    "equipped": false,
    "changes": [],
    "contextNotes": [],
    "links": {
      "children": []
    },
    "scriptCalls": [],
    "subType": "gear"
  }
}
