{
  "_id": "hhprblxrbmqvoine",
  "name": "Compass",
  "type": "loot",
  "img": "systems/pf1/icons/items/inventory/dice.jpg",
  "sort": 0,
  "flags": {},
  "system": {
    "description": {
      "value": "<h4><span id=\"Compass\"><a name=\"TOC-Compass\"></a>Compass</span></h4>\r\n<p class=\"source\"><b>Source</b> <em>PZO1115</em></p>\r\n<p><b>Price</b> 10 gp; <b>Weight</b> 1/2 lb.</p>\r\n<p>An ordinary compass that points to the magnetic north pole grants you a +2 circumstance bonus on Survival checks made to avoid becoming lost. You can also use it to grant the same bonus on <em>Knowledge</em> (dungeoneering) checks made to navigate underground.</p>\r\n"
    },
    "tags": [],
    "weight": {
      "value": 0.5
    },
    "price": 10,
    "equipped": false,
    "changes": [],
    "contextNotes": [],
    "links": {
      "children": []
    },
    "scriptCalls": [],
    "subType": "gear"
  }
}
