{
  "_id": "aa47e2sabdjpgUPd",
  "name": "Fake footprint shoes",
  "type": "loot",
  "img": "systems/pf1/icons/items/inventory/dice.jpg",
  "sort": 0,
  "flags": {},
  "system": {
    "description": {
      "value": "<p>Source&nbsp;<a href=\"http://paizo.com/products/btpy8tmc?Pathfinder-Roleplaying-Game-Ultimate-Equipment\" target=\"_blank\" rel=\"noopener\">Ultimate Equipment pg. 56</a><br>Price&nbsp;5 gp;&nbsp;Weight&nbsp;2 lbs.<br>Category&nbsp;Adventuring Gear</p>\n<h3>Description</h3>\n<p>These oversized shoes are worn over normal footwear. They create footprints or bootprints that look like those left by another creature. Each pair creates a specific type of footprint, such as tiger, orc, goblin, or ogre. When walking with these shoes, you may make a Survival check; the check result is the Survival DC for anyone trying to determine whether the tracks are what they appear to be.</p>"
    },
    "tags": [],
    "weight": {
      "value": 2
    },
    "price": 5,
    "equipped": false,
    "identifiedName": "Fake footprint shoes",
    "changes": [],
    "contextNotes": [],
    "links": {
      "children": []
    },
    "scriptCalls": [],
    "subType": "gear"
  }
}
