{
  "_id": "50ofjPm8BcMLQblh",
  "name": "Fuse grenade",
  "type": "loot",
  "img": "systems/pf1/icons/items/inventory/dice.jpg",
  "sort": 0,
  "flags": {},
  "system": {
    "description": {
      "value": "<p>Source&nbsp;<a href=\"http://paizo.com/products/btpy8tmc?Pathfinder-Roleplaying-Game-Ultimate-Equipment\" target=\"_blank\" rel=\"noopener\">Ultimate Equipment pg. 107</a>,&nbsp;<a href=\"http://paizo.com/store/downloads/pathfinder/pathfinderCompanion/pathfinderRPG/v5748btpy8dmf\" target=\"_blank\" rel=\"noopener\">Adventurer's Armory pg. 19</a><br>Price&nbsp;100 gp;&nbsp;Weight&nbsp;1 lb.<br>Category&nbsp;Alchemical Weapons</p>\n<h3>Description</h3>\n<p>This hollow clay container holds a small charge of black power and a slow-burning fuse. Lighting the fuse is a move action; 1d3 rounds later the grenade explodes, dealing 2d6 points of bludgeoning damage and 1d6 points of fire damage in a 10-foot-radius burst (Reflex DC 15 halves). You throw a fuse grenade as if it were a splash weapon. Crafting this item is a DC 25 Craft (alchemy) check.</p>\n<h3>Construction</h3>\n<p>Craft (Alchemy)&nbsp;DC 25</p>"
    },
    "tags": [],
    "weight": {
      "value": 1
    },
    "price": 100,
    "equipped": false,
    "identifiedName": "Fuse grenade",
    "changes": [],
    "contextNotes": [],
    "links": {
      "children": []
    },
    "scriptCalls": [],
    "subType": "gear"
  }
}
