{
  "_id": "vsexfdomjmloyffd",
  "name": "Gambeson",
  "type": "loot",
  "img": "systems/pf1/icons/items/inventory/dice.jpg",
  "sort": 0,
  "flags": {},
  "system": {
    "description": {
      "value": " \n<p class=\"source\"><b>Source</b> <a href=\"http://amzn.to/2eT3m9D\" target=\"_blank\" rel=\"noopener\">PPZO94102</a></p> \n<p><b>Price</b> 1 gp; <b>Weight</b> 4 lbs.</p> \n<p>This padded cloth jacket is often worn alone or with mail or plate armor and is favored by <em>hunters</em>, guards, and soldiers. A gambeson fitted with leather loops to more easily <em>attach</em> armor is called an arming doublet. Although sufficient to protect you against casual scrapes, it is not as thick as padded armor.</p> \n"
    },
    "tags": [],
    "weight": {
      "value": 4
    },
    "price": 1,
    "equipped": false,
    "changes": [],
    "contextNotes": [],
    "links": {
      "children": []
    },
    "scriptCalls": [],
    "subType": "gear"
  }
}
