{
  "_id": "ieedspgjoepqnfqj",
  "name": "Hammer",
  "type": "loot",
  "img": "systems/pf1/icons/items/inventory/dice.jpg",
  "sort": 0,
  "flags": {},
  "system": {
    "description": {
      "value": "\r\n<p><b>Price</b> 5 sp; <b>Weight</b> 2 lbs.</p>\r\n<p>If a <em>hammer</em> is used in combat, treat it as a one-handed improvised weapon that deals bludgeoning damage equal to that of a spiked gauntlet of its size.</p>\r\n\r\n"
    },
    "tags": [],
    "weight": {
      "value": 2
    },
    "price": 0.5,
    "equipped": false,
    "changes": [],
    "contextNotes": [],
    "links": {
      "children": []
    },
    "scriptCalls": [],
    "subType": "gear"
  }
}
