{
  "_id": "apladajbicmixbev",
  "name": "Key, Copy",
  "type": "loot",
  "img": "systems/pf1/icons/items/inventory/dice.jpg",
  "sort": 0,
  "flags": {},
  "system": {
    "description": {
      "value": "\r\n<p class=\"source\"><b>Source</b>: <em>PZO9410</em></p>\r\n<p>A craftsman can make a working copy of a key in an hour (making a duplicate that looks exactly like the original requires a skilled smith, a DC 25 <em>Craft</em> check, and one day).</p>\r\n\r\n"
    },
    "tags": [],
    "equipped": false,
    "changes": [],
    "contextNotes": [],
    "links": {
      "children": []
    },
    "scriptCalls": [],
    "subType": "gear"
  }
}
