{
  "_id": "jtnhlonprmebmcvw",
  "name": "Kit, Animal Call",
  "type": "loot",
  "img": "systems/pf1/icons/items/inventory/dice.jpg",
  "sort": 0,
  "flags": {},
  "system": {
    "description": {
      "value": "\r\n<p><b>Price</b> 1 sp; <b>Weight</b> -</p>\r\n<p>These reed or bamboo whistles mimic the calls of various wild animals. Each whistle is keyed to a specific type of animal and a specific call (usually signaling the availability of food or a mate to draw the animal closer). Using the correct whistle gives you a +2 bonus on <em>Survival</em> checks to track animals of the specific animal type or to get along in the wild.</p>\r\n\r\n"
    },
    "tags": [],
    "price": 0.1,
    "equipped": false,
    "changes": [],
    "contextNotes": [],
    "links": {
      "children": []
    },
    "scriptCalls": [],
    "subType": "gear"
  }
}
