{
  "_id": "mosbelrbyluvqbxk",
  "name": "Kit, Spy's",
  "type": "loot",
  "img": "systems/pf1/icons/items/inventory/dice.jpg",
  "sort": 0,
  "flags": {},
  "system": {
    "description": {
      "value": "\r\n<p><b>Price</b> 140 gp; <b>Weight</b> 12-1/2 lbs.</p>\r\n<p>This kit includes a book of letters, a <em>disguise kit</em>, a hollow-heeled boot (see above), <em>ink</em> (1 <em>vial</em>), an <em>inkpen</em>, <em>paper</em> (10 sheets), a <em>poison</em> pill ring (<em>signet ring</em>), <em>sealing wax</em>, simple <em>invisible ink</em> (3 vials), and a wrist sheath.</p>\r\n\r\n"
    },
    "tags": [],
    "weight": {
      "value": 12
    },
    "price": 140,
    "equipped": false,
    "changes": [],
    "contextNotes": [],
    "links": {
      "children": []
    },
    "scriptCalls": [],
    "subType": "gear"
  }
}
