{
  "_id": "wwiwdenkdazxjstn",
  "name": "Kit, Harvester's",
  "type": "loot",
  "img": "systems/pf1/icons/items/inventory/dice.jpg",
  "sort": 0,
  "flags": {},
  "system": {
    "description": {
      "value": "\r\n<p class=\"source\"><b>Source</b>: <a title=\"PZO9487\" href=\"http://amzn.to/2mhneTn\" target=\"_blank\" rel=\"noopener\">PZO9487</a></p>\r\n<p><b>Price</b> 65 gp; <b>Weight</b> -</p>\r\n<p>This set of surgical tools includes everything needed to quickly and safely harvest the venom from a <em>dead</em> creature. This kit includes forceps, a pair of surgical retractors, a scalpel, small but sturdy metal containers for the harvested venom, a sponge, a surgical hook, and a tiny mallet, all tucked into a leather pouch with a loop for hooking onto the wearer's belt. A harvester's kit provides a +2 <em>circumstance bonus</em> on <em>Survival</em> checks to successfully harvest <em>poison</em> from a creature.</p>\r\n<p>A harvester's kit is <em>exhausted</em> after 10 uses.</p>\r\n\r\n"
    },
    "tags": [],
    "price": 65,
    "equipped": false,
    "changes": [],
    "contextNotes": [],
    "links": {
      "children": []
    },
    "scriptCalls": [],
    "subType": "gear"
  }
}
