{
  "_id": "ehlfzyjfcdbqfdvw",
  "name": "Love-In-Idleness",
  "type": "loot",
  "img": "systems/pf1/icons/items/inventory/dice.jpg",
  "sort": 0,
  "flags": {},
  "system": {
    "description": {
      "value": "\r\n<p class=\"source\"><b>Source</b> <a href=\"http://amzn.to/2z71S07\" target=\"_blank\" rel=\"noopener\">PZO1140</a></p>\r\n<p><b>Price</b> 150 gp</p>\r\n<p>The deep-red flower has rich nectar with a honey-like <em>scent</em>.</p>\r\n<p><b>Gather</b> DC 20; <b>Yield</b> 1 dose</p>\r\n<p><b>Terrain</b> any forests</p>\r\n<p><b>Preparation</b> A dose of this flower's nectar must be extracted and stored in an alchemically prepared <em>vial</em> with a successful DC 14 <em>Craft</em> (alchemy) check and 1 hour's worth of work.</p>\r\n<p><b>Use</b> As a <em>full-round action</em>, a dose of love-in-idleness nectar can be drizzled into the ears of a <em>helpless</em> or willing <em>animal</em> or <em>humanoid</em>. This causes the subject to become much more susceptible to the power of <em>suggestion</em> and <em>mind-affecting</em> effects, taking a -2 penalty on <em>Sense Motive</em> checks and a -1 penalty on saving throws against <em>mind-affecting</em> effects for the next 2d4 hours. This is a <em>poison</em> effect.</p>\r\n"
    },
    "tags": [],
    "price": 150,
    "equipped": false,
    "changes": [],
    "contextNotes": [],
    "links": {
      "children": []
    },
    "scriptCalls": [],
    "subType": "gear"
  }
}
