{
  "_id": "UVTxDWJGurLK899W",
  "name": "Magnet",
  "type": "loot",
  "img": "systems/pf1/icons/items/inventory/dice.jpg",
  "sort": 0,
  "flags": {},
  "system": {
    "description": {
      "value": "<p>Source&nbsp;<a href=\"http://paizo.com/products/btpy8tmc?Pathfinder-Roleplaying-Game-Ultimate-Equipment\" target=\"_blank\" rel=\"noopener\">Ultimate Equipment pg. 57</a>,&nbsp;<a href=\"http://paizo.com/pathfinderRPG/v5748btpy8fo1\" target=\"_blank\" rel=\"noopener\">Advanced Player's Guide pg. 181</a>,&nbsp;<a href=\"http://paizo.com/store/downloads/pathfinder/pathfinderCompanion/pathfinderRPG/v5748btpy8dmf\" target=\"_blank\" rel=\"noopener\">Adventurer's Armory pg. 19</a><br>Price&nbsp;5 sp;&nbsp;Weight&nbsp;1/2 lb.<br>Category&nbsp;Adventuring Gear</p>\n<h3>Description</h3>\n<p>Handheld magnets are relatively weak and are mainly used to detect or pull iron, mithral, or adamantine at a short range. They are not powerful enough to tug metal over significant distances or aid in disarming creatures wielding metal weapons. This hand-sized horseshoe magnet can lift up to a 3-pound iron weight.</p>"
    },
    "tags": [],
    "weight": {
      "value": 0.5
    },
    "price": 0.5,
    "equipped": false,
    "identifiedName": "Magnet",
    "changes": [],
    "contextNotes": [],
    "links": {
      "children": []
    },
    "scriptCalls": [],
    "subType": "gear"
  }
}
