{
  "_id": "gjtuklwkrbqykmdk",
  "name": "Mirror",
  "type": "loot",
  "img": "icons/tools/scribal/lens-grey-brown.webp",
  "sort": 0,
  "flags": {},
  "system": {
    "description": {
      "value": "<p class=\"source\"><strong>Source</strong> <em>PZO1110</em></p>\n<p>A small steel mirror.</p>"
    },
    "tags": [],
    "weight": {
      "value": 0.5
    },
    "price": 10,
    "equipped": false,
    "identifiedName": "Mirror",
    "changes": [],
    "contextNotes": [],
    "links": {
      "children": []
    },
    "scriptCalls": [],
    "subType": "gear"
  }
}
