{
  "_id": "74nJBzdY4yvMZcBe",
  "name": "Musical Instrument, Masterwork",
  "type": "loot",
  "img": "systems/pf1/icons/items/inventory/lute.jpg",
  "sort": 0,
  "flags": {},
  "system": {
    "description": {
      "value": "<p>If you want to perform using a @Compendium[pf1.skills.HhV5UmaRLTjtB3Xh]{Perform} skill associated with a musical instrument (keyboard, percussion, string, or wind), you must have an appropriate musical instrument; otherwise you can't use the skill. The listed cost and weight is for a typical small instrument you could carry by hand, such as a drum, lyre, bell, harp, or flute; larger instruments such as a cello or piano are of course larger and more expensive.</p>\n<p>This high-quality instrument grants a +2 <em>circumstance bonus</em> on @Compendium[pf1.skills.HhV5UmaRLTjtB3Xh]{Perform} checks made to perform with the instrument.</p>"
    },
    "tags": [],
    "weight": {
      "value": 3
    },
    "price": 100,
    "equipped": false,
    "identifiedName": "Musical Instrument, Masterwork",
    "changes": [],
    "contextNotes": [],
    "links": {
      "children": []
    },
    "scriptCalls": [],
    "subType": "gear"
  }
}
