{
  "_id": "erhkrjegfkuyinfx",
  "name": "Quicksilver",
  "type": "loot",
  "img": "systems/pf1/icons/items/inventory/dice.jpg",
  "sort": 0,
  "flags": {},
  "system": {
    "description": {
      "value": "\r\n<p class=\"source\"><b>Source</b> <em>PZO9445</em></p>\r\n<p><b>Price</b> 1 gp; <b>Weight</b> -</p>\r\n<p>Quicksilver is a liquid metal with dangerous mental effects on those who handle it. It is most often distilled from crystalline amalgams such as cinnabar and stored in iron flasks.</p>\r\n<p class=\"header\">Alchemical Power Component</p>\r\n<p><b>Doses</b> 3 (3 gp); <b>Spells</b> mind-affecting descriptor</p>\r\n<p>Spells with the [<em>mind-affecting</em>] descriptor are cast at +1 caster level for the purpose of determining duration.</p>\r\n"
    },
    "tags": [],
    "price": 1,
    "equipped": false,
    "changes": [],
    "contextNotes": [],
    "links": {
      "children": []
    },
    "scriptCalls": [],
    "subType": "gear"
  }
}
