{
  "_id": "xjfbxyldsnrkffpt",
  "name": "Repellent, Vermin",
  "type": "loot",
  "img": "systems/pf1/icons/items/inventory/dice.jpg",
  "sort": 0,
  "flags": {},
  "system": {
    "description": {
      "value": "\r\n<p class=\"source\"><b>Source</b> <em>PZO9410</em></p>\r\n<p>This vile-smelling white paste keeps <em>vermin</em> at bay if spread on the skin. Normal-sized (Fine) <em>vermin</em> avoid you. Swarms of <em>vermin</em> must make a DC 15 <em>Fortitude</em> <em>saving throw</em> in order to enter your square. Once applied, <em>vermin</em> repellent remains effective for 4 hours or until you spend 1 round washing it off.</p>\r\n<p><b>Create</b>: <em>Craft</em> (alchemy) DC 20</p>\r\n"
    },
    "tags": [],
    "price": 5,
    "equipped": false,
    "changes": [],
    "contextNotes": [],
    "links": {
      "children": []
    },
    "scriptCalls": [],
    "subType": "gear"
  }
}
