{
  "_id": "fxgeulrqgtnwymgn",
  "name": "Satchel, Familiar",
  "type": "loot",
  "img": "systems/pf1/icons/items/inventory/dice.jpg",
  "sort": 0,
  "flags": {},
  "system": {
    "description": {
      "value": " \n<p class=\"source\"><b>Source</b> <em>PZO1123</em></p> \n<p>This armored case provides total cover to any Tiny or smaller creature contained within it. It includes air holes (which can be plugged with cork stoppers if you need to go underwater) and two receptacles for food and water.</p> \n"
    },
    "tags": [],
    "weight": {
      "value": 6
    },
    "price": 25,
    "equipped": false,
    "changes": [],
    "contextNotes": [],
    "links": {
      "children": []
    },
    "scriptCalls": [],
    "subType": "gear"
  }
}
