{
  "_id": "avdskczyslzefify",
  "name": "Scent Cloak",
  "type": "loot",
  "img": "systems/pf1/icons/items/inventory/dice.jpg",
  "sort": 0,
  "flags": {},
  "system": {
    "description": {
      "value": "\r\n<p><b>Price</b> 20 gp; <b>Weight</b> 2 lbs.</p>\r\n<p>This collection of coarsely ground spices, seeds, and alchemical reagents overrides your scent, increasing the DC of tracking you by scent by +10 for 24 hours. Because you still have a smell, creatures with <em>scent</em> can still detect and pinpoint if you are cloaked; they just can't identify your smell as something unique. Washing for 1 full round removes the scent cloak.</p>\r\n"
    },
    "tags": [],
    "weight": {
      "value": 2
    },
    "price": 20,
    "equipped": false,
    "changes": [],
    "contextNotes": [],
    "links": {
      "children": []
    },
    "scriptCalls": [],
    "subType": "gear"
  }
}
