{
  "_id": "urnyegqxtbxjyokm",
  "name": "Tools, Thieves' (Common)",
  "type": "loot",
  "img": "systems/pf1/icons/items/inventory/lockpick.jpg",
  "sort": 0,
  "flags": {},
  "system": {
    "description": {
      "value": "<p>This kit contains lockpicks and other tools you need to use the @Compendium[pf1.skills.CCy1fajKKU3K02iQ]{Disable Device} skill. Without these tools, you must use improvised tools, and you take a -2 circumstance penalty on @Compendium[pf1.skills.CCy1fajKKU3K02iQ]{Disable Device}&nbsp;checks.</p>"
    },
    "tags": [],
    "weight": {
      "value": 1
    },
    "price": 30,
    "equipped": false,
    "identifiedName": "Tools, Thieves' (Common)",
    "changes": [],
    "contextNotes": [],
    "links": {
      "children": []
    },
    "scriptCalls": [],
    "subType": "gear"
  }
}
