{
  "_id": "pintzgaflhzlrtry",
  "name": "Whiskey, Oldlaw",
  "type": "loot",
  "img": "systems/pf1/icons/items/inventory/dice.jpg",
  "sort": 0,
  "flags": {},
  "system": {
    "description": {
      "value": "<h4><span id=\"Whiskey_Oldlaw\"><a name=\"TOC-Whiskey-Oldlaw\"></a>Whiskey, Oldlaw</span></h4>\r\n<p class=\"source\"><b>Source</b> <em>PPZO9410</em></p>\r\n<p>This single-malt smooth rye whiskey is a favorite of old soldiers everywhere.</p>\r\n<p>The listed prices are for a tavern or restaurant in an average city.</p>\r\n"
    },
    "tags": [],
    "equipped": false,
    "changes": [],
    "contextNotes": [],
    "links": {
      "children": []
    },
    "scriptCalls": [],
    "subType": "gear"
  }
}
