{
  "_id": "Z53orCz6KeTS5LOb",
  "name": "AC Bonus (BRA)",
  "type": "feat",
  "img": "systems/pf1/icons/feats/dodge.jpg",
  "sort": 0,
  "flags": {},
  "system": {
    "description": {
      "value": "<p>At 4th level, when a brawler wears light or no armor, she gains a +1 dodge bonus to AC and CMD. This bonus increases by 1 at 9th, 13th, and 18th levels.<br><br>These bonuses to AC apply against touch attacks. She loses these bonuses while immobilized or helpless, wearing medium or heavy armor, or carrying a medium or heavy load.</p>"
    },
    "tags": [],
    "actions": [
      {
        "_id": "gjhchr660b8hm20w",
        "name": "Use",
        "img": "systems/pf1/icons/feats/dodge.jpg",
        "description": "",
        "tag": "",
        "activation": {
          "cost": 1,
          "type": "passive"
        },
        "unchainedAction": {
          "activation": {
            "cost": 1,
            "type": "passive"
          }
        },
        "duration": {
          "value": null,
          "units": ""
        },
        "target": {
          "value": ""
        },
        "range": {
          "value": null,
          "units": "",
          "maxIncrements": 1,
          "minValue": null,
          "minUnits": ""
        },
        "uses": {
          "autoDeductChargesCost": "",
          "self": {
            "value": 0,
            "maxFormula": "",
            "per": null
          },
          "per": "",
          "value": 0,
          "maxFormula": ""
        },
        "measureTemplate": {
          "type": "",
          "size": "",
          "overrideColor": false,
          "customColor": "",
          "overrideTexture": false,
          "customTexture": ""
        },
        "attackName": "",
        "actionType": "",
        "attackBonus": "",
        "critConfirmBonus": "",
        "damage": {
          "parts": [],
          "critParts": [],
          "nonCritParts": []
        },
        "attackParts": [],
        "formulaicAttacks": {
          "count": {
            "formula": ""
          },
          "bonus": {
            "formula": ""
          },
          "label": null
        },
        "formula": "",
        "ability": {
          "attack": null,
          "damage": null,
          "damageMult": 1,
          "critRange": 20,
          "critMult": 2
        },
        "save": {
          "dc": 0,
          "type": "",
          "description": ""
        },
        "effectNotes": [],
        "attackNotes": [],
        "soundEffect": "",
        "powerAttack": {
          "multiplier": "",
          "damageBonus": 2,
          "critMultiplier": 1
        },
        "naturalAttack": {
          "primaryAttack": true,
          "secondary": {
            "attackBonus": "-5",
            "damageMult": 0.5
          }
        },
        "nonlethal": false,
        "usesAmmo": false,
        "spellEffect": "",
        "spellArea": "",
        "conditionals": [],
        "enh": {
          "value": null
        }
      }
    ],
    "uses": {
      "per": ""
    },
    "attackNotes": [],
    "effectNotes": [],
    "changes": [
      {
        "_id": "ipjt76kz",
        "formula": "(@armor.type < 2 && @attributes.encumbrance.level < 1 ? 1 : 0) * clamped(floor((@classes.brawler.level - 1) / 4), 0, 4)",
        "operator": "add",
        "subTarget": "ac",
        "modifier": "dodge",
        "priority": 0,
        "value": 0,
        "target": "ac"
      },
      {
        "_id": "tvl84rm2",
        "formula": "(@armor.type < 2 && @attributes.encumbrance.level < 1 ? 1 : 0) * clamped(floor((@classes.brawler.level - 1) / 4), 0, 4)",
        "operator": "add",
        "subTarget": "cmd",
        "modifier": "dodge",
        "priority": 0,
        "value": 0
      }
    ],
    "contextNotes": [],
    "links": {
      "children": [],
      "charges": []
    },
    "tag": "classFeat_acBonusBra",
    "useCustomTag": true,
    "armorProf": {
      "value": []
    },
    "weaponProf": {
      "value": []
    },
    "languages": {
      "value": []
    },
    "scriptCalls": [],
    "subType": "classFeat",
    "associations": {
      "classes": [["Brawler"]]
    },
    "abilityType": "ex"
  }
}
