{
  "_id": "IUVUr0bfypXQDrQd",
  "name": "Ancestral Enlightenment",
  "type": "feat",
  "img": "systems/pf1/icons/feats/persuasive.jpg",
  "sort": 0,
  "flags": {},
  "system": {
    "description": {
      "value": "<p>The vigilante can attempt any Knowledge check untrained. If he already has ranks in a particular Knowledge skill, he gains a +4 bonus on checks with that skill.</p>\n<p>A vigilante must be at least 5th level to select this talent.</p>"
    },
    "tags": [],
    "actions": [],
    "attackNotes": [],
    "effectNotes": [],
    "changes": [],
    "contextNotes": [],
    "links": {
      "children": [],
      "charges": []
    },
    "tag": "classFeat_ancestralEnlightenment",
    "useCustomTag": true,
    "armorProf": {
      "value": []
    },
    "weaponProf": {
      "value": []
    },
    "languages": {
      "value": []
    },
    "scriptCalls": [],
    "subType": "classFeat",
    "associations": {
      "classes": [["Vigilante"]]
    },
    "abilityType": "ex"
  }
}
