{
  "_id": "Io7oIAjPo9rRbvDS",
  "name": "Animal Domain",
  "type": "feat",
  "img": "systems/pf1/icons/skills/blue_26.jpg",
  "sort": 0,
  "flags": {},
  "system": {
    "description": {
      "value": "<p><strong>Granted Powers:</strong> You can speak with and befriend animals with ease. In addition, you treat Knowledge (nature) as a class skill.</p>\n<p><strong>Domain Spells:</strong></p>\n<ul>\n<li>1st—@Compendium[pf1.spells.5s4e2iifhflglr1t]{Calm Animals}</li>\n<li>2nd—@Compendium[pf1.spells.yyzf346hiq8ixt0u]{Hold Animal}</li>\n<li>3rd—@Compendium[pf1.spells.io2yjhr42chvcfb4]{Dominate Animal}</li>\n<li>4th—@Compendium[pf1.spells.choriern682hgptb]{Summon Nature's Ally IV} (animals only)</li>\n<li>5th—@Compendium[pf1.spells.w88ddxpu89qcr5c0]{Beast Shape III} (animals only)</li>\n<li>6th—@Compendium[pf1.spells.76t09cafayrw13ux]{Antilife Shell}</li>\n<li>7th—@Compendium[pf1.spells.3ah9mmg0odateh8l]{Animal Shapes}</li>\n<li>8th—@Compendium[pf1.spells.lnpyf5gwn8m21y02]{Summon Nature's Ally VIII} (animals only)</li>\n<li>9th—@Compendium[pf1.spells.n3lp01euzcdmtbw5]{Shapechange}</li>\n</ul>"
    },
    "tags": [],
    "actions": [],
    "attackNotes": [],
    "effectNotes": [],
    "changes": [],
    "contextNotes": [],
    "links": {
      "children": [],
      "charges": []
    },
    "tag": "classFeat_animalDomain",
    "useCustomTag": true,
    "armorProf": {
      "value": []
    },
    "weaponProf": {
      "value": []
    },
    "languages": {
      "value": []
    },
    "scriptCalls": [],
    "subType": "classFeat",
    "associations": {
      "classes": [["Cleric"]]
    }
  }
}
