{
  "_id": "XZahvWBEN1MaO8wC",
  "name": "Aurora Patron",
  "type": "feat",
  "img": "systems/pf1/icons/feats/improved-familiar.jpg",
  "sort": 0,
  "flags": {},
  "system": {
    "description": {
      "value": "<ul>\n<li>2nd — @Compendium[pf1.spells.qcjskol4ac3eemhy]{Color Spray}</li>\n<li>4th — @Compendium[pf1.spells.zyfm6dq35i4hip4u]{Hypnotic Pattern}</li>\n<li>6th — @Compendium[pf1.spells.56atnwmo4s61hi45]{Wall Of Nausea}</li>\n<li>8th — @Compendium[pf1.spells.6lebv7569xsypp8u]{Rainbow Pattern}</li>\n<li>10th — @Compendium[pf1.spells.hxgnuvkeh18untb4]{Blazing Rainbow}</li>\n<li>12th — @Compendium[pf1.spells.o9kqm42x6xkfjem3]{Programmed Image}</li>\n<li>14th — @Compendium[pf1.spells.mb819hvwpk0zmw53]{Prismatic Spray}</li>\n<li>16th — @Compendium[pf1.spells.ijwcwnt3oatnfghq]{Prismatic Wall}</li>\n<li>18th — @Compendium[pf1.spells.0mt9mso6wdhfafpo]{Polar Midnight}</li>\n</ul>"
    },
    "tags": [],
    "actions": [],
    "attackNotes": [],
    "effectNotes": [],
    "changes": [],
    "contextNotes": [],
    "links": {
      "children": [],
      "charges": []
    },
    "tag": "classFeat_auroraPatron",
    "useCustomTag": true,
    "armorProf": {
      "value": []
    },
    "weaponProf": {
      "value": []
    },
    "languages": {
      "value": []
    },
    "scriptCalls": [],
    "subType": "classFeat",
    "associations": {
      "classes": [["Witch"]]
    }
  }
}
