{
  "_id": "IiiIKzSSXHlC06C7",
  "name": "Blindsense (UC) (3 pts)",
  "type": "feat",
  "img": "systems/pf1/icons/skills/blue_26.jpg",
  "sort": 0,
  "flags": {},
  "system": {
    "description": {
      "value": "<p><strong>Requirements: </strong>Summoner level 9th.</p>\n<p>The eidolon’s senses become incredibly acute, giving it blindsense with a range of 30 feet. This ability allows the eidolon to pinpoint the location of creatures that it can’t see without having to attempt a Perception check, but such creatures still have total concealment from the eidolon.</p>\n<p>Visibility still affects the eidolon’s movement, and it is still denied its Dexterity bonus to Armor Class against attacks from creatures it cannot see.&nbsp;</p>"
    },
    "tags": [],
    "actions": [],
    "attackNotes": [],
    "effectNotes": [],
    "changes": [],
    "contextNotes": [],
    "links": {
      "children": [],
      "charges": []
    },
    "tag": "classFeat_blindsenseUc3Pts",
    "useCustomTag": true,
    "armorProf": {
      "value": []
    },
    "weaponProf": {
      "value": []
    },
    "languages": {
      "value": []
    },
    "scriptCalls": [],
    "subType": "classFeat",
    "associations": {
      "classes": [["Eidolon (Unchained)"]]
    },
    "abilityType": "ex"
  }
}
