{
  "_id": "GFiYz3RI2opqLzbe",
  "name": "Bones Mystery",
  "type": "feat",
  "img": "systems/pf1/icons/spells/light-magenta-2.jpg",
  "sort": 0,
  "flags": {},
  "system": {
    "description": {
      "value": "<p><strong>Class Skills:</strong> An oracle with a bones mystery adds Bluff, Disguise, Intimidate, and Stealth to her list of class skills.<br><br><strong>Bonus Spells:</strong>&nbsp;</p>\n<ul>\n<li>@Compendium[pf1.spells.9tww9fc9049h6iqc]{Cause Fear} (2nd),&nbsp;</li>\n<li>@Compendium[pf1.spells.3ze0kso9hxff5u2f]{False Life} (4th),&nbsp;</li>\n<li>@Compendium[pf1.spells.8uwmrygxgih1fb57]{Animate Dead} (6th),&nbsp;</li>\n<li>@Compendium[pf1.spells.be88e90guqbi1q1z]{Fear} (8th),&nbsp;</li>\n<li>@Compendium[pf1.spells.dg3mrasygkm83c3e]{Slay Living} (10th),&nbsp;</li>\n<li>@Compendium[pf1.spells.3a162m66toj22fpa]{Circle Of Death} (12th),&nbsp;</li>\n<li>@Compendium[pf1.spells.wkp8u7xl1dgpk362]{Control Undead} (14th),&nbsp;</li>\n<li>@Compendium[pf1.spells.e8zen5nzixnt7bde]{Horrid Wilting} (16th),&nbsp;</li>\n<li>@Compendium[pf1.spells.wplgawb6aznjx7se]{Wail of the Banshee} (18th).</li>\n</ul>"
    },
    "tags": [],
    "actions": [],
    "attackNotes": [],
    "effectNotes": [],
    "changes": [],
    "contextNotes": [],
    "links": {
      "children": [],
      "charges": []
    },
    "tag": "classFeat_bonesMystery",
    "useCustomTag": true,
    "armorProf": {
      "value": []
    },
    "weaponProf": {
      "value": []
    },
    "languages": {
      "value": []
    },
    "scriptCalls": [],
    "subType": "classFeat",
    "associations": {
      "classes": [["Oracle"]]
    }
  }
}
