{
  "_id": "6wtTc1PRWBKZuF9D",
  "name": "Brawler's Cunning",
  "type": "feat",
  "img": "systems/pf1/icons/skills/yellow_08.jpg",
  "sort": 0,
  "flags": {},
  "system": {
    "description": {
      "value": "<p>If the brawler’s Intelligence score is less than 13, it counts as 13 for the purpose of meeting the prerequisites of combat feats.</p>"
    },
    "tags": [],
    "actions": [],
    "attackNotes": [],
    "effectNotes": [],
    "changes": [],
    "contextNotes": [],
    "links": {
      "children": [],
      "charges": []
    },
    "tag": "classFeat_brawlersCunning",
    "useCustomTag": true,
    "armorProf": {
      "value": []
    },
    "weaponProf": {
      "value": []
    },
    "languages": {
      "value": []
    },
    "scriptCalls": [],
    "subType": "classFeat",
    "associations": {
      "classes": [["Brawler"]]
    },
    "abilityType": "ex"
  }
}
