{
  "_id": "GJQ0VVH3rishb9X1",
  "name": "Burn",
  "type": "feat",
  "img": "systems/pf1/icons/skills/fire_11.jpg",
  "sort": 0,
  "flags": {},
  "system": {
    "description": {
      "value": "<p>At 1st level, a kineticist can overexert herself to channel more power than normal, pushing past the limit of what is safe for her body by accepting burn. Some of her wild talents allow her to accept burn in exchange for a greater effect, while others require her to accept a certain amount of burn to use that talent at all. For each point of burn she accepts, a kineticist takes 1 point of&nbsp;<em>nonlethal damage</em>&nbsp;per character level. This damage can’t be healed by any means other than getting a full night’s rest, which removes all burn and associated&nbsp;<em>nonlethal damage</em>. Nonlethal damage from burn can’t be reduced or redirected, and a kineticist incapable of taking&nbsp;<em>nonlethal damage</em>&nbsp;can’t accept burn. A kineticist can accept only 1 point of burn per round. This limit rises to 2 points of burn at 6th level, and rises by 1 additional point every 3 levels thereafter. A kineticist can’t choose to accept burn if it would put her total number of points of burn higher than 3 + her&nbsp;<em>Constitution</em>&nbsp;modifier (though she can be forced to accept more burn from a source outside her control). A kineticist who has accepted burn never benefits from abilities that allow her to ignore or alter the effects she receives from&nbsp;<em>nonlethal damage</em>.</p>"
    },
    "tags": [],
    "actions": [
      {
        "_id": "e3jyuvp1r2chxx29",
        "name": "Use",
        "img": "systems/pf1/icons/skills/fire_11.jpg",
        "description": "",
        "tag": "",
        "activation": {
          "cost": 1,
          "type": "passive"
        },
        "unchainedAction": {
          "activation": {
            "cost": 1,
            "type": "passive"
          }
        },
        "duration": {
          "value": null,
          "units": ""
        },
        "target": {
          "value": ""
        },
        "range": {
          "value": null,
          "units": "",
          "maxIncrements": 1,
          "minValue": null,
          "minUnits": ""
        },
        "uses": {
          "autoDeductChargesCost": "0",
          "self": {
            "value": 0,
            "maxFormula": "",
            "per": null
          },
          "per": "charges",
          "value": 0,
          "maxFormula": "3 + @abilities.con.mod"
        },
        "measureTemplate": {
          "type": "",
          "size": "0",
          "overrideColor": false,
          "customColor": "",
          "overrideTexture": false,
          "customTexture": ""
        },
        "attackName": "",
        "actionType": "",
        "attackBonus": "",
        "critConfirmBonus": "",
        "damage": {
          "parts": [],
          "critParts": [],
          "nonCritParts": []
        },
        "attackParts": [],
        "formulaicAttacks": {
          "count": {
            "formula": ""
          },
          "bonus": {
            "formula": ""
          },
          "label": null
        },
        "formula": "",
        "ability": {
          "attack": null,
          "damage": null,
          "damageMult": 1,
          "critRange": 20,
          "critMult": 2
        },
        "save": {
          "dc": 0,
          "type": "",
          "description": ""
        },
        "effectNotes": [],
        "attackNotes": [],
        "soundEffect": "",
        "powerAttack": {
          "multiplier": "",
          "damageBonus": 2,
          "critMultiplier": 1
        },
        "naturalAttack": {
          "primaryAttack": true,
          "secondary": {
            "attackBonus": "-5",
            "damageMult": 0.5
          }
        },
        "nonlethal": false,
        "usesAmmo": false,
        "spellEffect": "",
        "spellArea": "",
        "conditionals": [],
        "enh": {
          "value": null
        }
      }
    ],
    "uses": {
      "per": "charges",
      "maxFormula": "3 + @abilities.con.mod"
    },
    "attackNotes": [],
    "effectNotes": [],
    "changes": [],
    "contextNotes": [],
    "links": {
      "children": [],
      "charges": []
    },
    "tag": "classFeat_burn",
    "useCustomTag": true,
    "armorProf": {
      "value": []
    },
    "weaponProf": {
      "value": []
    },
    "languages": {
      "value": []
    },
    "scriptCalls": [],
    "subType": "classFeat",
    "associations": {
      "classes": [["Kineticist"]]
    },
    "abilityType": "ex",
    "crOffset": "0"
  }
}
