{
  "_id": "C8M0fm2bxtkUZDwS",
  "name": "Celestial Totem",
  "type": "feat",
  "img": "systems/pf1/icons/feats/deafening-critical.jpg",
  "sort": 0,
  "flags": {},
  "system": {
    "description": {
      "value": "<p>While raging, the barbarian shines with a righteous light. This effect bestows upon the barbarian a halo of gleaming light that shines as if it were @Compendium[pf1.spells.7x2z0i8rcx7s81fk]{Daylight}&nbsp;and triggers an @Compendium[pf1.spells.xsecnbuvc3rbrefu]{Invisibility Purge}&nbsp;effect in the barbarian’s square and each adjacent square. The@Compendium[pf1.spells.xsecnbuvc3rbrefu]{Invisibility Purge}&nbsp;only affects nongood creatures. A barbarian must be at least 8th level to select this rage power.</p>"
    },
    "tags": [],
    "actions": [],
    "attackNotes": [],
    "effectNotes": [],
    "changes": [],
    "contextNotes": [],
    "links": {
      "children": [],
      "charges": []
    },
    "tag": "classFeat_celestialTotem",
    "useCustomTag": true,
    "armorProf": {
      "value": []
    },
    "weaponProf": {
      "value": []
    },
    "languages": {
      "value": []
    },
    "scriptCalls": [],
    "subType": "classFeat",
    "associations": {
      "classes": [["Barbarian"], ["Skald"]]
    },
    "abilityType": "su"
  }
}
