{
  "_id": "Sk24aCanAyUlnPlF",
  "name": "Clockwork Heart",
  "type": "feat",
  "img": "systems/pf1/icons/spells/rock-sky-3.jpg",
  "sort": 0,
  "flags": {},
  "system": {
    "description": {
      "value": "<p><strong>Element&nbsp;</strong>earth;&nbsp;<strong>Type&nbsp;</strong>utility (Su);&nbsp;<strong>Level&nbsp;</strong>3;&nbsp;<strong>Burn&nbsp;</strong>0<br><strong>Prerequisite&nbsp;</strong>metal blast</p>\n<p>You have used your power over metal to add clockwork components to your own body. So long as these clockwork components are kept wound (per the&nbsp;<a href=\"https://aonprd.com/MonsterSubtypes.aspx?ItemName=Clockwork\">winding ability of the clockwork subtype</a>), you gain the benefits of both the @Compendium[pf1.feats.Uuiu3p982omhMEPj]{Improved Initiative}&nbsp;and @Compendium[pf1.feats.0bZf3SDkvVOe2ujH]{Lightning Reflexes}&nbsp;feats.</p>"
    },
    "tags": [],
    "actions": [],
    "attackNotes": [],
    "effectNotes": [],
    "changes": [],
    "contextNotes": [],
    "links": {
      "children": [],
      "charges": []
    },
    "tag": "classFeat_clockworkHeart",
    "useCustomTag": true,
    "armorProf": {
      "value": []
    },
    "weaponProf": {
      "value": []
    },
    "languages": {
      "value": []
    },
    "scriptCalls": [],
    "subType": "classFeat",
    "associations": {
      "classes": [["Kineticist"]]
    },
    "abilityType": "su"
  }
}
