{
  "_id": "eRg5JkgViBryAa0T",
  "name": "Controller Subschool",
  "type": "feat",
  "img": "systems/pf1/icons/skills/blue_35.jpg",
  "sort": 0,
  "flags": {},
  "system": {
    "description": {
      "value": "<p><strong>Associated School:&nbsp;</strong><em>Enchantment</em>.</p>\n<p><strong>Replacement Powers:</strong> This subschool replaces the enchanting smile and aura of despair powers of the&nbsp;<em>enchantment</em>&nbsp;school.</p>"
    },
    "tags": [],
    "actions": [],
    "attackNotes": [],
    "effectNotes": [],
    "changes": [],
    "contextNotes": [],
    "links": {
      "children": [],
      "charges": []
    },
    "tag": "classFeat_controllerSubschool",
    "useCustomTag": true,
    "armorProf": {
      "value": []
    },
    "weaponProf": {
      "value": []
    },
    "languages": {
      "value": []
    },
    "scriptCalls": [],
    "subType": "classFeat",
    "associations": {
      "classes": [["Wizard"]]
    }
  }
}
