{
  "_id": "8rM8JGd9Afi0cimB",
  "name": "Cytillesh BomB",
  "type": "feat",
  "img": "systems/pf1/icons/items/potions/unique-3.jpg",
  "sort": 0,
  "flags": {},
  "system": {
    "description": {
      "value": "<p>When the alchemist creates a bomb, he can infuse it with cytillesh extract. Cytillesh bombs deal 1d4 points of damage, plus 1d4 points of damage for every odd-numbered level, instead of 1d6. Creatures that take a direct hit from a cytillesh bomb are sickened for 1 round per alchemist level unless they succeed at Fortitude saves. If a creature is rendered unconscious from this bomb or any other attack before it is able to remove the sickened condition, the victim loses all memory from the last hour and cannot form new memories for 8 hours. The lost and prevented memories might return later as dreams, and can be restored with a @Compendium[pf1.spells.anya5qwdjhdfyk8u]{Restoration}&nbsp;spell. This discovery doesn’t stack with other discoveries that alter an alchemist’s bomb.</p>"
    },
    "tags": [],
    "actions": [],
    "attackNotes": [],
    "effectNotes": [],
    "changes": [],
    "contextNotes": [],
    "links": {
      "children": [],
      "charges": []
    },
    "tag": "classFeat_cytilleshBomb",
    "useCustomTag": true,
    "armorProf": {
      "value": []
    },
    "weaponProf": {
      "value": []
    },
    "languages": {
      "value": []
    },
    "scriptCalls": [],
    "subType": "classFeat",
    "associations": {
      "classes": [["Alchemist"]]
    }
  }
}
