{
  "_id": "rOSQZD57Jz4eNLt3",
  "name": "Espionage Subdomain",
  "type": "feat",
  "img": "systems/pf1/icons/skills/shadow_17.jpg",
  "sort": 0,
  "flags": {},
  "system": {
    "description": {
      "value": "<p><strong>Replacement Domain Spells:</strong></p>\n<ul>\n<li>2nd—@Compendium[pf1.spells.k3a8fr763ejcm4gl]{Anonymous Interaction}</li>\n<li>4th—@Compendium[pf1.spells.wek2dovt5lf9twu2]{Zone of Silence}</li>\n<li>8th—@Compendium[pf1.spells.blvetbc929cfx4m8]{Mind Blank}</li>\n</ul>"
    },
    "tags": [],
    "actions": [],
    "attackNotes": [],
    "effectNotes": [],
    "changes": [],
    "contextNotes": [],
    "links": {
      "children": [],
      "charges": []
    },
    "tag": "classFeat_espionageSubdomain",
    "useCustomTag": true,
    "armorProf": {
      "value": []
    },
    "weaponProf": {
      "value": []
    },
    "languages": {
      "value": []
    },
    "scriptCalls": [],
    "subType": "classFeat",
    "associations": {
      "classes": [["Cleric"]]
    }
  }
}
