{
  "_id": "OxLSX3yUpgcf1J5O",
  "name": "Family Subdomain",
  "type": "feat",
  "img": "systems/pf1/icons/skills/affliction_10.jpg",
  "sort": 0,
  "flags": {},
  "system": {
    "description": {
      "value": "<p><strong>Replacement Domain Spells:</strong></p>\n<ul>\n<li>2nd—@Compendium[pf1.spells.6orhthk4g27rncuu]{Calm Emotions}</li>\n<li>3rd—@Compendium[pf1.spells.qn947hen3wrelxhz]{Create Food and Water}</li>\n</ul>"
    },
    "tags": [],
    "actions": [],
    "attackNotes": [],
    "effectNotes": [],
    "changes": [],
    "contextNotes": [],
    "links": {
      "children": [],
      "charges": []
    },
    "tag": "classFeat_familySubdomain",
    "useCustomTag": true,
    "armorProf": {
      "value": []
    },
    "weaponProf": {
      "value": []
    },
    "languages": {
      "value": []
    },
    "scriptCalls": [],
    "subType": "classFeat",
    "associations": {
      "classes": [["Cleric"]]
    }
  }
}
