{
  "_id": "PesppikWseWOK0fW",
  "name": "Fast Healing (4 pts)",
  "type": "feat",
  "img": "systems/pf1/icons/skills/blue_26.jpg",
  "sort": 0,
  "flags": {},
  "system": {
    "description": {
      "value": "<p>An eidolon's body gains the ability to heal wounds very quickly, giving it fast healing 1. The eidolon heals 1 point of damage each round, just like natural healing. Fast healing does not restore hit points lost due to starvation, thirst, or suffocation, nor does it allow the eidolon to regrow lost body parts (or to reattach severed parts). Fast healing functions as long as the eidolon is alive. This fast healing does not function when the eidolon is not on the same plane as its summoner.</p>\n<p>This healing can be increased by 1 per round for every 2 additional evolution points spent (maximum 5).</p>\n<p>The summoner must be at least 11th level before selecting this evolution.</p>"
    },
    "tags": [],
    "actions": [],
    "attackNotes": [],
    "effectNotes": [],
    "changes": [],
    "contextNotes": [],
    "links": {
      "children": [],
      "charges": []
    },
    "tag": "classFeat_fastHealing4Pts",
    "useCustomTag": true,
    "armorProf": {
      "value": []
    },
    "weaponProf": {
      "value": []
    },
    "languages": {
      "value": []
    },
    "scriptCalls": [],
    "subType": "classFeat",
    "associations": {
      "classes": [["Eidolon"]]
    },
    "abilityType": "su"
  }
}
