{
  "_id": "joNziZgJl9ZOJZlF",
  "name": "Final Asepct",
  "type": "feat",
  "img": "systems/pf1/icons/skills/blue_17.jpg",
  "sort": 0,
  "flags": {},
  "system": {
    "description": {
      "value": "<p>At 20th level, a shifter gains access to a fifth aspect, and when she uses shifter’s aspect, she can assume the minor forms of all her aspects and the shifter can use her major and minor forms at will.</p>"
    },
    "tags": [],
    "actions": [],
    "attackNotes": [],
    "effectNotes": [],
    "changes": [],
    "contextNotes": [],
    "links": {
      "children": [],
      "charges": []
    },
    "tag": "classFeat_finalAsepct",
    "useCustomTag": true,
    "armorProf": {
      "value": []
    },
    "weaponProf": {
      "value": []
    },
    "languages": {
      "value": []
    },
    "scriptCalls": [],
    "subType": "classFeat",
    "associations": {
      "classes": [["Shifter"]]
    },
    "abilityType": "su"
  }
}
