{
  "_id": "cfCOUnt8xNHYt9kh",
  "name": "Generation Subschool",
  "type": "feat",
  "img": "systems/pf1/icons/spells/air-burst-jade-2.jpg",
  "sort": 0,
  "flags": {},
  "system": {
    "description": {
      "value": "<p><strong>Associated School:</strong>&nbsp;<em>Evocation</em>.</p>\n<p><strong>Replacement Powers:</strong> This subschool replaces the intense spells and force missile powers of the&nbsp;<em>evocation</em>&nbsp;school.</p>"
    },
    "tags": [],
    "actions": [],
    "attackNotes": [],
    "effectNotes": [],
    "changes": [],
    "contextNotes": [],
    "links": {
      "children": [],
      "charges": []
    },
    "tag": "classFeat_generationSubschool",
    "useCustomTag": true,
    "armorProf": {
      "value": []
    },
    "weaponProf": {
      "value": []
    },
    "languages": {
      "value": []
    },
    "scriptCalls": [],
    "subType": "classFeat",
    "associations": {
      "classes": [["Wizard"]]
    }
  }
}
