{
  "_id": "ikVwT8b9zfj701k1",
  "name": "Greater Tactician",
  "type": "feat",
  "img": "systems/pf1/icons/items/inventory/scroll-druid.jpg",
  "sort": 0,
  "flags": {},
  "system": {
    "description": {
      "value": "<p>At 9th level, the cavalier receives an additional&nbsp;<a href=\"https://aonprd.com/Feats.aspx?Category=Teamwork\">teamwork feat</a>&nbsp;as a bonus feat. He must meet the prerequisites for this feat. The cavalier can grant this feat to his allies using the tactician ability. Using the tactician ability is a swift action.</p>"
    },
    "tags": [],
    "actions": [],
    "attackNotes": [],
    "effectNotes": [],
    "changes": [],
    "contextNotes": [],
    "links": {
      "children": [],
      "charges": []
    },
    "tag": "classFeat_greaterTactician",
    "useCustomTag": true,
    "armorProf": {
      "value": []
    },
    "weaponProf": {
      "value": []
    },
    "languages": {
      "value": []
    },
    "scriptCalls": [],
    "subType": "classFeat",
    "associations": {
      "classes": [["Cavalier"]]
    },
    "abilityType": "ex"
  }
}
