{
  "_id": "XWLdvewfzq5kbuAo",
  "name": "Guise of Unlife",
  "type": "feat",
  "img": "systems/pf1/icons/skills/light_07.jpg",
  "sort": 0,
  "flags": {},
  "system": {
    "description": {
      "value": "<p>A vigilante with this talent gains an additional social identity in the form of an undead version of one of his existing social identities, such as a ghoul, vampire, or zombie. Successful Knowledge checks reveal information about the vigilante as if he were undead, and he counts as undead for the purpose of divination spells and effects. He gains no other benefit from appearing to be an undead creature, and remains vulnerable to negative energy and spells that effect the living.</p>\n<p>The vigilante must be a living creature to select this talent.</p>"
    },
    "tags": [],
    "actions": [],
    "attackNotes": [],
    "effectNotes": [],
    "changes": [],
    "contextNotes": [],
    "links": {
      "children": [],
      "charges": []
    },
    "tag": "classFeat_guiseOfUnlife",
    "useCustomTag": true,
    "armorProf": {
      "value": []
    },
    "weaponProf": {
      "value": []
    },
    "languages": {
      "value": []
    },
    "scriptCalls": [],
    "subType": "classFeat",
    "associations": {
      "classes": [["Vigilante"]]
    },
    "abilityType": "su"
  }
}
