{
  "_id": "d6SFyXvfldviHVSm",
  "name": "Harrowed Home",
  "type": "feat",
  "img": "systems/pf1/icons/skills/shadow_09.jpg",
  "sort": 0,
  "flags": {},
  "system": {
    "description": {
      "value": "<p>At 15th level, your otherworldly connection is so strong that your subconscious cleaves off a small portion of the&nbsp;<em>Harrowed</em>&nbsp;Realm for use as your own private sanctuary. Your harrowed home is created the first time you use this ability, and is decorated as a garish reflection of your personality. Thereafter, you always visit this same home. You can place a portal to your harrowed home once every 24 hours, but placing a new portal destroys the previous one, and you can not move the entrance while you are inside. As long as you are not in your harrowed home, time ceases to pass for anything and anyone still in your pocket dimension; creatures cannot move, objects do not decay, and everything remains exactly the same as you left it the last time you visited the plane. Time continues as normal whenever you are inside your harrowed home. This ability is otherwise identical to @Compendium[pf1.spells.kqftgm3bi2dqj92l]{Mage's Magnificent Mansion}.</p>"
    },
    "tags": [],
    "actions": [
      {
        "_id": "qlu2b2xy52fngw93",
        "name": "Use",
        "img": "systems/pf1/icons/skills/shadow_09.jpg",
        "description": "",
        "tag": "",
        "activation": {
          "cost": 1,
          "type": "standard"
        },
        "unchainedAction": {
          "activation": {
            "cost": 2,
            "type": "action"
          }
        },
        "duration": {
          "value": null,
          "units": ""
        },
        "target": {
          "value": ""
        },
        "range": {
          "value": null,
          "units": "",
          "maxIncrements": 1,
          "minValue": null,
          "minUnits": ""
        },
        "uses": {
          "autoDeductChargesCost": "",
          "self": {
            "value": 0,
            "maxFormula": "",
            "per": null
          },
          "per": "day",
          "value": 0,
          "maxFormula": "1"
        },
        "measureTemplate": {
          "type": "",
          "size": "0",
          "overrideColor": false,
          "customColor": "",
          "overrideTexture": false,
          "customTexture": ""
        },
        "attackName": "",
        "actionType": "",
        "attackBonus": "",
        "critConfirmBonus": "",
        "damage": {
          "parts": [],
          "critParts": [],
          "nonCritParts": []
        },
        "attackParts": [],
        "formulaicAttacks": {
          "count": {
            "formula": ""
          },
          "bonus": {
            "formula": ""
          },
          "label": null
        },
        "formula": "",
        "ability": {
          "attack": null,
          "damage": null,
          "damageMult": 1,
          "critRange": 20,
          "critMult": 2
        },
        "save": {
          "dc": 0,
          "type": "",
          "description": ""
        },
        "effectNotes": [],
        "attackNotes": [],
        "soundEffect": "",
        "powerAttack": {
          "multiplier": "",
          "damageBonus": 2,
          "critMultiplier": 1
        },
        "naturalAttack": {
          "primaryAttack": true,
          "secondary": {
            "attackBonus": "-5",
            "damageMult": 0.5
          }
        },
        "nonlethal": false,
        "usesAmmo": false,
        "spellEffect": "",
        "spellArea": "",
        "conditionals": [],
        "enh": {
          "value": null
        }
      }
    ],
    "uses": {
      "per": "day",
      "maxFormula": "1"
    },
    "attackNotes": [],
    "effectNotes": [],
    "changes": [],
    "contextNotes": [],
    "links": {
      "children": [],
      "charges": []
    },
    "tag": "classFeat_harrowedHome",
    "useCustomTag": true,
    "armorProf": {
      "value": []
    },
    "weaponProf": {
      "value": []
    },
    "languages": {
      "value": []
    },
    "scriptCalls": [],
    "subType": "classFeat",
    "associations": {
      "classes": [["Sorcerer"]]
    },
    "abilityType": "sp"
  }
}
