{
  "_id": "9lWbk2uFVzHyTKko",
  "name": "Impale Infusion",
  "type": "feat",
  "img": "systems/pf1/icons/spells/rock-sky-3.jpg",
  "sort": 0,
  "flags": {},
  "system": {
    "description": {
      "value": "<p><strong>Element&nbsp;</strong>earth, water, wood;&nbsp;<strong>Type&nbsp;</strong>form infusion;&nbsp;<strong>Level&nbsp;</strong>3;&nbsp;<strong>Burn&nbsp;</strong>2<br><strong>Associated Blasts&nbsp;</strong>earth, ice, metal<br><strong>Saving Throw&nbsp;</strong>none</p>\n<p>You extend a long, sharp spike of elemental matter along a line, impaling multiple foes. Make a single attack roll against each creature or object in a 30-foot line, starting with the closest target. If the result is a critical threat, roll to confirm against only the first target you hit. Calculate damage against each target you hit, starting from the closest. If your attack hits a target but fails to deal physical damage to that target, the spike fails to penetrate and the infused blast doesn’t continue.</p>\n<p>A blast with the impale infusion can penetrate solid barriers, but it must deal enough damage to destroy the barrier in order to continue through. Infused earth and metal blasts always deal piercing damage.</p>"
    },
    "tags": [],
    "actions": [],
    "attackNotes": [],
    "effectNotes": [],
    "changes": [],
    "contextNotes": [],
    "links": {
      "children": [],
      "charges": []
    },
    "tag": "classFeat_impaleInfusion",
    "useCustomTag": true,
    "armorProf": {
      "value": []
    },
    "weaponProf": {
      "value": []
    },
    "languages": {
      "value": []
    },
    "scriptCalls": [],
    "subType": "classFeat",
    "associations": {
      "classes": [["Kineticist"]]
    }
  }
}
