{
  "_id": "hJV8YVdSn0NnTxww",
  "name": "Judgment Subdomain",
  "type": "feat",
  "img": "systems/pf1/icons/skills/blue_23.jpg",
  "sort": 0,
  "flags": {},
  "system": {
    "description": {
      "value": "<p><strong>Replacement Domain Spells:</strong></p>\n<ul>\n<li>2nd—@Compendium[pf1.spells.h8zit03e88jxrg9t]{Castigate}</li>\n<li>4th—@Compendium[pf1.spells.qq0r0sldae6ole7n]{Rebuke}</li>\n<li>5th—@Compendium[pf1.spells.3jaumkutti1ytulq]{Mark of Justice}</li>\n</ul>"
    },
    "tags": [],
    "actions": [],
    "attackNotes": [],
    "effectNotes": [],
    "changes": [],
    "contextNotes": [],
    "links": {
      "children": [],
      "charges": []
    },
    "tag": "classFeat_judgmentSubdomain",
    "useCustomTag": true,
    "armorProf": {
      "value": []
    },
    "weaponProf": {
      "value": []
    },
    "languages": {
      "value": []
    },
    "scriptCalls": [],
    "subType": "classFeat",
    "associations": {
      "classes": [["Cleric"]]
    }
  }
}
