{
  "_id": "XvyrdZjQh3Fa9mZN",
  "name": "Master Vampire Hunter",
  "type": "feat",
  "img": "systems/pf1/icons/skills/red_13.jpg",
  "sort": 0,
  "flags": {},
  "system": {
    "description": {
      "value": "<p>At 20th level, the vampire hunter becomes the&nbsp;<em>bane</em>&nbsp;of the&nbsp;<em>undead</em>. As a&nbsp;<em>standard action</em>, he can make a single attack against his&nbsp;<em>undead</em>&nbsp;quarry at his full&nbsp;<em>attack bonus</em>&nbsp;while choosing one of the following effects: destroy, stake, or paralyze for 2d6 rounds.</p>\n<p>If the attack hits, the target takes damage normally and must succeed at a&nbsp;<em>Fortitude</em>&nbsp;saving throw or suffer the additional effect. The DC for this save is 10 + 1/2 the vampire hunter’s level + the vampire hunter’s&nbsp;<em>Wisdom</em>&nbsp;modifier. Whether or not the attack succeeds, the creature cannot be targeted by this ability again (by any vampire hunter) for 24 hours.</p>\n<p>If the vampire hunter chooses to destroy the target, the target is killed. If the target is a&nbsp;<em>vampire</em>, it does not assume&nbsp;<em>gaseous form</em>, and its&nbsp;<em>healing</em>&nbsp;powers do not come into effect; it is destroyed outright. If the vampire hunter chooses to stake his target, the target is killed if it’s a non-<em>vampire</em>. If it’s a&nbsp;<em>vampire</em>&nbsp;(or similar creature affected by having a stake driven through its heart) it is killed, but returns to life if the stake is removed. The vampire hunter can use his 4th-level stake ability to employ any piercing weapon or sharp tool as though it were a&nbsp;<em>wooden stake</em>.</p>\n<p>Additionally, at 20th level, each day when the vampire hunter regains his spells per day, he chooses one vampiric focus to be active on himself for the entire day. This focus is in addition to uses of his vampiric focus class ability.</p>"
    },
    "tags": [],
    "actions": [
      {
        "_id": "gt86weisgdhjsag6",
        "name": "Use",
        "img": "systems/pf1/icons/skills/red_13.jpg",
        "description": "",
        "tag": "",
        "activation": {
          "cost": 1,
          "type": "standard"
        },
        "unchainedAction": {
          "activation": {
            "cost": 2,
            "type": "action"
          }
        },
        "duration": {
          "value": null,
          "units": "inst"
        },
        "target": {
          "value": "undead quarry"
        },
        "range": {
          "value": null,
          "units": "seeText",
          "maxIncrements": 1,
          "minValue": null,
          "minUnits": ""
        },
        "uses": {
          "autoDeductChargesCost": "",
          "self": {
            "value": 0,
            "maxFormula": "",
            "per": null
          },
          "per": "",
          "value": 0,
          "maxFormula": ""
        },
        "measureTemplate": {
          "type": "",
          "size": "0",
          "overrideColor": false,
          "customColor": "",
          "overrideTexture": false,
          "customTexture": ""
        },
        "attackName": "",
        "actionType": "",
        "attackBonus": "",
        "critConfirmBonus": "",
        "damage": {
          "parts": [],
          "critParts": [],
          "nonCritParts": []
        },
        "attackParts": [],
        "formulaicAttacks": {
          "count": {
            "formula": ""
          },
          "bonus": {
            "formula": ""
          },
          "label": null
        },
        "formula": "",
        "ability": {
          "attack": null,
          "damage": null,
          "damageMult": 1,
          "critRange": 20,
          "critMult": 2
        },
        "save": {
          "dc": 0,
          "type": "",
          "description": ""
        },
        "effectNotes": [],
        "attackNotes": [],
        "soundEffect": "",
        "powerAttack": {
          "multiplier": "",
          "damageBonus": 2,
          "critMultiplier": 1
        },
        "naturalAttack": {
          "primaryAttack": true,
          "secondary": {
            "attackBonus": "-5",
            "damageMult": 0.5
          }
        },
        "nonlethal": false,
        "usesAmmo": false,
        "spellEffect": "",
        "spellArea": "",
        "conditionals": [],
        "enh": {
          "value": null
        }
      }
    ],
    "uses": {
      "per": ""
    },
    "attackNotes": [],
    "effectNotes": [],
    "changes": [],
    "contextNotes": [],
    "links": {
      "children": [],
      "charges": []
    },
    "tag": "classFeat_masterVampireHunter",
    "useCustomTag": true,
    "armorProf": {
      "value": []
    },
    "weaponProf": {
      "value": []
    },
    "languages": {
      "value": []
    },
    "scriptCalls": [],
    "subType": "classFeat",
    "associations": {
      "classes": [["Vampire Hunter"]]
    },
    "abilityType": "ex"
  }
}
