{
  "_id": "OSBiwh2FHF3SLlw0",
  "name": "Mesmerizing Elementalist",
  "type": "feat",
  "img": "systems/pf1/icons/spells/runes-blue-1.jpg",
  "sort": 0,
  "flags": {},
  "system": {
    "description": {
      "value": "<p><strong>Element&nbsp;</strong>universal;&nbsp;<strong>Type&nbsp;</strong>utility (Su);&nbsp;<strong>Level&nbsp;</strong>1;&nbsp;<strong>Burn&nbsp;</strong>0<br><strong>Prerequisite&nbsp;</strong><a href=\"https://aonprd.com/RacesDisplay.aspx?ItemName=Nagaji\">nagaji</a></p>\n<p>You gain the hypnotic gaze nagaji alternate racial trait. If you already have this trait, add +1 to the trait’s save DC instead. You can use the hypnotic gaze racial trait by accepting 1 point of burn, even if you have no daily uses of that racial trait remaining.</p>"
    },
    "tags": [],
    "actions": [],
    "attackNotes": [],
    "effectNotes": [],
    "changes": [],
    "contextNotes": [],
    "links": {
      "children": [],
      "charges": []
    },
    "tag": "classFeat_mesmerizingElementalist",
    "useCustomTag": true,
    "armorProf": {
      "value": []
    },
    "weaponProf": {
      "value": []
    },
    "languages": {
      "value": []
    },
    "scriptCalls": [],
    "subType": "classFeat",
    "associations": {
      "classes": [["Kineticist"]]
    },
    "abilityType": "su"
  }
}
