{
  "_id": "YCV9dChTyFT0OI2J",
  "name": "Misdirection Mastery",
  "type": "feat",
  "img": "systems/pf1/icons/spells/light-royal-1.jpg",
  "sort": 0,
  "flags": {},
  "system": {
    "description": {
      "value": "<p>You gleefully evade attacks and confound foes with your capricious misdirection. You receive Misdirection Tactics as a bonus feat.</p>\n<p>At 10th level, you receive Misdirection Redirection as a bonus feat.</p>\n<p>At 15th level you receive Misdirection Attack as a bonus feat.</p>\n<p>You do not need to meet the prerequisites to receive these feats.</p>\n<p>You must be at least 3rd level to select this revelation.</p>"
    },
    "tags": [],
    "actions": [],
    "attackNotes": [],
    "effectNotes": [],
    "changes": [],
    "contextNotes": [],
    "links": {
      "children": [],
      "charges": []
    },
    "tag": "classFeat_misdirectionMastery",
    "useCustomTag": true,
    "armorProf": {
      "value": []
    },
    "weaponProf": {
      "value": []
    },
    "languages": {
      "value": []
    },
    "scriptCalls": [],
    "subType": "classFeat",
    "associations": {
      "classes": [["Oracle"]]
    },
    "abilityType": "su"
  }
}
