{
  "_id": "tTSab5kJrV07P5QU",
  "name": "Molten Wings",
  "type": "feat",
  "img": "systems/pf1/icons/skills/red_05.jpg",
  "sort": 0,
  "flags": {},
  "system": {
    "description": {
      "value": "<p>At 12th level, when entering a bloodrage you can choose to have wings of flame sprout from your back, giving you a fly speed of 60 feet with average maneuverability.</p>\n<p>At 16th level, your fly speed increases to 80 feet with good maneuverability.</p>"
    },
    "tags": [],
    "actions": [],
    "attackNotes": [],
    "effectNotes": [],
    "changes": [],
    "contextNotes": [],
    "links": {
      "children": [],
      "charges": []
    },
    "tag": "classFeat_moltenWings",
    "useCustomTag": true,
    "armorProf": {
      "value": []
    },
    "weaponProf": {
      "value": []
    },
    "languages": {
      "value": []
    },
    "scriptCalls": [],
    "subType": "classFeat",
    "associations": {
      "classes": [["Bloodrager"]]
    },
    "abilityType": "su"
  }
}
