{
  "_id": "Gd6OEMdAlNz4dwIt",
  "name": "Nanite Strike",
  "type": "feat",
  "img": "systems/pf1/icons/skills/violet_24.jpg",
  "sort": 0,
  "flags": {},
  "system": {
    "description": {
      "value": "<p>At 1st level as a&nbsp;<em>free action</em>, you can cause nanites to flow from your body and coat the striking end of any manufactured melee weapon you wield. When you hit with a melee attack using this weapon, some of the nanites infect the blood of the victim (Poison—injury;&nbsp;save&nbsp;<em>Fort</em>&nbsp;DC 10 + 1/2 your&nbsp;<em>sorcerer</em>&nbsp;level + your&nbsp;<em>Con</em>&nbsp;modifier;&nbsp;frequency&nbsp;1/round for 6 rounds;&nbsp;effect&nbsp;1&nbsp;<em>Str</em>&nbsp;damage;&nbsp;cure&nbsp;1 save).</p>\n<p>At 5th level, weapons you use with this ability are treated as magical for the purposes of overcoming&nbsp;<em>DR</em>, and the&nbsp;<em>poison</em>&nbsp;also deals 1 point of&nbsp;<em>Constitution damage</em>. At 7th level, the damage increases to 1d2 points of&nbsp;<em>Constitution damage</em>&nbsp;and 1d2 points of&nbsp;<em>Strength damage</em>. At 11th level, the cure becomes two successful saves.</p>\n<p>You can use this ability for a number of rounds per day equal to 3 + your&nbsp;<em>Charisma</em>&nbsp;modifier; these rounds need not be consecutive.</p>"
    },
    "tags": [],
    "actions": [
      {
        "_id": "xrvxafbdb8v7r4ai",
        "name": "Use",
        "img": "systems/pf1/icons/skills/violet_24.jpg",
        "description": "",
        "tag": "",
        "activation": {
          "cost": 1,
          "type": "free"
        },
        "unchainedAction": {
          "activation": {
            "cost": 1,
            "type": "free"
          }
        },
        "duration": {
          "value": null,
          "units": "inst"
        },
        "target": {
          "value": "held weapon"
        },
        "range": {
          "value": null,
          "units": "touch",
          "maxIncrements": 1,
          "minValue": null,
          "minUnits": ""
        },
        "uses": {
          "autoDeductChargesCost": "",
          "self": {
            "value": 0,
            "maxFormula": "",
            "per": null
          },
          "per": "day",
          "value": 0,
          "maxFormula": "3 + @abilities.cha.mod"
        },
        "measureTemplate": {
          "type": "",
          "size": "0",
          "overrideColor": false,
          "customColor": "",
          "overrideTexture": false,
          "customTexture": ""
        },
        "attackName": "",
        "actionType": "",
        "attackBonus": "",
        "critConfirmBonus": "",
        "damage": {
          "parts": [],
          "critParts": [],
          "nonCritParts": []
        },
        "attackParts": [],
        "formulaicAttacks": {
          "count": {
            "formula": ""
          },
          "bonus": {
            "formula": ""
          },
          "label": null
        },
        "formula": "",
        "ability": {
          "attack": null,
          "damage": null,
          "damageMult": 1,
          "critRange": 20,
          "critMult": 2
        },
        "save": {
          "dc": 0,
          "type": "",
          "description": ""
        },
        "effectNotes": [],
        "attackNotes": [],
        "soundEffect": "",
        "powerAttack": {
          "multiplier": "",
          "damageBonus": 2,
          "critMultiplier": 1
        },
        "naturalAttack": {
          "primaryAttack": true,
          "secondary": {
            "attackBonus": "-5",
            "damageMult": 0.5
          }
        },
        "nonlethal": false,
        "usesAmmo": false,
        "spellEffect": "",
        "spellArea": "",
        "conditionals": [],
        "enh": {
          "value": null
        }
      }
    ],
    "uses": {
      "per": "day",
      "maxFormula": "3 + @abilities.cha.mod"
    },
    "attackNotes": [],
    "effectNotes": [],
    "changes": [],
    "contextNotes": [],
    "links": {
      "children": [],
      "charges": []
    },
    "tag": "classFeat_naniteStrike",
    "useCustomTag": true,
    "armorProf": {
      "value": []
    },
    "weaponProf": {
      "value": []
    },
    "languages": {
      "value": []
    },
    "scriptCalls": [],
    "subType": "classFeat",
    "associations": {
      "classes": [["Sorcerer"]]
    },
    "abilityType": "ex"
  }
}
