{
  "_id": "urXu5dQ1C5sxOnto",
  "name": "Nimble Climber (UC)",
  "type": "feat",
  "img": "systems/pf1/icons/items/weapons/hunga-munga.PNG",
  "sort": 0,
  "flags": {},
  "system": {
    "description": {
      "value": "<p>Whenever the rogue fails a Climb check by 5 or more, she can attempt a Reflex save (using the same DC as the Climb check) to catch herself and avoid falling.</p>"
    },
    "tags": [],
    "actions": [],
    "attackNotes": [],
    "effectNotes": [],
    "changes": [],
    "contextNotes": [],
    "links": {
      "children": [],
      "charges": []
    },
    "tag": "classFeat_nimbleClimberUc",
    "useCustomTag": true,
    "armorProf": {
      "value": []
    },
    "weaponProf": {
      "value": []
    },
    "languages": {
      "value": []
    },
    "scriptCalls": [],
    "subType": "classFeat",
    "associations": {
      "classes": [["Rogue (Unchained)"]]
    },
    "abilityType": "ex"
  }
}
