{
  "_id": "6Cb9VX1z3dcEXzxD",
  "name": "Nine-Tailed Kineticist",
  "type": "feat",
  "img": "systems/pf1/icons/spells/runes-blue-1.jpg",
  "sort": 0,
  "flags": {},
  "system": {
    "description": {
      "value": "<p><strong>Element&nbsp;</strong>universal;&nbsp;<strong>Type&nbsp;</strong>utility (Su);&nbsp;<strong>Level&nbsp;</strong>1;&nbsp;<strong>Burn&nbsp;</strong>0<br><strong>Prerequisite&nbsp;</strong><a href=\"https://aonprd.com/RacesDisplay.aspx?ItemName=Kitsune\">kitsune</a></p>\n<p>You can cast a spell-like ability granted to you by any&nbsp;<a href=\"https://aonprd.com/FeatDisplay.aspx?ItemName=Magical%20Tail\">Magical Tail</a>&nbsp;feat you have by accepting 1 point of burn, even if you have no daily uses of that spell-like ability remaining. You must be able to use wild talents of a level equal to the number of extra tails required to use a spell-like ability granted by a&nbsp;<a href=\"https://aonprd.com/FeatDisplay.aspx?ItemName=Magical%20Tail\">Magic Tail</a>&nbsp;feat to use this ability to cast that spell-like ability (for example, you would need to be 15th level and able to use 8th-level wild talents to use this talent to cast the&nbsp;<a href=\"https://aonprd.com/SpellDisplay.aspx?ItemName=\">dominate person</a>&nbsp;spell-like ability granted by&nbsp;<a href=\"https://aonprd.com/FeatDisplay.aspx?ItemName=Magical%20Tail\">Magical Tail</a>).</p>\n<p>In addition, you can learn a&nbsp;<a href=\"https://aonprd.com/FeatDisplay.aspx?ItemName=Magical%20Tail\">Magical Tail</a>&nbsp;feat that you qualify for in place of gaining a new infusion or utility wild talent.</p>"
    },
    "tags": [],
    "actions": [],
    "attackNotes": [],
    "effectNotes": [],
    "changes": [],
    "contextNotes": [],
    "links": {
      "children": [],
      "charges": []
    },
    "tag": "classFeat_ninetailedKineticist",
    "useCustomTag": true,
    "armorProf": {
      "value": []
    },
    "weaponProf": {
      "value": []
    },
    "languages": {
      "value": []
    },
    "scriptCalls": [],
    "subType": "classFeat",
    "associations": {
      "classes": [["Kineticist"]]
    },
    "abilityType": "su"
  }
}
