{
  "_id": "uFSLnLZkYJycxB6b",
  "name": "Oceans Subdomain",
  "type": "feat",
  "img": "systems/pf1/icons/skills/blue_15.jpg",
  "sort": 0,
  "flags": {},
  "system": {
    "description": {
      "value": "<p><strong>Replacement Domain Spells:</strong></p>\n<ul>\n<li>2nd—@Compendium[pf1.spells.7fvsn0gbv6ynlp63]{Slipstream}</li>\n<li>3rd—@Compendium[pf1.spells.g2obld7y0lpyztes]{Water Walk}</li>\n<li>9th—@Compendium[pf1.spells.ltda70etgwje43x6]{Tsunami}</li>\n</ul>"
    },
    "tags": [],
    "actions": [],
    "attackNotes": [],
    "effectNotes": [],
    "changes": [],
    "contextNotes": [],
    "links": {
      "children": [],
      "charges": []
    },
    "tag": "classFeat_oceansSubdomain",
    "useCustomTag": true,
    "armorProf": {
      "value": []
    },
    "weaponProf": {
      "value": []
    },
    "languages": {
      "value": []
    },
    "scriptCalls": [],
    "subType": "classFeat",
    "associations": {
      "classes": [["Cleric"]]
    }
  }
}
