{
  "_id": "vjfnMvzcTIly7h4Z",
  "name": "Owl Aspect",
  "type": "feat",
  "img": "systems/pf1/icons/skills/blue_29.jpg",
  "sort": 0,
  "flags": {},
  "system": {
    "description": {
      "value": "<p><em>The aspect of the owl is one of silence. This predator glides through the night unheard, a master of stealthy attacks.</em><br><br><strong>Minor Form: </strong>You gain a +4 competence bonus on Stealth checks.</p>\n<p>This bonus increases to +6 at 8th level and +8 at 15th level.<br><br><strong>Major Form:</strong> Your shape changes to that of a Medium owl (see page 181). While in this form, you gain a base speed of 30 feet, a fly speed of 60 feet (average), two talon attacks (1d6 damage), darkvision with a range of 60 feet, and a +2 racial bonus on Stealth checks.</p>\n<p>At 8th level, you gain Flyby Attack (Bestiary&nbsp;315) as a bonus feat, and the range of your darkvision increases to 120 feet.</p>\n<p>At 15th level, you can take the form of a Large owl and gain the benefits of the Snatch feat (Bestiary&nbsp;316), but you can use it only to grab a creature at least one size category smaller than yourself, and you can squeeze a creature grappled with this ability no matter what size it is.<br><br><strong>Alternate Natural Attacks:</strong> Bite (B, P, S), talons (S)</p>"
    },
    "tags": [],
    "actions": [],
    "attackNotes": [],
    "effectNotes": [],
    "changes": [],
    "contextNotes": [],
    "links": {
      "children": [],
      "charges": []
    },
    "tag": "classFeat_owlAspect",
    "useCustomTag": true,
    "armorProf": {
      "value": []
    },
    "weaponProf": {
      "value": []
    },
    "languages": {
      "value": []
    },
    "scriptCalls": [],
    "subType": "classFeat",
    "associations": {
      "classes": [["Shifter"]]
    }
  }
}
