{
  "_id": "ER2tTsoeC0AWtRYn",
  "name": "Portal Subdomain",
  "type": "feat",
  "img": "systems/pf1/icons/spells/runes-magenta-2.jpg",
  "sort": 0,
  "flags": {},
  "system": {
    "description": {
      "value": "<p><strong>Replacement Domain Spells:</strong></p>\n<ul>\n<li>1st—@Compendium[pf1.spells.jve8s6ut5yp4hht3]{Open And Shut}</li>\n<li>2nd—@Compendium[pf1.spells.2o9tacbz7tbrlhvv]{Knock}</li>\n<li>3rd—@Compendium[pf1.spells.v1nropy1tvj0476l]{Urban Step}</li>\n<li>9th—@Compendium[pf1.spells.if867t28tu6zxaei]{Teleportation Circle}</li>\n</ul>"
    },
    "tags": [],
    "actions": [],
    "attackNotes": [],
    "effectNotes": [],
    "changes": [],
    "contextNotes": [],
    "links": {
      "children": [],
      "charges": []
    },
    "tag": "classFeat_portalSubdomain",
    "useCustomTag": true,
    "armorProf": {
      "value": []
    },
    "weaponProf": {
      "value": []
    },
    "languages": {
      "value": []
    },
    "scriptCalls": [],
    "subType": "classFeat",
    "associations": {
      "classes": [["Cleric"]]
    }
  }
}
