{
  "_id": "sRkGFqJGumBoP8pD",
  "name": "Qinggong Power (UC)",
  "type": "feat",
  "img": "systems/pf1/icons/skills/fire_07.jpg",
  "sort": 0,
  "flags": {},
  "system": {
    "description": {
      "value": "<p>A monk with this power selects any of the qinggong monk ki powers (Pathfinder RPG Ultimate Magic&nbsp;51) for which he qualifies based on his monk level.</p>\n<p>A monk can select this ability multiple times.&nbsp;Each time, he must select a different qinggong monk ki power.</p>"
    },
    "tags": [],
    "actions": [],
    "attackNotes": [],
    "effectNotes": [],
    "changes": [],
    "contextNotes": [],
    "links": {
      "children": [],
      "charges": []
    },
    "tag": "classFeat_qinggongPowerUc",
    "useCustomTag": true,
    "armorProf": {
      "value": []
    },
    "weaponProf": {
      "value": []
    },
    "languages": {
      "value": []
    },
    "scriptCalls": [],
    "subType": "classFeat",
    "associations": {
      "classes": [["Monk (Unchained)"]]
    }
  }
}
