{
  "_id": "bbRKMxSN5GervfJA",
  "name": "Reaping Stalker",
  "type": "feat",
  "img": "systems/pf1/icons/items/weapons/rhoka.PNG",
  "sort": 0,
  "flags": {},
  "system": {
    "description": {
      "value": "<p>Some slayers prefer weapons with grim symbolism of lives cut short and can wield such weapons with unparalleled lethality. A slayer with this talent treats any sickle or scythe he wields as though it were one size larger for the purpose of determining its damage dice. In addition, the slayer increases the critical threat range of any sickle or scythe he wields by 1; this does not stack with other effects that alter a weapon’s threat range.</p>"
    },
    "tags": [],
    "actions": [],
    "attackNotes": [],
    "effectNotes": [],
    "changes": [],
    "contextNotes": [],
    "links": {
      "children": [],
      "charges": []
    },
    "tag": "classFeat_reapingStalker",
    "useCustomTag": true,
    "armorProf": {
      "value": []
    },
    "weaponProf": {
      "value": []
    },
    "languages": {
      "value": []
    },
    "scriptCalls": [],
    "subType": "classFeat",
    "associations": {
      "classes": [["Slayer"]]
    },
    "abilityType": "ex"
  }
}
