{
  "_id": "u1oLcic7kX8HvmCT",
  "name": "Revenge",
  "type": "feat",
  "img": "systems/pf1/icons/feats/improved-familiar.jpg",
  "sort": 0,
  "flags": {},
  "system": {
    "description": {
      "value": "<ul>\n<li>2nd — @Compendium[pf1.spells.cfzk3vkv1c7ncaug]{Magic Fang}</li>\n<li>4th — @Compendium[pf1.spells.7fvsn0gbv6ynlp63]{Slipstream}</li>\n<li>6th — @Compendium[pf1.spells.8u1xa5javcxc6szk]{Rage}</li>\n<li>8th — @Compendium[pf1.spells.2mh7g81k30bv7b5m]{Moonstruck}</li>\n<li>10th — @Compendium[pf1.spells.w88ddxpu89qcr5c0]{Beast Shape III}</li>\n<li>12th — @Compendium[pf1.spells.suilv5ug3tvbwuh2]{Vengeful Outrage}</li>\n<li>14th — @Compendium[pf1.spells.6jz03m4lryndt0kd]{Phantasmal Revenge}</li>\n<li>16th — @Compendium[pf1.spells.o4rwtizvdj7216qd]{Seamantle}</li>\n<li>18th — @Compendium[pf1.spells.n4e35m6qu9nmkhgm]{Storm Of Vengeance}</li>\n</ul>"
    },
    "tags": [],
    "actions": [],
    "attackNotes": [],
    "effectNotes": [],
    "changes": [],
    "contextNotes": [],
    "links": {
      "children": [],
      "charges": []
    },
    "tag": "classFeat_revenge",
    "useCustomTag": true,
    "armorProf": {
      "value": []
    },
    "weaponProf": {
      "value": []
    },
    "languages": {
      "value": []
    },
    "scriptCalls": [],
    "subType": "classFeat",
    "associations": {
      "classes": [["Witch"]]
    }
  }
}
