{
  "_id": "nAyAJFo8bHY2Vcdo",
  "name": "Sand Bomb",
  "type": "feat",
  "img": "systems/pf1/icons/items/potions/unique-3.jpg",
  "sort": 0,
  "flags": {},
  "system": {
    "description": {
      "value": "<p>When the alchemist creates a bomb, he can pack the casing full of sand that explodes in an abrasive cloud on impact. A creature that takes a direct hit from a sand bomb is blinded for 1 round, as are any creatures in the splash radius that fail a Reflex save (DC = 10 + half the alchemist’s level + his Intelligence modifier).</p>"
    },
    "tags": [],
    "actions": [],
    "attackNotes": [],
    "effectNotes": [],
    "changes": [],
    "contextNotes": [],
    "links": {
      "children": [],
      "charges": []
    },
    "tag": "classFeat_sandBomb",
    "useCustomTag": true,
    "armorProf": {
      "value": []
    },
    "weaponProf": {
      "value": []
    },
    "languages": {
      "value": []
    },
    "scriptCalls": [],
    "subType": "classFeat",
    "associations": {
      "classes": [["Alchemist"]]
    },
    "abilityType": "su"
  }
}
