{
  "_id": "NzwoSidXhKfytzPu",
  "name": "Shape Mastery",
  "type": "feat",
  "img": "systems/pf1/icons/items/weapons/lantern-staff.png",
  "sort": 0,
  "flags": {},
  "system": {
    "description": {
      "value": "<p>As part of casting an evocation spell with an area of effect, you can expend a number of points of mental focus up to your Intelligence modifier to exclude an equal number of squares from the area.</p>"
    },
    "tags": [],
    "actions": [],
    "attackNotes": [],
    "effectNotes": [],
    "changes": [],
    "contextNotes": [],
    "links": {
      "children": [],
      "charges": []
    },
    "tag": "classFeat_shapeMastery",
    "useCustomTag": true,
    "armorProf": {
      "value": []
    },
    "weaponProf": {
      "value": []
    },
    "languages": {
      "value": []
    },
    "scriptCalls": [],
    "subType": "classFeat",
    "associations": {
      "classes": [["Occultist"]]
    },
    "abilityType": "su"
  }
}
