{
  "_id": "2kXtnSTsq8wzRAOu",
  "name": "Silent Magic",
  "type": "feat",
  "img": "systems/pf1/icons/spells/enchant-red-3.jpg",
  "sort": 0,
  "flags": {},
  "system": {
    "description": {
      "value": "<p>The magus can cast one spell per day as if it were modified by the @Compendium[pf1.feats.2YuxcUNFMPNBpekG]{Silent Spell} feat. This does not increase the casting time or the level of the spell.</p>"
    },
    "tags": [],
    "actions": [],
    "attackNotes": [],
    "effectNotes": [],
    "changes": [],
    "contextNotes": [],
    "links": {
      "children": [],
      "charges": []
    },
    "tag": "classFeat_silentMagic",
    "useCustomTag": true,
    "armorProf": {
      "value": []
    },
    "weaponProf": {
      "value": []
    },
    "languages": {
      "value": []
    },
    "scriptCalls": [],
    "subType": "classFeat",
    "associations": {
      "classes": [["Magus"]]
    },
    "abilityType": "su"
  }
}
