{
  "_id": "SCBuJsidD5lTE7Px",
  "name": "Spirit Totem",
  "type": "feat",
  "img": "systems/pf1/icons/feats/deafening-critical.jpg",
  "sort": 0,
  "flags": {},
  "system": {
    "description": {
      "value": "<p>While raging, the spirits that surround the barbarian make it difficult for her enemies to see her. The spirits grant the barbarian a 20% miss chance against ranged attacks and melee attacks made by creatures that are not adjacent to the barbarian (typically due to reach).</p>\n<p>A barbarian must have the lesser spirit totem rage power to select this rage power.</p>\n<p>A barbarian must be at least 6th level to select this rage power.</p>"
    },
    "tags": [],
    "actions": [],
    "attackNotes": [],
    "effectNotes": [],
    "changes": [],
    "contextNotes": [],
    "links": {
      "children": [],
      "charges": []
    },
    "tag": "classFeat_spiritTotem",
    "useCustomTag": true,
    "armorProf": {
      "value": []
    },
    "weaponProf": {
      "value": []
    },
    "languages": {
      "value": []
    },
    "scriptCalls": [],
    "subType": "classFeat",
    "associations": {
      "classes": [["Barbarian"], ["Skald"]]
    },
    "abilityType": "su"
  }
}
