{
  "_id": "U4P7uFtZwlQn7X8i",
  "name": "Symbiosis Discipline",
  "type": "feat",
  "img": "systems/pf1/icons/spells/slice-spirit-3.jpg",
  "sort": 0,
  "flags": {},
  "system": {
    "description": {
      "value": "<p>Like pollen on the wind or the roots of plants in the ground, your thoughts permeate your surroundings, allowing you to study and manipulate the world around you.<br><br><strong>Phrenic Pool Ability:</strong> Charisma<br><br><strong>Bonus Spells:</strong>&nbsp;</p>\n<ul>\n<li>@Compendium[pf1.spells.zkvylzsupqboef0z]{Hide from Animals} (1st),&nbsp;</li>\n<li>@Compendium[pf1.spells.yyzf346hiq8ixt0u]{Hold Animal} (4th),&nbsp;</li>\n<li>@Compendium[pf1.spells.io2yjhr42chvcfb4]{Dominate Animal} (6th),&nbsp;</li>\n<li>@Compendium[pf1.spells.wi9uvm8p12qvq616]{Command Plants} (8th),&nbsp;</li>\n<li>@Compendium[pf1.spells.h9qiwo9kx8d1hqrn]{Awaken} (10th),&nbsp;</li>\n<li>@Compendium[pf1.spells.ed0epy1pofukpgm6]{Liveoak} (12th),&nbsp;</li>\n<li>@Compendium[pf1.spells.glt6uk3n6g6l2p6l]{Scrying, Greater} (14th),&nbsp;</li>\n<li>@Compendium[pf1.spells.szzwom7utm3sm15z]{Control Plants} (16th),&nbsp;</li>\n<li>@Compendium[pf1.spells.66s5qm8kwycgobce]{Dominate Monster} (18th).</li>\n</ul>"
    },
    "tags": [],
    "actions": [],
    "attackNotes": [],
    "effectNotes": [],
    "changes": [],
    "contextNotes": [],
    "links": {
      "children": [],
      "charges": []
    },
    "tag": "classFeat_symbiosisDiscipline",
    "useCustomTag": true,
    "armorProf": {
      "value": []
    },
    "weaponProf": {
      "value": []
    },
    "languages": {
      "value": []
    },
    "scriptCalls": [],
    "subType": "classFeat",
    "associations": {
      "classes": [["Psychic"]]
    }
  }
}
