{
  "_id": "VRM7wXzRefYlLAz0",
  "name": "Synaptic Shock",
  "type": "feat",
  "img": "systems/pf1/icons/spells/shielding-spirit-2.jpg",
  "sort": 0,
  "flags": {},
  "system": {
    "description": {
      "value": "<p>The psychic manipulates an enemy’s mind with brute force, causing mental harm beyond that done by her linked spell. She can spend 1 point from her phrenic pool when casting a mind-affecting linked spell to select one of the spell’s targets. If the target is affected by the linked spell, that target is confused for 1 round after the duration of the spell expires (or immediately, if the spell has an instantaneous duration). If the target succeeds at its save against the linked spell, it is instead confused for 1 round immediately.</p>\n<p>For each additional point the psychic spends from her phrenic pool, she can confuse one additional target of the linked spell. This amplification can be applied only to a mind-affecting spell that can affect a number of targets or that has an area. It has no effect on creatures that are immune to mind-affecting effects, unless the linked spell is able to affect such creatures (such as a spell that has both will of the dead and synaptic shock applied to it via dual amplification).</p>"
    },
    "tags": [],
    "actions": [
      {
        "_id": "ptw630s6vehij856",
        "name": "Use",
        "img": "systems/pf1/icons/spells/shielding-spirit-2.jpg",
        "description": "",
        "tag": "",
        "activation": {
          "cost": 1,
          "type": "free"
        },
        "unchainedAction": {
          "activation": {
            "cost": 1,
            "type": "free"
          }
        },
        "duration": {
          "value": null,
          "units": ""
        },
        "target": {
          "value": ""
        },
        "range": {
          "value": null,
          "units": "",
          "maxIncrements": 1,
          "minValue": null,
          "minUnits": ""
        },
        "uses": {
          "autoDeductChargesCost": "",
          "self": {
            "value": 0,
            "maxFormula": "",
            "per": null
          },
          "per": "",
          "value": 0,
          "maxFormula": ""
        },
        "measureTemplate": {
          "type": "",
          "size": "",
          "overrideColor": false,
          "customColor": "",
          "overrideTexture": false,
          "customTexture": ""
        },
        "attackName": "",
        "actionType": "",
        "attackBonus": "",
        "critConfirmBonus": "",
        "damage": {
          "parts": [],
          "critParts": [],
          "nonCritParts": []
        },
        "attackParts": [],
        "formulaicAttacks": {
          "count": {
            "formula": ""
          },
          "bonus": {
            "formula": ""
          },
          "label": null
        },
        "formula": "",
        "ability": {
          "attack": null,
          "damage": null,
          "damageMult": 1,
          "critRange": 20,
          "critMult": 2
        },
        "save": {
          "dc": 0,
          "type": "",
          "description": ""
        },
        "effectNotes": [],
        "attackNotes": [],
        "soundEffect": "",
        "powerAttack": {
          "multiplier": "",
          "damageBonus": 2,
          "critMultiplier": 1
        },
        "naturalAttack": {
          "primaryAttack": true,
          "secondary": {
            "attackBonus": "-5",
            "damageMult": 0.5
          }
        },
        "nonlethal": false,
        "usesAmmo": false,
        "spellEffect": "",
        "spellArea": "",
        "conditionals": [],
        "enh": {
          "value": null
        }
      }
    ],
    "uses": {
      "per": ""
    },
    "attackNotes": [],
    "effectNotes": [],
    "changes": [],
    "contextNotes": [],
    "links": {
      "children": [],
      "charges": []
    },
    "tag": "classFeat_synapticShock",
    "useCustomTag": true,
    "armorProf": {
      "value": []
    },
    "weaponProf": {
      "value": []
    },
    "languages": {
      "value": []
    },
    "scriptCalls": [],
    "subType": "classFeat",
    "associations": {
      "classes": [["Psychic"]]
    },
    "abilityType": "su"
  }
}
