{
  "_id": "Ukhp0Q9AsUPtZdA8",
  "name": "Tentacle (UC) (1 pt)",
  "type": "feat",
  "img": "systems/pf1/icons/skills/blue_26.jpg",
  "sort": 0,
  "flags": {},
  "system": {
    "description": {
      "value": "<p><strong>Requirements: </strong>Daemon, demon, or protean subtype.</p>\n<p>The eidolon possesses a long, sinuous tentacle, granting it a tentacle attack. This attack is a secondary attack. The tentacle attack deals 1d4 points of damage (1d6 if Large, 1d8 if Huge).</p>\n<p>This evolution can be selected more than once.&nbsp;</p>"
    },
    "tags": [],
    "actions": [],
    "attackNotes": [],
    "effectNotes": [],
    "changes": [],
    "contextNotes": [],
    "links": {
      "children": [],
      "charges": []
    },
    "tag": "classFeat_tentacleUc1Pt",
    "useCustomTag": true,
    "armorProf": {
      "value": []
    },
    "weaponProf": {
      "value": []
    },
    "languages": {
      "value": []
    },
    "scriptCalls": [],
    "subType": "classFeat",
    "associations": {
      "classes": [["Eidolon (Unchained)"]]
    },
    "abilityType": "ex"
  }
}
