{
  "_id": "q2UgWVyTQzXuTtEr",
  "name": "Trip (UC) (2 pts)",
  "type": "feat",
  "img": "systems/pf1/icons/skills/blue_26.jpg",
  "sort": 0,
  "flags": {},
  "system": {
    "description": {
      "value": "<p><strong>Requirements: </strong>Daemon, demon, devil, elemental, or protean subtype; bite evolution.</p>\n<p>The eidolon becomes adept at knocking foes to the ground with its bite, granting it a trip attack. Whenever the eidolon makes a successful bite attack, it can attempt a free combat maneuver check. If the eidolon succeeds at this check, the target is knocked prone. If the eidolon fails, it is not tripped in return.</p>\n<p>This ability works only on creatures of a size category equal to or smaller than the eidolon.&nbsp;</p>"
    },
    "tags": [],
    "actions": [],
    "attackNotes": [],
    "effectNotes": [],
    "changes": [],
    "contextNotes": [],
    "links": {
      "children": [],
      "charges": []
    },
    "tag": "classFeat_tripUc2Pts",
    "useCustomTag": true,
    "armorProf": {
      "value": []
    },
    "weaponProf": {
      "value": []
    },
    "languages": {
      "value": []
    },
    "scriptCalls": [],
    "subType": "classFeat",
    "associations": {
      "classes": [["Eidolon (Unchained)"]]
    },
    "abilityType": "ex"
  }
}
