{
  "_id": "alhyRkYFK18qGYxo",
  "name": "True Shapechanger",
  "type": "feat",
  "img": "systems/pf1/icons/skills/red_05.jpg",
  "sort": 0,
  "flags": {},
  "system": {
    "description": {
      "value": "<p>At 20th level, you are immune to all transmutation spells and effects unless you are a willing target. You can also use @Compendium[pf1.spells.t44p3oeq43jwcgwg]{Polymorph, Greater}&nbsp;at will as a spell-like ability with a caster level equal to your bloodrager level targeting only yourself. These effects function even while you’re not bloodraging.</p>"
    },
    "tags": [],
    "actions": [],
    "attackNotes": [],
    "effectNotes": [],
    "changes": [],
    "contextNotes": [],
    "links": {
      "children": [],
      "charges": []
    },
    "tag": "classFeat_trueShapechanger",
    "useCustomTag": true,
    "armorProf": {
      "value": []
    },
    "weaponProf": {
      "value": []
    },
    "languages": {
      "value": []
    },
    "scriptCalls": [],
    "subType": "classFeat",
    "associations": {
      "classes": [["Bloodrager"]]
    },
    "abilityType": "su"
  }
}
