{
  "_id": "7WaQxnVaaoL4AGr8",
  "name": "Uncanny Dodge",
  "type": "feat",
  "img": "systems/pf1/icons/feats/wind-stance.jpg",
  "sort": 0,
  "flags": {},
  "system": {
    "description": {
      "value": "<p>This character gains the ability to react to danger before her senses would normally allow her to do so. She cannot be caught <em>flat-footed</em>, nor does she lose her&nbsp;<em>Dex</em>&nbsp;bonus to AC if the attacker is invisible. She still loses her&nbsp;<em>Dexterity</em>&nbsp;bonus to&nbsp;<em>armor class</em> if immobilized. A character with this ability can still lose her <em>Dexterity</em>&nbsp;bonus to&nbsp;<em>armor class</em>&nbsp;if an opponent successfully uses the feint action against her.</p>\n<p>If a character already has <em>uncanny dodge</em>&nbsp;from a different class, she automatically gains&nbsp;<em>improved uncanny dodge</em>&nbsp;(see below) instead.</p>"
    },
    "tags": [],
    "actions": [
      {
        "_id": "k3e9rgfallg2lq1f",
        "name": "Use",
        "img": "systems/pf1/icons/feats/wind-stance.jpg",
        "description": "",
        "tag": "",
        "activation": {
          "cost": 1,
          "type": "passive"
        },
        "unchainedAction": {
          "activation": {
            "cost": 1,
            "type": "passive"
          }
        },
        "duration": {
          "value": null,
          "units": ""
        },
        "target": {
          "value": ""
        },
        "range": {
          "value": null,
          "units": "",
          "maxIncrements": 1,
          "minValue": null,
          "minUnits": ""
        },
        "uses": {
          "autoDeductChargesCost": "",
          "self": {
            "value": 0,
            "maxFormula": "",
            "per": null
          },
          "per": "",
          "value": 0,
          "maxFormula": ""
        },
        "measureTemplate": {
          "type": "",
          "size": "0",
          "overrideColor": false,
          "customColor": "",
          "overrideTexture": false,
          "customTexture": ""
        },
        "attackName": "",
        "actionType": "",
        "attackBonus": "",
        "critConfirmBonus": "",
        "damage": {
          "parts": [],
          "critParts": [],
          "nonCritParts": []
        },
        "attackParts": [],
        "formulaicAttacks": {
          "count": {
            "formula": ""
          },
          "bonus": {
            "formula": ""
          },
          "label": null
        },
        "formula": "",
        "ability": {
          "attack": null,
          "damage": null,
          "damageMult": 1,
          "critRange": 20,
          "critMult": 2
        },
        "save": {
          "dc": 0,
          "type": "",
          "description": ""
        },
        "effectNotes": [],
        "attackNotes": [],
        "soundEffect": "",
        "powerAttack": {
          "multiplier": "",
          "damageBonus": 2,
          "critMultiplier": 1
        },
        "naturalAttack": {
          "primaryAttack": true,
          "secondary": {
            "attackBonus": "-5",
            "damageMult": 0.5
          }
        },
        "nonlethal": false,
        "usesAmmo": false,
        "spellEffect": "",
        "spellArea": "",
        "conditionals": [],
        "enh": {
          "value": null
        }
      }
    ],
    "uses": {
      "per": ""
    },
    "attackNotes": [],
    "effectNotes": [],
    "changes": [
      {
        "_id": "1yiag0iu",
        "formula": "@abilities.dex.maxBonus",
        "operator": "add",
        "subTarget": "ffac",
        "modifier": "untyped",
        "priority": 0,
        "value": 3
      },
      {
        "_id": "ub84g9h5",
        "formula": "@abilities.dex.maxBonus",
        "operator": "add",
        "subTarget": "ffcmd",
        "modifier": "untyped",
        "priority": 0,
        "value": 3
      }
    ],
    "contextNotes": [],
    "links": {
      "children": [],
      "charges": []
    },
    "tag": "classFeat_uncannyDodge",
    "useCustomTag": true,
    "armorProf": {
      "value": []
    },
    "weaponProf": {
      "value": []
    },
    "languages": {
      "value": []
    },
    "scriptCalls": [],
    "subType": "classFeat",
    "associations": {
      "classes": [["Barbarian"]]
    },
    "abilityType": "ex"
  }
}
