{
  "_id": "GkqTpiSBrr6007kF",
  "name": "Undead Grip",
  "type": "feat",
  "img": "systems/pf1/icons/spells/rip-sky-1.jpg",
  "sort": 0,
  "flags": {},
  "system": {
    "description": {
      "value": "<p><strong>Element&nbsp;</strong>void;&nbsp;<strong>Type&nbsp;</strong>utility (Sp);&nbsp;<strong>Level&nbsp;</strong>3;&nbsp;Burn&nbsp;0<br><strong>Saving Throw&nbsp;</strong>Will negates;&nbsp;<strong>SR&nbsp;</strong>yes</p>\n<p>This functions as elemental grip, except it works on a single undead creature as per @Compendium[pf1.spells.f98kluovmjf6w7d5]{Halt Undead}. Unintelligent undead must succeed at a saving throw with a –4 penalty to negate the effects.</p>"
    },
    "tags": [],
    "actions": [],
    "attackNotes": [],
    "effectNotes": [],
    "changes": [],
    "contextNotes": [],
    "links": {
      "children": [],
      "charges": []
    },
    "tag": "classFeat_undeadGrip",
    "useCustomTag": true,
    "armorProf": {
      "value": []
    },
    "weaponProf": {
      "value": []
    },
    "languages": {
      "value": []
    },
    "scriptCalls": [],
    "subType": "classFeat",
    "associations": {
      "classes": [["Kineticist"]]
    },
    "abilityType": "sp"
  }
}
