{
  "_id": "1Y50zILq3PNKD49T",
  "name": "Unfolding Wind Infusion",
  "type": "feat",
  "img": "systems/pf1/icons/spells/wind-sky-3.jpg",
  "sort": 0,
  "flags": {},
  "system": {
    "description": {
      "value": "<p><strong>Element&nbsp;</strong>air;&nbsp;<strong>Type&nbsp;</strong>substance infusion;&nbsp;<strong>Level&nbsp;</strong>5;&nbsp;<strong>Burn&nbsp;</strong>3<br><strong>Prerequisite&nbsp;</strong>kinetic fist, member of the Monastery of Unfolding Wind<br><strong>Associated Blasts&nbsp;</strong>air, thunderstorm<br><strong>Saving Throw&nbsp;</strong>none</p>\n<p>Unfolding winds carry you along. Before your first attack and again after each unarmed strike with the infused blast, you can move 5 feet without provoking attacks of opportunity.</p>\n<p>You can use this infusion only while also using the kinetic fist form infusion.</p>"
    },
    "tags": [],
    "actions": [],
    "attackNotes": [],
    "effectNotes": [],
    "changes": [],
    "contextNotes": [],
    "links": {
      "children": [],
      "charges": []
    },
    "tag": "classFeat_unfoldingWindInfusion",
    "useCustomTag": true,
    "armorProf": {
      "value": []
    },
    "weaponProf": {
      "value": []
    },
    "languages": {
      "value": []
    },
    "scriptCalls": [],
    "subType": "classFeat",
    "associations": {
      "classes": [["Kineticist"]]
    }
  }
}
