{
  "_id": "dkcWJ80XYWvnM1h7",
  "name": "Venom Subdomain",
  "type": "feat",
  "img": "systems/pf1/icons/skills/violet_16.jpg",
  "sort": 0,
  "flags": {},
  "system": {
    "description": {
      "value": "<p><strong>Replacement Domain Spells:</strong></p>\n<ul>\n<li>2nd—@Compendium[pf1.spells.6gbb0vdil1e8mhou]{Pernicious Poison}</li>\n<li>6th—@Compendium[pf1.spells.im8z5kfg8ohowie9]{Cloudkill}</li>\n</ul>"
    },
    "tags": [],
    "actions": [],
    "attackNotes": [],
    "effectNotes": [],
    "changes": [],
    "contextNotes": [],
    "links": {
      "children": [],
      "charges": []
    },
    "tag": "classFeat_venomSubdomain",
    "useCustomTag": true,
    "armorProf": {
      "value": []
    },
    "weaponProf": {
      "value": []
    },
    "languages": {
      "value": []
    },
    "scriptCalls": [],
    "subType": "classFeat",
    "associations": {
      "classes": [["Cleric"]]
    }
  }
}
