{
  "_id": "mUuP0SayUtP05sBI",
  "name": "Vigilante's Reflexes",
  "type": "feat",
  "img": "systems/pf1/icons/feats/deceitful.jpg",
  "sort": 0,
  "flags": {},
  "system": {
    "description": {
      "value": "<p>The vigilante gains @Compendium[pf1.feats.h9nHYLxXvIXBTmup]{Combat Reflexes} as a bonus feat. If he already has the Combat Reflexes feat, he instead gains another feat he qualified for at the level when he chose Combat Reflexes.</p>\n<p>At 8th and 16th levels, the number of additional attacks of opportunity per round the vigilante can make increases by 1, regardless of the vigilante’s Dexterity bonus.</p>"
    },
    "tags": [],
    "actions": [],
    "attackNotes": [],
    "effectNotes": [],
    "changes": [],
    "contextNotes": [],
    "links": {
      "children": [],
      "charges": []
    },
    "tag": "classFeat_vigilantesReflexes",
    "useCustomTag": true,
    "armorProf": {
      "value": []
    },
    "weaponProf": {
      "value": []
    },
    "languages": {
      "value": []
    },
    "scriptCalls": [],
    "subType": "classFeat",
    "associations": {
      "classes": [["Vigilante"]]
    },
    "abilityType": "ex"
  }
}
