{
  "_id": "Jjo1BND4tvEJnO1I",
  "name": "Wind Subdomain",
  "type": "feat",
  "img": "systems/pf1/icons/spells/wind-sky-2.jpg",
  "sort": 0,
  "flags": {},
  "system": {
    "description": {
      "value": "<p><strong>Replacement Domain Spells:</strong></p>\n<ul>\n<li>1st—@Compendium[pf1.spells.v8czhud6wpmc9esu]{Whispering Wind}</li>\n<li>6th—@Compendium[pf1.spells.1mkigzpu5hohovgw]{Wind Walk}</li>\n<li>9th—@Compendium[pf1.spells.lun2gymejsmkjg4g]{Winds of Vengeance}.</li>\n</ul>"
    },
    "tags": [],
    "actions": [],
    "attackNotes": [],
    "effectNotes": [],
    "changes": [],
    "contextNotes": [],
    "links": {
      "children": [],
      "charges": []
    },
    "tag": "classFeat_windSubdomain",
    "useCustomTag": true,
    "armorProf": {
      "value": []
    },
    "weaponProf": {
      "value": []
    },
    "languages": {
      "value": []
    },
    "scriptCalls": [],
    "subType": "classFeat",
    "associations": {
      "classes": [["Cleric"]]
    }
  }
}
