{
  "_id": "V8cRFtOQA6ltklEl",
  "name": "Fighting Defensively",
  "type": "buff",
  "img": "icons/svg/combat.svg",
  "sort": 0,
  "flags": {},
  "system": {
    "tags": [],
    "changes": [
      {
        "_id": "zmpj4gpd",
        "formula": "@skills.acr.rank>=3?3:2",
        "operator": "add",
        "subTarget": "ac",
        "modifier": "dodge",
        "priority": 0,
        "value": 0,
        "target": "ac"
      },
      {
        "_id": "osyl628w",
        "formula": "-4",
        "operator": "add",
        "subTarget": "attack",
        "modifier": "untyped",
        "priority": 0,
        "value": 0,
        "target": "attack"
      }
    ],
    "contextNotes": [],
    "links": {
      "children": []
    },
    "tag": "fightingDefensively",
    "scriptCalls": [],
    "level": "",
    "duration": {
      "value": "1",
      "units": "round"
    }
  }
}
