{
  "_id": "4ja8qHtoH10kLBMG",
  "name": "(Mythic) Trickster",
  "type": "class",
  "img": "systems/pf1/icons/items/inventory/lockpick.jpg",
  "sort": 0,
  "flags": {},
  "system": {
    "description": {
      "value": "<p>Source&nbsp;<a href=\"http://paizo.com/products/btpy8ywe?Pathfinder-Roleplaying-Game-Mythic-Adventures\" target=\"_blank\" rel=\"noopener\">Mythic Adventures pg. 44</a><br />Seen only when they choose to be seen, tricksters manipulate kings and peasants alike, usually without anyone sensing their inf luence. Characters who rely upon their skills and wit find themselves drawn to the trickster&rsquo;s path. The mythic power of these heroes allows them to perform tasks that most would consider impossible. They can climb any wall, swim any current, and move without being seen by even the most observant guard. When they strike at their foes, they do so with unmatched accuracy.<br /><br />Role: As a trickster, your role in the party is one of deception and manipulation. You have access to a number of abilities that empower you to confound your foes, both physically and mentally. With a subtle jest or twist of phrase, you can steer entire cities and even nations to do your bidding&mdash;but should that fail, you can always rely on a dagger from the shadows.<br /><br />Classes: Members of any class that relies on skills would make good tricksters, as would those who heavily utilize ranged combat or magical methods of subterfuge. The alchemist, bard, and rogue all have a number of abilities that fit well with the trickster. Gunslingers, monks, and rangers will also find that the trickster has more than a few interesting options.<br /><br />Bonus Hit Points: Whenever you gain a trickster tier, you gain 4 bonus hit points. These hit points stack with themselves, and don&rsquo;t affect your overall Hit Dice or other statistics.</p>\n<h2>Path Features</h2>\n<div>\n<table>\n<tbody>\n<tr>\n<td>Tier</td>\n<td>Path Features</td>\n</tr>\n<tr>\n<td>1st</td>\n<td>Path ability, trickster attack</td>\n</tr>\n<tr>\n<td>2nd</td>\n<td>Path ability</td>\n</tr>\n<tr>\n<td>3rd</td>\n<td>Path ability</td>\n</tr>\n<tr>\n<td>4th</td>\n<td>Path ability</td>\n</tr>\n<tr>\n<td>5th</td>\n<td>Path ability</td>\n</tr>\n<tr>\n<td>6th</td>\n<td>Path ability</td>\n</tr>\n<tr>\n<td>7th</td>\n<td>Path ability</td>\n</tr>\n<tr>\n<td>8th</td>\n<td>Path ability</td>\n</tr>\n<tr>\n<td>9th</td>\n<td>Path ability</td>\n</tr>\n<tr>\n<td>10th</td>\n<td>Path ability, supreme trickster</td>\n</tr>\n</tbody>\n</table>\n</div>\n<p>As you gain tiers, you gain the following abilities.<br /><br />Trickster Attack: Select one of the following abilities. Once chosen, it can&rsquo;t be changed.<br /><br />Deadly Throw (Ex): As a swift action, you can expend one use of mythic power to draw a thrown weapon or alchemical item and make a ranged attack with it. This attack doesn&rsquo;t provoke attacks of opportunity. When making a deadly throw, roll twice for the attack, take the higher result, and add your tier to the roll. If the attack misses, the weapon or alchemical item lands adjacent to the target, regardless of the range.<br /><br />Fleet Charge (Ex): As a swift action, you can expend one use of mythic power to move up to your speed. At any point during this movement, you can make a single melee or ranged attack at your highest attack bonus, adding your tier to the attack roll. This is in addition to any other attacks you make this round. Damage from this attack bypasses all damage reduction.<br /><br />Surprise Strike (Ex): As a swift action, you can expend one use of mythic power to make a melee attack or ranged attack against a target within 30 feet, in addition to any other attacks you make this round. When you make a surprise strike, the target is considered flat-footed regardless of any class features or abilities it might have, and you add your tier to the attack roll. Damage from this attack bypasses damage reduction.<br /><br />Path Ability: At 1st tier and every tier thereafter, select one new path ability from the trickster path abilities lists or from the universal path abilities lists (see page 50). Once you select an ability, it can&rsquo;t be changed. Unless otherwise noted, each ability can be selected only once. Some abilities have requirements, such as a class ability or minimum mythic tier, that you must meet before you select them.<br /><br />Supreme Trickster (Su): At 10th tier, whenever you make an attack roll against a non-mythic foe, that foe is treated as flat-footed, even if it has abilities that prevent it from being flat-footed. Once per round when you roll a natural 20 on an opposed skill check against a mythic foe, you regain one use of mythic power.</p>"
    },
    "tags": [],
    "changes": [
      {
        "_id": "jy9k5vo3",
        "formula": "@classes.mythicTrickster.level * 4",
        "operator": "add",
        "subTarget": "mhp",
        "modifier": "untyped",
        "priority": 0,
        "value": 0,
        "target": "misc"
      }
    ],
    "links": {
      "children": [],
      "classAssociations": []
    },
    "tag": "mythicTrickster",
    "armorProf": {
      "value": []
    },
    "weaponProf": {
      "value": []
    },
    "languages": {
      "value": []
    },
    "scriptCalls": [],
    "subType": "mythic",
    "hd": 0,
    "hp": 0,
    "bab": "",
    "savingThrows": {
      "fort": {
        "value": ""
      },
      "ref": {
        "value": ""
      },
      "will": {
        "value": ""
      }
    },
    "classSkills": {
      "acr": false,
      "apr": false,
      "art": false,
      "blf": false,
      "clm": false,
      "crf": false,
      "dip": false,
      "dev": false,
      "dis": false,
      "esc": false,
      "fly": false,
      "han": false,
      "hea": false,
      "int": false,
      "kar": false,
      "kdu": false,
      "ken": false,
      "kge": false,
      "khi": false,
      "klo": false,
      "kna": false,
      "kno": false,
      "kpl": false,
      "kre": false,
      "lin": false,
      "lor": false,
      "per": false,
      "prf": false,
      "pro": false,
      "rid": false,
      "sen": false,
      "slt": false,
      "spl": false,
      "ste": false,
      "sur": false,
      "swm": false,
      "umd": false
    }
  }
}
