{
  "_id": "ykajg35s6iyuigm6",
  "name": "Codespeak",
  "type": "spell",
  "img": "systems/pf1/icons/misc/magic-swirl.png",
  "sort": 0,
  "flags": {},
  "system": {
    "tags": [],
    "actions": [
      {
        "_id": "infwypzc9r4jq665",
        "name": "Use",
        "img": "systems/pf1/icons/misc/magic-swirl.png",
        "description": "",
        "tag": "",
        "activation": {
          "cost": 1,
          "type": "standard"
        },
        "unchainedAction": {
          "activation": {
            "cost": 2,
            "type": "action"
          }
        },
        "duration": {
          "value": "10 min./level (D)",
          "units": ""
        },
        "target": {
          "value": "you plus one willing creature per 2 levels, no two of which can be more than 30 ft. apart"
        },
        "range": {
          "value": null,
          "units": "close",
          "maxIncrements": 1,
          "minValue": null,
          "minUnits": ""
        },
        "uses": {
          "autoDeductChargesCost": "",
          "self": {
            "value": 0,
            "maxFormula": "",
            "per": null
          },
          "per": "",
          "value": 0,
          "maxFormula": ""
        },
        "measureTemplate": {
          "type": "",
          "size": "0",
          "overrideColor": false,
          "customColor": "",
          "overrideTexture": false,
          "customTexture": ""
        },
        "attackName": "",
        "actionType": "",
        "attackBonus": "",
        "critConfirmBonus": "",
        "damage": {
          "parts": [],
          "critParts": [],
          "nonCritParts": []
        },
        "attackParts": [],
        "formulaicAttacks": {
          "count": {
            "formula": ""
          },
          "bonus": {
            "formula": ""
          },
          "label": null
        },
        "formula": "",
        "ability": {
          "attack": "",
          "damage": "",
          "damageMult": 1,
          "critRange": 20,
          "critMult": 2
        },
        "save": {
          "dc": "0",
          "type": "",
          "description": ""
        },
        "effectNotes": [],
        "attackNotes": [],
        "soundEffect": "",
        "powerAttack": {
          "multiplier": "",
          "damageBonus": 2,
          "critMultiplier": 1
        },
        "naturalAttack": {
          "primaryAttack": true,
          "secondary": {
            "attackBonus": "-5",
            "damageMult": 0.5
          }
        },
        "nonlethal": false,
        "usesAmmo": false,
        "spellEffect": "",
        "spellArea": "",
        "conditionals": [],
        "enh": {
          "value": null
        }
      }
    ],
    "uses": {
      "per": ""
    },
    "attackNotes": [],
    "effectNotes": [],
    "links": {
      "children": []
    },
    "scriptCalls": [],
    "learnedAt": {
      "class": [
        ["sorcerer/wizard", 2],
        ["bard", 2],
        ["psychic", 2],
        ["medium", 2],
        ["mesmerist", 2],
        ["occultist", 2]
      ],
      "domain": [],
      "subDomain": [],
      "elementalSchool": [],
      "bloodline": []
    },
    "level": 2,
    "school": "trs",
    "components": {
      "verbal": true,
      "somatic": true,
      "material": true
    },
    "materials": {
      "value": "a complex rune inscribed on a slip of paper that is then placed under your tongue"
    },
    "sr": false,
    "shortDescription": "<p>Upon casting this spell, all recipients gain the ability to speak a new language. This language sounds like random, babbling syllables to anyone not under the influence of the spell, but the targets understand each other perfectly.  Anyone using <i>codespeak</i> can read and write in this new language as well. Once the spell expires, however, any coded writing suddenly appears as gibberish. If the exact same group of individuals become the targets of a <i>codespeak</i> spell again, cast by the same caster, they can once again read any coded writings. A dedicated codebreaker can crack such writing's code, deciphering it one page at a time with a series of DC 30 Linguistics checks.  <i>Comprehend languages</i> doesn't enable a caster to understand the language of another's <i>codespeak</i> spell, but it does reveal that the targets are speaking a magical language. <i>Tongues</i> translates <i>codespeak</i> normally.</p>"
  }
}
