{
  "_id": "4g2m3rbl6c7jk682",
  "name": "Death Clutch",
  "type": "spell",
  "img": "systems/pf1/icons/misc/magic-swirl.png",
  "sort": 0,
  "flags": {},
  "system": {
    "tags": [],
    "actions": [
      {
        "_id": "5fa9kwvmoryqeeka",
        "name": "Use",
        "img": "systems/pf1/icons/misc/magic-swirl.png",
        "description": "",
        "tag": "",
        "activation": {
          "cost": 1,
          "type": "standard"
        },
        "unchainedAction": {
          "activation": {
            "cost": 2,
            "type": "action"
          }
        },
        "duration": {
          "value": "instantaneous",
          "units": ""
        },
        "target": {
          "value": "one living creature"
        },
        "range": {
          "value": null,
          "units": "close",
          "maxIncrements": 1,
          "minValue": null,
          "minUnits": ""
        },
        "uses": {
          "autoDeductChargesCost": "",
          "self": {
            "value": 0,
            "maxFormula": "",
            "per": null
          },
          "per": "",
          "value": 0,
          "maxFormula": ""
        },
        "measureTemplate": {
          "type": "",
          "size": "0",
          "overrideColor": false,
          "customColor": "",
          "overrideTexture": false,
          "customTexture": ""
        },
        "attackName": "",
        "actionType": "spellsave",
        "attackBonus": "",
        "critConfirmBonus": "",
        "damage": {
          "parts": [],
          "critParts": [],
          "nonCritParts": []
        },
        "attackParts": [],
        "formulaicAttacks": {
          "count": {
            "formula": ""
          },
          "bonus": {
            "formula": ""
          },
          "label": null
        },
        "formula": "",
        "ability": {
          "attack": "",
          "damage": "",
          "damageMult": 1,
          "critRange": 20,
          "critMult": 2
        },
        "save": {
          "dc": "0",
          "type": "fort",
          "description": "Fortitude partial (see text)"
        },
        "effectNotes": [],
        "attackNotes": [],
        "soundEffect": "",
        "powerAttack": {
          "multiplier": "",
          "damageBonus": 2,
          "critMultiplier": 1
        },
        "naturalAttack": {
          "primaryAttack": true,
          "secondary": {
            "attackBonus": "-5",
            "damageMult": 0.5
          }
        },
        "nonlethal": false,
        "usesAmmo": false,
        "spellEffect": "",
        "spellArea": "",
        "conditionals": [],
        "enh": {
          "value": null
        }
      }
    ],
    "uses": {
      "per": ""
    },
    "attackNotes": [],
    "effectNotes": [],
    "links": {
      "children": []
    },
    "scriptCalls": [],
    "learnedAt": {
      "class": [
        ["sorcerer/wizard", 8],
        ["cleric/oracle", 8],
        ["druid", 9],
        ["witch", 8],
        ["psychic", 8]
      ],
      "domain": [],
      "subDomain": [],
      "elementalSchool": [],
      "bloodline": []
    },
    "level": 8,
    "school": "nec",
    "types": "death, evil",
    "components": {
      "verbal": true,
      "somatic": true
    },
    "shortDescription": "<p>Chanting an unholy litany, you reach out with a grasping motion toward your target and cause its heart to leap out of its chest and into your hand. A target with 200 or fewer hit points remaining that fails its saving throw is instantly reduced to a number of negative hit points equal to your caster level or its Constitution score - 1, whichever is less negative. The creature is staggered until the beginning of your next turn, at which point it dies. If the affected creature receives a <i>regenerate</i> spell before the beginning of your next turn, the creature gains the normal benefits of that spell and, thanks to its heart's regeneration, it doesn't immediately die when your next turn begins. If a creature that dies from <i>death clutch</i> is brought back from the dead by a <i>Breath of Life</i> or <i>raise dead</i> spell, it must also be targeted with <i>regenerate</i> on the following round to restore its missing heart or be unable to return to life.  A target with 201 or more hit points that fails its saving throw manages to keep its heart from leaping out of its chest, but it is still staggered for 1 minute and takes 1d4 points of Constitution drain and 1d4 points of Constitution bleed.  Regardless of its current hit points, if the target succeeds at its Fortitude save, it is still staggered until the beginning of your next turn as it feels its heart wrenching within its chest.</p>"
  }
}
