{
  "_id": "tj94dyqy8yczodsz",
  "name": "Fey Form IV",
  "type": "spell",
  "img": "systems/pf1/icons/misc/magic-swirl.png",
  "sort": 0,
  "flags": {},
  "system": {
    "tags": [],
    "actions": [
      {
        "_id": "qnxmwnvs4fn3381c",
        "name": "Use",
        "img": "systems/pf1/icons/misc/magic-swirl.png",
        "description": "",
        "tag": "",
        "activation": {
          "cost": 1,
          "type": "standard"
        },
        "unchainedAction": {
          "activation": {
            "cost": 2,
            "type": "action"
          }
        },
        "duration": {
          "value": "1 minute/level (D)",
          "units": ""
        },
        "target": {
          "value": "you"
        },
        "range": {
          "value": null,
          "units": "personal",
          "maxIncrements": 1,
          "minValue": null,
          "minUnits": ""
        },
        "uses": {
          "autoDeductChargesCost": "",
          "self": {
            "value": 0,
            "maxFormula": "",
            "per": null
          },
          "per": "",
          "value": 0,
          "maxFormula": ""
        },
        "measureTemplate": {
          "type": "",
          "size": "0",
          "overrideColor": false,
          "customColor": "",
          "overrideTexture": false,
          "customTexture": ""
        },
        "attackName": "",
        "actionType": "",
        "attackBonus": "",
        "critConfirmBonus": "",
        "damage": {
          "parts": [],
          "critParts": [],
          "nonCritParts": []
        },
        "attackParts": [],
        "formulaicAttacks": {
          "count": {
            "formula": ""
          },
          "bonus": {
            "formula": ""
          },
          "label": null
        },
        "formula": "",
        "ability": {
          "attack": "",
          "damage": "",
          "damageMult": 1,
          "critRange": 20,
          "critMult": 2
        },
        "save": {
          "dc": "0",
          "type": "",
          "description": ""
        },
        "effectNotes": [],
        "attackNotes": [],
        "soundEffect": "",
        "powerAttack": {
          "multiplier": "",
          "damageBonus": 2,
          "critMultiplier": 1
        },
        "naturalAttack": {
          "primaryAttack": true,
          "secondary": {
            "attackBonus": "-5",
            "damageMult": 0.5
          }
        },
        "nonlethal": false,
        "usesAmmo": false,
        "spellEffect": "",
        "spellArea": "",
        "conditionals": [],
        "enh": {
          "value": null
        }
      }
    ],
    "uses": {
      "per": ""
    },
    "attackNotes": [],
    "effectNotes": [],
    "links": {
      "children": []
    },
    "scriptCalls": [],
    "learnedAt": {
      "class": [
        ["sorcerer/wizard", 9],
        ["druid", 8],
        ["witch", 9],
        ["shaman", 8]
      ],
      "domain": [],
      "subDomain": [],
      "elementalSchool": [],
      "bloodline": []
    },
    "level": 9,
    "school": "trs",
    "subschool": "polymorph",
    "components": {
      "verbal": true,
      "somatic": true,
      "material": true
    },
    "materials": {
      "value": "a piece of the creature whose form you plan to assume"
    },
    "sr": false,
    "shortDescription": "<p>This spell functions as <i>fey form III</i> except it doesn't limit your base speed and also allows you to use more abilities. If the form you assume has any of the following abilities, you gain those abilities: burrow speed 60 feet, climb speed 90 feet, fly speed 120 feet (good maneuverability), swim speed 120 feet, all-around vision, blindsense 60 feet, blindsight 30 feet, darkvision 90 feet, low-light vision, scent, see in darkness, tremorsense 60 feet, abduct, animated hair, beguiling aura, bleed, blood rage, boot stomp, burn, compression, constrict, crushing leap, DR 5/cold iron, fast healing 5, fear aura, frightful presence, grab, heavy weapons, hide in plain sight, icewalking, kneecapper, luminous, nasal spray, no shadow, oversized weapons, poison, putrid vomit, rend, rock throwing (120 feet, 2d10 damage), sound mimicry, supernatural speed, tear shadow, trackless step, trample, transparency, tree meld, undersized weapons, vault, and woodland stride. If the creature has immunity or resistance to any energy types, you gain resistance 30 to those energy types. If the creature has immunity to mindaffecting effects or poison, you gain a +8 resistance bonus on saves against those effects. If the creature has spell resistance, you gain spell resistance 6 + your caster level. If the creature has any weaknesses, you gain those weaknesses.</p>"
  }
}
