{
  "_id": "0axqb92kzlesc24q",
  "name": "Imbue with Spell Ability",
  "type": "spell",
  "img": "systems/pf1/icons/misc/magic-swirl.png",
  "sort": 0,
  "flags": {},
  "system": {
    "tags": [],
    "actions": [
      {
        "_id": "qsnew92g9phjmwhu",
        "name": "Use",
        "img": "systems/pf1/icons/misc/magic-swirl.png",
        "description": "",
        "tag": "",
        "activation": {
          "cost": 10,
          "type": "minute"
        },
        "unchainedAction": {
          "activation": {
            "cost": 10,
            "type": "minute"
          }
        },
        "duration": {
          "value": "permanent until discharged",
          "units": ""
        },
        "target": {
          "value": "creature touched; see text"
        },
        "range": {
          "value": null,
          "units": "touch",
          "maxIncrements": 1,
          "minValue": null,
          "minUnits": ""
        },
        "uses": {
          "autoDeductChargesCost": "",
          "self": {
            "value": 0,
            "maxFormula": "",
            "per": null
          },
          "per": "",
          "value": 0,
          "maxFormula": ""
        },
        "measureTemplate": {
          "type": "",
          "size": "0",
          "overrideColor": false,
          "customColor": "",
          "overrideTexture": false,
          "customTexture": ""
        },
        "attackName": "",
        "actionType": "spellsave",
        "attackBonus": "",
        "critConfirmBonus": "",
        "damage": {
          "parts": [],
          "critParts": [],
          "nonCritParts": []
        },
        "attackParts": [],
        "formulaicAttacks": {
          "count": {
            "formula": ""
          },
          "bonus": {
            "formula": ""
          },
          "label": null
        },
        "formula": "",
        "ability": {
          "attack": "",
          "damage": "",
          "damageMult": 1,
          "critRange": 20,
          "critMult": 2
        },
        "save": {
          "dc": "0",
          "type": "will",
          "description": "Will negates (harmless)"
        },
        "effectNotes": [],
        "attackNotes": [],
        "soundEffect": "",
        "powerAttack": {
          "multiplier": "",
          "damageBonus": 2,
          "critMultiplier": 1
        },
        "naturalAttack": {
          "primaryAttack": true,
          "secondary": {
            "attackBonus": "-5",
            "damageMult": 0.5
          }
        },
        "nonlethal": false,
        "usesAmmo": false,
        "spellEffect": "",
        "spellArea": "",
        "conditionals": [],
        "enh": {
          "value": null
        }
      }
    ],
    "uses": {
      "per": ""
    },
    "attackNotes": [],
    "effectNotes": [],
    "links": {
      "children": []
    },
    "scriptCalls": [],
    "learnedAt": {
      "class": [
        ["cleric/oracle", 4],
        ["shaman", 4],
        ["spiritualist", 4]
      ],
      "domain": [
        ["Community", 4],
        ["Magic", 4]
      ],
      "subDomain": [],
      "elementalSchool": [],
      "bloodline": []
    },
    "level": 4,
    "school": "evo",
    "components": {
      "verbal": true,
      "somatic": true,
      "divineFocus": 1
    },
    "shortDescription": "<p>You transfer some of your currently prepared spells, and the ability to cast them, to another creature. Only a creature with an Intelligence score of at least 5 and a Wisdom score of at least 9 can receive this boon. Only cleric spells from the schools of abjuration, divination, and conjuration (healing) can be transferred. The number and level of spells that the subject can be granted depends on its Hit Dice; even multiple castings of <i>imbue with spell ability</i> can't exceed this limit.</p><p> <table><tr><th>HD of recipient</th><th>Spells imbued</th></tr><tr><td>2 or lower</td><td>One 1st-level spell</td></tr><tr><td>3-4</td><td>One or two 1st-level spells</td></tr><tr><td>5 or higher</td><td>One or two 1st-level spells and one 2nd-level spell</td></tr></table>  The transferred spell's variable characteristics (range, duration, area, and the like) function according to your level, not the level of the recipient.</p><p>Once you cast <i>imbue with spell ability</i>, you cannot prepare a new 4th-level spell to replace it until the recipient uses the imbued spells or is slain, or until you dismiss the <i>imbue with spell ability</i> spell. In the meantime, you remain responsible to your deity or your principles for the use to which the spell is put. If the number of 4th-level spells you can cast decreases, and that number drops below your current number of active <i>imbue with spell ability</i> spells, the more recently cast imbued spells are dispelled.</p><p>To cast a spell with a verbal component, the subject must be able to speak. To cast a spell with a somatic component, it must be able to move freely. To cast a spell with a material component or focus, it must have the materials or focus.</p>"
  }
}
