{
  "_id": "b1wzbehqfac9s1be",
  "name": "Mage's Faithful Hound",
  "type": "spell",
  "img": "systems/pf1/icons/misc/magic-swirl.png",
  "sort": 0,
  "flags": {},
  "system": {
    "tags": [],
    "actions": [
      {
        "_id": "726d27724vwpw9iz",
        "name": "Use",
        "img": "systems/pf1/icons/misc/magic-swirl.png",
        "description": "",
        "tag": "",
        "activation": {
          "cost": 1,
          "type": "standard"
        },
        "unchainedAction": {
          "activation": {
            "cost": 2,
            "type": "action"
          }
        },
        "duration": {
          "value": "1 hour/level or until discharged, then 1 round/level; see text",
          "units": ""
        },
        "target": {
          "value": ""
        },
        "range": {
          "value": null,
          "units": "close",
          "maxIncrements": 1,
          "minValue": null,
          "minUnits": ""
        },
        "uses": {
          "autoDeductChargesCost": "",
          "self": {
            "value": 0,
            "maxFormula": "",
            "per": null
          },
          "per": "",
          "value": 0,
          "maxFormula": ""
        },
        "measureTemplate": {
          "type": "",
          "size": "0",
          "overrideColor": false,
          "customColor": "",
          "overrideTexture": false,
          "customTexture": ""
        },
        "attackName": "",
        "actionType": "other",
        "attackBonus": "",
        "critConfirmBonus": "",
        "damage": {
          "parts": [],
          "critParts": [],
          "nonCritParts": []
        },
        "attackParts": [],
        "formulaicAttacks": {
          "count": {
            "formula": ""
          },
          "bonus": {
            "formula": ""
          },
          "label": null
        },
        "formula": "",
        "ability": {
          "attack": "",
          "damage": "",
          "damageMult": 1,
          "critRange": 20,
          "critMult": 2
        },
        "save": {
          "dc": "0",
          "type": "",
          "description": ""
        },
        "effectNotes": [],
        "attackNotes": [],
        "soundEffect": "",
        "powerAttack": {
          "multiplier": "",
          "damageBonus": 2,
          "critMultiplier": 1
        },
        "naturalAttack": {
          "primaryAttack": true,
          "secondary": {
            "attackBonus": "-5",
            "damageMult": 0.5
          }
        },
        "nonlethal": false,
        "usesAmmo": false,
        "spellEffect": "phantom watchdog",
        "spellArea": "",
        "conditionals": [],
        "enh": {
          "value": null
        }
      }
    ],
    "uses": {
      "per": ""
    },
    "attackNotes": [],
    "effectNotes": [],
    "links": {
      "children": []
    },
    "scriptCalls": [],
    "learnedAt": {
      "class": [
        ["sorcerer/wizard", 5],
        ["summoner", 4],
        ["spiritualist", 5],
        ["unchained Summoner", 5]
      ],
      "domain": [],
      "subDomain": [],
      "elementalSchool": [],
      "bloodline": []
    },
    "level": 5,
    "school": "con",
    "subschool": "creation",
    "components": {
      "verbal": true,
      "somatic": true,
      "material": true
    },
    "materials": {
      "value": "a tiny silver whistle, a piece of bone, and a thread"
    },
    "sr": false,
    "shortDescription": "<p>You conjure up a phantom watchdog that is invisible to everyone but yourself. It then guards the area where it was conjured (it does not move). The hound immediately starts barking loudly if any Small or larger creature approaches within 30 feet of it. (Those within 30 feet of the hound when it is conjured may move about in the area, but if they leave and return, they activate the barking.) The hound sees invisible and ethereal creatures. It does not react to figments, but it does react to shadow illusions.</p><p>If an intruder approaches to within 5 feet of the hound, the dog stops barking and delivers a vicious bite (+10 attack bonus, 2d6+3 points of piercing damage) once per round. The dog also gets the bonuses appropriate to an invisible creature (see <i>invisibility).</i></p><p>The dog is considered ready to bite intruders, so it delivers its first bite on the intruder's turn. Its bite is the equivalent of a magic weapon for the purpose of damage reduction. The hound cannot be attacked, but it can be dispelled.</p><p>The spell lasts for 1 hour per caster level, but once the hound begins barking, it lasts only 1 round per caster level. If you are ever more than 100 feet distant from the hound, the spell ends.</p>"
  }
}
