{
  "_id": "8u1xa5javcxc6szk",
  "name": "Rage",
  "type": "spell",
  "img": "systems/pf1/icons/misc/magic-swirl.png",
  "sort": 0,
  "flags": {},
  "system": {
    "tags": [],
    "actions": [
      {
        "_id": "0enlens404iugqw5",
        "name": "Use",
        "img": "systems/pf1/icons/misc/magic-swirl.png",
        "description": "",
        "tag": "",
        "activation": {
          "cost": 1,
          "type": "standard"
        },
        "unchainedAction": {
          "activation": {
            "cost": 2,
            "type": "action"
          }
        },
        "duration": {
          "value": "concentration + 1 round/level",
          "units": ""
        },
        "target": {
          "value": "one willing living creature per three levels, no two of which may be more than 30 ft. apart"
        },
        "range": {
          "value": null,
          "units": "medium",
          "maxIncrements": 1,
          "minValue": null,
          "minUnits": ""
        },
        "uses": {
          "autoDeductChargesCost": "",
          "self": {
            "value": 0,
            "maxFormula": "",
            "per": null
          },
          "per": "",
          "value": 0,
          "maxFormula": ""
        },
        "measureTemplate": {
          "type": "",
          "size": "0",
          "overrideColor": false,
          "customColor": "",
          "overrideTexture": false,
          "customTexture": ""
        },
        "attackName": "",
        "actionType": "",
        "attackBonus": "",
        "critConfirmBonus": "",
        "damage": {
          "parts": [],
          "critParts": [],
          "nonCritParts": []
        },
        "attackParts": [],
        "formulaicAttacks": {
          "count": {
            "formula": ""
          },
          "bonus": {
            "formula": ""
          },
          "label": null
        },
        "formula": "",
        "ability": {
          "attack": "",
          "damage": "",
          "damageMult": 1,
          "critRange": 20,
          "critMult": 2
        },
        "save": {
          "dc": "0",
          "type": "",
          "description": ""
        },
        "effectNotes": [],
        "attackNotes": [],
        "soundEffect": "",
        "powerAttack": {
          "multiplier": "",
          "damageBonus": 2,
          "critMultiplier": 1
        },
        "naturalAttack": {
          "primaryAttack": true,
          "secondary": {
            "attackBonus": "-5",
            "damageMult": 0.5
          }
        },
        "nonlethal": false,
        "usesAmmo": false,
        "spellEffect": "",
        "spellArea": "",
        "conditionals": [],
        "enh": {
          "value": null
        }
      }
    ],
    "uses": {
      "per": ""
    },
    "attackNotes": [],
    "effectNotes": [],
    "links": {
      "children": []
    },
    "scriptCalls": [],
    "learnedAt": {
      "class": [
        ["sorcerer/wizard", 3],
        ["bard", 2],
        ["alchemist", 3],
        ["summoner", 3],
        ["witch", 3],
        ["bloodrager", 3],
        ["psychic", 3],
        ["mesmerist", 2],
        ["unchained Summoner", 3]
      ],
      "domain": [
        ["Destruction", 3],
        ["Madness", 3]
      ],
      "subDomain": [
        ["Demon", 3],
        ["Ferocity", 3]
      ],
      "elementalSchool": [],
      "bloodline": [
        ["Abyssal", 3],
        ["Boreal", 2],
        ["Orc", 3]
      ]
    },
    "level": 3,
    "school": "enc",
    "subschool": "compulsion",
    "types": "emotion, mind-affecting",
    "components": {
      "verbal": true,
      "somatic": true
    },
    "shortDescription": "<p>Each affected creature gains a +2 morale bonus to Strength and Constitution, a +1 morale bonus on Will saves, and a -2 penalty to AC. The effect is otherwise identical with a barbarian's rage except that the subjects aren't fatigued at the end of the rage.</p>"
  }
}
