{
  "_id": "o4rwtizvdj7216qd",
  "name": "Seamantle",
  "type": "spell",
  "img": "systems/pf1/icons/misc/magic-swirl.png",
  "sort": 0,
  "flags": {},
  "system": {
    "tags": [],
    "actions": [
      {
        "_id": "9lhrredzmckjg64o",
        "name": "Use",
        "img": "systems/pf1/icons/misc/magic-swirl.png",
        "description": "",
        "tag": "",
        "activation": {
          "cost": 1,
          "type": "standard"
        },
        "unchainedAction": {
          "activation": {
            "cost": 2,
            "type": "action"
          }
        },
        "duration": {
          "value": "1 minute/level",
          "units": ""
        },
        "target": {
          "value": "you"
        },
        "range": {
          "value": null,
          "units": "personal",
          "maxIncrements": 1,
          "minValue": null,
          "minUnits": ""
        },
        "uses": {
          "autoDeductChargesCost": "",
          "self": {
            "value": 0,
            "maxFormula": "",
            "per": null
          },
          "per": "",
          "value": 0,
          "maxFormula": ""
        },
        "measureTemplate": {
          "type": "",
          "size": "0",
          "overrideColor": false,
          "customColor": "",
          "overrideTexture": false,
          "customTexture": ""
        },
        "attackName": "",
        "actionType": "",
        "attackBonus": "",
        "critConfirmBonus": "",
        "damage": {
          "parts": [],
          "critParts": [],
          "nonCritParts": []
        },
        "attackParts": [],
        "formulaicAttacks": {
          "count": {
            "formula": ""
          },
          "bonus": {
            "formula": ""
          },
          "label": null
        },
        "formula": "",
        "ability": {
          "attack": "",
          "damage": "",
          "damageMult": 1,
          "critRange": 20,
          "critMult": 2
        },
        "save": {
          "dc": "0",
          "type": "",
          "description": ""
        },
        "effectNotes": [],
        "attackNotes": [],
        "soundEffect": "",
        "powerAttack": {
          "multiplier": "",
          "damageBonus": 2,
          "critMultiplier": 1
        },
        "naturalAttack": {
          "primaryAttack": true,
          "secondary": {
            "attackBonus": "-5",
            "damageMult": 0.5
          }
        },
        "nonlethal": false,
        "usesAmmo": false,
        "spellEffect": "",
        "spellArea": "",
        "conditionals": [],
        "enh": {
          "value": null
        }
      }
    ],
    "uses": {
      "per": ""
    },
    "attackNotes": [],
    "effectNotes": [],
    "links": {
      "children": []
    },
    "scriptCalls": [],
    "learnedAt": {
      "class": [
        ["sorcerer/wizard", 8],
        ["druid", 8]
      ],
      "domain": [],
      "subDomain": [],
      "elementalSchool": [],
      "bloodline": [["Aquatic", 8]]
    },
    "level": 8,
    "school": "con",
    "subschool": "creation",
    "types": "water",
    "components": {
      "verbal": true,
      "somatic": true,
      "material": true
    },
    "materials": {
      "value": "a cup of water"
    },
    "sr": false,
    "shortDescription": "<p>You sheathe yourself within a churning column of pure elemental water up to 30 feet high that fills your space. You gain a swim speed equal to your land speed and can see, hear, and breathe normally within the <i>seamantle</i>, but attacks against you are treated as if you were under the surface of the water. You gain improved cover (+8 cover bonus to AC, +4 bonus on Reflex saves) against foes that do not have <i>freedom of movement</i> effects. The cover granted by the <i>seamantle</i> does not enable you to make Stealth checks or prevent attacks of opportunity. Magical attacks against you are unaffected unless they require attack rolls or state that they do not function underwater (such as <i>cloudkill</i>).</p><p>The <i>seamantle</i> blocks line of effect for any fire spell or supernatural fire effect, but enemies can attempt to use fire spells within the <i>seamantle</i>; this requires a caster level check (DC 20 + spell level), and if successful the fire spell takes as a bubble of steam contained within the <i>seamantle</i> rather than its usual effect.</p><p>The <i>seamantle</i> allows you to make a slam attack by forming a pseudopod of water, inflicting damage appropriate for your size. This slam attack has a reach of 30 feet. In addition, as a standard action, you can attempt to extinguish fires by touch.</p><p>You automatically extinguish up to a 10-foot cube of normal fire. Against magical fire effects, your touch acts as <i>dispel magic</i>; this also applies to any non-instantaneous fire affect that comes into contact with you (such as <i>flame blade</i>, <i><i>flaming</i> sphere</i>, or <i>incendiary cloud</i>). Even if you fail to extinguish a fire, you are not harmed by it. A <i>flaming</i> or <i>flaming</i> burst weapon that strikes you has its power suppressed for 1d4 rounds if the wielder fails a Fortitude save.</p>"
  }
}
