{
  "_id": "zew7eb9gcimnw81k",
  "name": "Shining Cord",
  "type": "spell",
  "img": "systems/pf1/icons/misc/magic-swirl.png",
  "sort": 0,
  "flags": {},
  "system": {
    "tags": [],
    "actions": [
      {
        "_id": "5s4r2o9bzfcyctrc",
        "name": "Use",
        "img": "systems/pf1/icons/misc/magic-swirl.png",
        "description": "",
        "tag": "",
        "activation": {
          "cost": 1,
          "type": "standard"
        },
        "unchainedAction": {
          "activation": {
            "cost": 2,
            "type": "action"
          }
        },
        "duration": {
          "value": "1 round/level or instantaneous (see below)",
          "units": ""
        },
        "target": {
          "value": "1 creature"
        },
        "range": {
          "value": "30",
          "units": "ft",
          "maxIncrements": 1,
          "minValue": null,
          "minUnits": ""
        },
        "uses": {
          "autoDeductChargesCost": "",
          "self": {
            "value": 0,
            "maxFormula": "",
            "per": null
          },
          "per": "",
          "value": 0,
          "maxFormula": ""
        },
        "measureTemplate": {
          "type": "",
          "size": "0",
          "overrideColor": false,
          "customColor": "",
          "overrideTexture": false,
          "customTexture": ""
        },
        "attackName": "",
        "actionType": "spellsave",
        "attackBonus": "",
        "critConfirmBonus": "",
        "damage": {
          "parts": [],
          "critParts": [],
          "nonCritParts": []
        },
        "attackParts": [],
        "formulaicAttacks": {
          "count": {
            "formula": ""
          },
          "bonus": {
            "formula": ""
          },
          "label": null
        },
        "formula": "",
        "ability": {
          "attack": "",
          "damage": "",
          "damageMult": 1,
          "critRange": 20,
          "critMult": 2
        },
        "save": {
          "dc": "0",
          "type": "fort",
          "description": "Fortitude partial (see below)"
        },
        "effectNotes": [],
        "attackNotes": [],
        "soundEffect": "",
        "powerAttack": {
          "multiplier": "",
          "damageBonus": 2,
          "critMultiplier": 1
        },
        "naturalAttack": {
          "primaryAttack": true,
          "secondary": {
            "attackBonus": "-5",
            "damageMult": 0.5
          }
        },
        "nonlethal": false,
        "usesAmmo": false,
        "spellEffect": "",
        "spellArea": "",
        "conditionals": [],
        "enh": {
          "value": null
        }
      }
    ],
    "uses": {
      "per": ""
    },
    "attackNotes": [],
    "effectNotes": [],
    "links": {
      "children": []
    },
    "scriptCalls": [],
    "learnedAt": {
      "class": [["magus", 3]],
      "domain": [],
      "subDomain": [],
      "elementalSchool": [],
      "bloodline": []
    },
    "level": 3,
    "school": "evo",
    "types": "force",
    "components": {
      "verbal": true,
      "somatic": true,
      "material": true
    },
    "materials": {
      "value": "a small length fine of silver chain worth 100 gp",
      "gpValue": 100
    },
    "spellbook": "",
    "preparation": {
      "spontaneousPrepared": false
    },
    "shortDescription": "<p>When you cast this spell, you make a ranged touch attack against a single opponent within 30 feet. If you hit, a thin silver strand extends from your body to its, forming a connection that allows you to anticipate its actions. For the duration of the spell, you receive a +5 insight bonus on all Perception and Sense Motive checks opposed by the target.</p><p>You gain a +5 insight bonus on all Spellcraft checks made to identify your opponent's spell as part of a counterspelling attempt. Finally, you gain a +2 dodge bonus to your AC against attacks made against you by the target.</p><p>Lastly, if either you or the target moves more than 30 feet away from the other, the cord crackles with a surge of light and sends a blast of force along its length to the other end.</p><p>This blast deals 1d6 points of damage per two caster levels (maximum 10d6) and stuns the one who moved out of range for 1 round-a successful Fortitude save halves the damage and negates the stun effect. This blast ends the spell and severs the connection between you and your target.</p><p>Although the <i>shining cord</i> makes a visible connection between you and your target, creatures can move through it without ill effect. The cord even passes through solid objects as necessary to maintain the connection between you and the target.</p>"
  }
}
