{
  "_id": "DGDOm05afSJj454X",
  "name": "Ninja",
  "type": "class",
  "img": "systems/pf1/icons/items/weapons/kunai.png",
  "sort": 0,
  "flags": {},
  "system": {
    "description": {
      "value": "<p>When the wealthy and the powerful need an enemy eliminated quietly and without fail, they call upon the ninja. When a general needs to sabotage the siege engines of his foes before they can reach the castle walls, he calls upon the ninja. And when fools dare to move against a ninja or her companions, they will find the ninja waiting for them while they sleep, ready to strike. These shadowy killers are masters of infiltration, sabotage, and assassination, using a wide variety of weapons, practiced skills, and mystical powers to achieve their goals.</p>\n<p><strong>Role:</strong> The ninja spends almost all of her time honing her skills, practicing her art, or working on her next assignment. Even when not specifically working, the ninja is ever vigilant and ready for the situation to turn deadly. Her line of work earns her many enemies, but it is a list that she frequently reduces through assassination and misdirection.</p>\n<p><strong>Alignment:</strong> Any.</p>\n<p><strong>Hit Die</strong>: d8.</p>\n<p><strong>Starting Wealth</strong>: 4d6 × 10 gp (average 140 gp.) In addition, each character begins play with an outfit worth 10 gp or less.</p>\n<h2><span id=\"Class_Skills\">Class Skills</span></h2>\n<p>The ninja’s class skills are <em>Acrobatics</em>&nbsp;(<em>Dex</em>),<em> Appraise</em>&nbsp;(<em>Int</em>),<em> Bluff</em>&nbsp;(<em>Cha</em>),<em> Climb</em>&nbsp;(<em>Str</em>),<em> Craft</em>&nbsp;(<em>Int</em>),<em> Diplomacy</em>&nbsp;(<em>Cha</em>),<em> Disable Device</em>&nbsp;(<em>Dex</em>),<em> Disguise</em>&nbsp;(<em>Cha</em>),<em> Escape Artist</em>&nbsp;(<em>Dex</em>),<em> Intimidate</em>&nbsp;(<em>Cha</em>),<em> Knowledge</em>&nbsp;(local) (<em>Int</em>),<em> Knowledge</em>&nbsp;(nobility) (<em>Int</em>),<em> Linguistics</em>&nbsp;(<em>Int</em>),<em> Perception</em>&nbsp;(<em>Wis</em>),<em> Perform</em>&nbsp;(<em>Cha</em>),<em> Profession</em>&nbsp;(<em>Wis</em>), <em>Sense Motive</em>&nbsp;(<em>Wis</em>), <em>Sleight of Hand</em>&nbsp;(<em>Dex</em>), <em>Stealth</em>&nbsp;(<em>Dex</em>), <em>Swim</em>&nbsp;(<em>Str</em>), and <em>Use Magic Device</em>&nbsp;(<em>Cha</em>).</p>\n<p><strong>Skill Ranks per Level</strong>: 8 +&nbsp;<em>Int</em>&nbsp;<em>modifier</em>.</p>"
    },
    "tags": [],
    "changes": [],
    "links": {
      "children": [],
      "classAssociations": [
        {
          "id": "pf1.class-abilities.A54sLfcyoR5HGNbP",
          "dataType": "compendium",
          "name": "Poison Use",
          "img": "systems/pf1/icons/items/weapons/dagger.PNG",
          "level": 1,
          "_index": 0
        },
        {
          "id": "pf1.class-abilities.6pjr8jMFSKqXkBKk",
          "dataType": "compendium",
          "name": "Sneak Attack (ROG)",
          "img": "systems/pf1/icons/skills/red_13.jpg",
          "level": 1,
          "_index": 1
        },
        {
          "id": "pf1.class-abilities.V4rFQp52p7nzcijL",
          "dataType": "compendium",
          "name": "Ki Pool (NIN)",
          "img": "systems/pf1/icons/skills/emerald_11.jpg",
          "level": 2,
          "_index": 2
        },
        {
          "id": "pf1.class-abilities.7WaQxnVaaoL4AGr8",
          "dataType": "compendium",
          "name": "Uncanny Dodge",
          "img": "systems/pf1/icons/feats/wind-stance.jpg",
          "level": 4,
          "_index": 3
        },
        {
          "id": "pf1.class-abilities.ZfnHhhTFQVo0Lj4P",
          "dataType": "compendium",
          "name": "Improved Uncanny Dodge",
          "img": "systems/pf1/icons/feats/wind-stance.jpg",
          "level": 8,
          "_index": 4
        },
        {
          "id": "pf1.class-abilities.uSq9FyjQp3MF1ZPc",
          "dataType": "compendium",
          "name": "Light Steps",
          "img": "systems/pf1/icons/feats/acrobatic.jpg",
          "level": 6,
          "_index": 5
        },
        {
          "id": "pf1.class-abilities.V3TQ2f5HeX4K6l4p",
          "dataType": "compendium",
          "name": "No Trace",
          "img": "systems/pf1/icons/skills/shadow_17.jpg",
          "level": 3,
          "_index": 6
        },
        {
          "id": "pf1.class-abilities.1fbwS4T5JTquFd7a",
          "dataType": "compendium",
          "name": "Master Tricks",
          "img": "systems/pf1/icons/items/weapons/butterfly-knife.PNG",
          "level": 10,
          "_index": 7
        },
        {
          "id": "pf1.class-abilities.Q6nL5pL41d7LzJWr",
          "dataType": "compendium",
          "name": "Hidden Master",
          "img": "systems/pf1/icons/feats/stealthy.jpg",
          "level": 20,
          "_index": 8
        }
      ]
    },
    "tag": "ninja",
    "useCustomTag": true,
    "armorProf": {
      "value": ["lgt"]
    },
    "weaponProf": {
      "value": ["sim"],
      "custom": "Kama;Katana;Kusarigama;Nunchaku;Sai;Shortbow;Short Sword;Shuriken;Siangham;Wakizashi"
    },
    "languages": {
      "value": []
    },
    "scriptCalls": [],
    "bab": "med",
    "skillsPerLevel": 8,
    "savingThrows": {
      "ref": {
        "value": "high"
      }
    },
    "classSkills": {
      "acr": true,
      "apr": true,
      "art": true,
      "blf": true,
      "clm": true,
      "crf": true,
      "dip": true,
      "dev": true,
      "dis": true,
      "esc": true,
      "fly": false,
      "han": false,
      "hea": false,
      "int": true,
      "kar": false,
      "kdu": false,
      "ken": false,
      "kge": false,
      "khi": false,
      "klo": true,
      "kna": false,
      "kno": true,
      "kpl": false,
      "kre": false,
      "lin": true,
      "lor": true,
      "per": true,
      "prf": true,
      "pro": true,
      "rid": false,
      "sen": true,
      "slt": true,
      "spl": false,
      "ste": true,
      "sur": false,
      "swm": true,
      "umd": true
    }
  }
}
